<?xml version="1.0" standalone="no"?>
<!DOCTYPE svg PUBLIC "-//W3C//DTD SVG 1.1//EN" "http://www.w3.org/Graphics/SVG/1.1/DTD/svg11.dtd" >
<svg>
<metadata>
Created by FontForge 20090622 at Tue Sep 27 14:51:18 2016
 By deploy user
HTF Gotham  Copr. 2000 The Hoefler Type Foundry, Inc. Info: www.typography.com
</metadata>
<defs>
<font id="GothamBold" horiz-adv-x="500" >
  <font-face 
    font-family="Gotham Bold"
    font-weight="700"
    font-stretch="normal"
    units-per-em="1000"
    panose-1="2 0 8 3 3 0 0 2 0 4"
    ascent="800"
    descent="-200"
    x-height="536"
    cap-height="700"
    bbox="-71 -173 1195 932"
    underline-thickness="20"
    underline-position="-113"
    unicode-range="U+0020-U+FB02"
  />
<missing-glyph 
 />
    <glyph glyph-name="fi" unicode="fi" horiz-adv-x="684" 
d="M457 536h152v-536h-152v536zM94 406h-63v125h63v34q0 87 43 130q42 42 123 42q36 0 61.5 -4t46.5 -11v-126q-17 6 -33 9.5t-36 3.5q-55 0 -55 -58v-21h123v-124h-121v-406h-152v406zM453 730h160v-135h-160v135z" />
    <glyph glyph-name="fl" unicode="fl" horiz-adv-x="684" 
d="M457 730h152v-730h-152v730zM94 406h-63v125h63v34q0 87 43 130q42 42 123 42q36 0 61.5 -4t46.5 -11v-126q-17 6 -33 9.5t-36 3.5q-55 0 -55 -58v-21h123v-124h-121v-406h-152v406z" />
    <glyph glyph-name=".notdef" 
 />
    <glyph glyph-name="NUL" horiz-adv-x="0" 
 />
    <glyph glyph-name="nonmarkingreturn" horiz-adv-x="300" 
 />
    <glyph glyph-name="space" unicode=" " horiz-adv-x="300" 
 />
    <glyph glyph-name="exclam" unicode="!" horiz-adv-x="324" 
d="M81 160h162v-160h-162v160zM73 680v20h178v-20l-47 -442h-84z" />
    <glyph glyph-name="quotedbl" unicode="&#x22;" horiz-adv-x="520" 
d="M75 700h168v-5l-109 -314h-77zM311 700h168v-5l-109 -314h-77z" />
    <glyph glyph-name="numbersign" unicode="#" horiz-adv-x="700" 
d="M410 278l25 148h-145l-25 -148h145zM111 150h-76v128h98l25 148h-88v128h110l25 146h132l-25 -146h145l25 146h132l-25 -146h76v-128h-98l-25 -148h88v-128h-110l-26 -150h-132l26 150h-145l-26 -150h-132z" />
    <glyph glyph-name="dollar" unicode="$" horiz-adv-x="646" 
d="M379 126q71 11 71 64v2q0 26 -15 42.5t-56 31.5v-140zM285 575q-36 -5 -52.5 -21.5t-16.5 -40.5v-2q0 -23 14 -39.5t55 -31.5v135zM280 3q-65 8 -125.5 32.5t-110.5 62.5l78 114q41 -31 79.5 -51.5t83.5 -29.5v159q-54 15 -94.5 33t-67 43t-40 58.5t-13.5 77.5v2
q0 42 15 76t42.5 59t66.5 40.5t86 20.5v58h104v-60q54 -8 99.5 -26.5t86.5 -47.5l-67 -117q-30 20 -61 35.5t-63 23.5v-151q114 -31 165.5 -81t51.5 -134v-2q0 -42 -15.5 -76t-43 -59t-66.5 -41t-87 -21v-99h-104v101z" />
    <glyph glyph-name="percent" unicode="%" horiz-adv-x="860" 
d="M646 83q32 0 48 26t16 60v2q0 35 -18 61.5t-48 26.5q-32 0 -48 -25.5t-16 -60.5v-2q0 -35 18 -61.5t48 -26.5zM216 441q32 0 48 26t16 60v2q0 35 -18 61.5t-48 26.5q-32 0 -48 -25.5t-16 -60.5v-2q0 -35 18 -61.5t48 -26.5zM644 -8q-38 0 -69 14t-53.5 38t-34.5 56
t-12 69v2q0 37 12.5 69.5t35 57t54 38.5t69.5 14t69 -14t53.5 -38t34.5 -56t12 -69v-2q0 -37 -12.5 -69.5t-35 -57t-54 -38.5t-69.5 -14zM626 700h119l-511 -700h-119zM214 350q-38 0 -69 14t-53.5 38t-34.5 56t-12 69v2q0 37 12.5 69.5t35 57t54 38.5t69.5 14t69 -14
t53.5 -38t34.5 -56t12 -69v-2q0 -37 -12.5 -69.5t-35 -57t-54 -38.5t-69.5 -14z" />
    <glyph glyph-name="ampersand" unicode="&#x26;" horiz-adv-x="696" 
d="M287 116q26 0 51.5 10.5t49.5 29.5l-134 136q-35 -18 -50 -42t-15 -50v-2q0 -37 27.5 -59.5t70.5 -22.5zM303 432q46 17 69.5 38.5t23.5 54.5v2q0 30 -18.5 47.5t-47.5 17.5q-31 0 -49.5 -19.5t-18.5 -51.5v-2q0 -23 9.5 -42.5t31.5 -44.5zM474 68q-43 -35 -93.5 -56.5
t-111.5 -21.5q-50 0 -93 14t-74.5 40.5t-49.5 63.5t-18 84v2q0 67 35 114.5t101 77.5q-26 36 -37.5 70t-11.5 70v2q0 36 14 69t41 58.5t66.5 41t90.5 15.5q45 0 81 -13.5t62 -37.5t40 -56t14 -69v-2q0 -35 -10.5 -63.5t-30 -50.5t-46.5 -39t-60 -30l93 -93q17 27 34 57.5
l34 62.5l113 -62q-20 -37 -43 -75t-49 -73l103 -103l-113 -79z" />
    <glyph glyph-name="quotesingle" unicode="'" horiz-adv-x="286" 
d="M75 700h170v-5l-109 -314h-79z" />
    <glyph glyph-name="parenleft" unicode="(" horiz-adv-x="445" 
d="M336 -141q-139 75 -208 179t-69 249t69 249t208 179l67 -101q-51 -35 -87.5 -71t-60 -75t-34.5 -83.5t-11 -97.5t11 -97.5t34.5 -83.5t60 -75t87.5 -71z" />
    <glyph glyph-name="parenright" unicode=")" horiz-adv-x="445" 
d="M42 -40q51 35 87.5 71t60 75t34.5 83.5t11 97.5t-11 97.5t-34.5 83.5t-60 75t-87.5 71l67 101q139 -75 208 -179t69 -249t-69 -249t-208 -179z" />
    <glyph glyph-name="asterisk" unicode="*" horiz-adv-x="430" 
d="M190 492l-97 -74l-42 72l112 47l-112 47l42 72l97 -74l-16 120h82l-16 -120l97 74l42 -72l-112 -47l112 -47l-42 -72l-97 74l16 -120h-82z" />
    <glyph glyph-name="plus" unicode="+" horiz-adv-x="640" 
d="M249 283h-181v138h181v180h142v-180h181v-138h-181v-180h-142v180z" />
    <glyph glyph-name="comma" unicode="," horiz-adv-x="286" 
d="M26 -99q106 11 98 99h-62v160h162v-135q0 -99 -48 -142.5t-137 -44.5z" />
    <glyph glyph-name="hyphen" unicode="-" horiz-adv-x="408" 
d="M50 383h308v-146h-308v146z" />
    <glyph glyph-name="hyphen" unicode="&#xad;" horiz-adv-x="408" 
d="M50 383h308v-146h-308v146z" />
    <glyph glyph-name="period" unicode="." horiz-adv-x="286" 
d="M62 160h162v-160h-162v160z" />
    <glyph glyph-name="slash" unicode="/" horiz-adv-x="530" 
d="M415 798h129l-443 -926h-129z" />
    <glyph glyph-name="zero" unicode="0" horiz-adv-x="730" 
d="M366 127q35 0 63 16.5t48 46t30.5 70t10.5 88.5v2q0 48 -11 88.5t-31.5 70.5t-49 47t-62.5 17q-35 0 -63 -16.5t-47.5 -46t-30.5 -70t-11 -88.5v-2q0 -48 11 -89t31 -70.5t48.5 -46.5t63.5 -17zM364 -12q-70 0 -127.5 27.5t-98 76t-62.5 114.5t-22 142v2q0 76 22.5 142
t63.5 115t98.5 77t127.5 28q69 0 126.5 -27.5t98 -76t63 -114.5t22.5 -142v-2q0 -76 -22.5 -142t-63.5 -115t-98.5 -77t-127.5 -28z" />
    <glyph glyph-name="one" unicode="1" horiz-adv-x="422" 
d="M178 549l-122 -30l-32 126l201 60h105v-705h-152v549z" />
    <glyph glyph-name="two" unicode="2" horiz-adv-x="623" 
d="M49 122l233 191q33 27 56 48.5t37.5 41t21 38t6.5 40.5q0 45 -26 68t-68 23q-41 0 -72.5 -23t-70.5 -71l-108 87q26 35 52.5 62t57 45.5t67.5 28t84 9.5q54 0 98.5 -15.5t76 -43.5t49 -68t17.5 -89v-2q0 -44 -11.5 -78.5t-34 -65t-57.5 -61t-81 -66.5l-114 -88h305v-133
h-518v122z" />
    <glyph glyph-name="three" unicode="3" horiz-adv-x="621" 
d="M311 -12q-95 0 -161.5 33.5t-111.5 87.5l106 101q36 -41 75.5 -62.5t93.5 -21.5q44 0 71.5 23t27.5 62v2q0 43 -36 66t-101 23h-64l-24 98l167 168h-275v132h473v-116l-177 -169q36 -6 69.5 -19t60 -36t42.5 -57.5t16 -83.5v-2q0 -50 -17.5 -91.5t-50 -72.5t-79.5 -48
t-105 -17z" />
    <glyph glyph-name="four" unicode="4" horiz-adv-x="689" 
d="M398 276v218l-186 -218h186zM398 151h-342l-25 109l384 445h130v-429h94v-125h-94v-151h-147v151z" />
    <glyph glyph-name="five" unicode="5" horiz-adv-x="630" 
d="M305 -12q-85 0 -148 28t-114 77l93 111q40 -36 80 -56t87 -20q54 0 85.5 25t31.5 72v2q0 45 -34.5 70t-89.5 25q-33 0 -62.5 -7.5t-54.5 -18.5l-89 59l20 345h430v-135h-298l-8 -121q21 5 42 8.5t50 3.5q51 0 95.5 -13t78 -40t52.5 -69.5t19 -101.5v-2q0 -56 -19 -100.5
t-53.5 -76t-84 -48.5t-109.5 -17z" />
    <glyph glyph-name="six" unicode="6" horiz-adv-x="662" 
d="M333 120q57 0 88.5 29t31.5 74v2q0 45 -32.5 73.5t-89.5 28.5t-88.5 -28t-31.5 -73v-2q0 -45 32.5 -74.5t89.5 -29.5zM339 -12q-69 0 -117 19t-85 56q-38 38 -60.5 99.5t-22.5 165.5v2q0 81 18.5 151t56.5 121t96 80.5t136 29.5q36 0 66 -5t56 -15t50 -24.5t47 -32.5
l-81 -119q-17 13 -33 23.5t-33 17.5t-36 11t-41 4q-33 0 -57.5 -12.5t-42 -34t-27.5 -51.5t-14 -64q26 17 59.5 31t85.5 14t97 -14.5t78 -42.5t52 -69.5t19 -96.5v-2q0 -54 -20.5 -98.5t-56 -76.5t-84.5 -49.5t-106 -17.5z" />
    <glyph glyph-name="seven" unicode="7" horiz-adv-x="619" 
d="M397 567h-329v133h504v-116l-314 -584h-174z" />
    <glyph glyph-name="eight" unicode="8" horiz-adv-x="630" 
d="M315 117q57 0 89 25t32 62v2q0 41 -34 63.5t-87 22.5t-87 -22.5t-34 -63.5v-2q0 -36 32 -61.5t89 -25.5zM315 414q46 0 73 24t27 61v2q0 32 -26 57t-74 25t-74 -24.5t-26 -56.5v-2q0 -37 27 -61.5t73 -24.5zM315 -10q-58 0 -107.5 14.5t-85.5 41t-56.5 63.5t-20.5 83v2
q0 64 28.5 103.5t84.5 65.5q-41 25 -65 60.5t-24 92.5v2q0 40 17.5 75t50 61t77.5 41t101 15q55 0 100.5 -15t78 -40.5t50 -61t17.5 -75.5v-2q0 -57 -24 -92.5t-65 -60.5q53 -28 83 -65.5t30 -99.5v-2q0 -49 -20.5 -87t-56.5 -64.5t-85.5 -40.5t-107.5 -14z" />
    <glyph glyph-name="nine" unicode="9" horiz-adv-x="662" 
d="M331 367q57 0 88.5 29.5t31.5 74.5v2q0 47 -32.5 77t-90.5 30q-57 0 -88 -29.5t-31 -76.5v-2q0 -47 32.5 -76t89.5 -29zM302 -12q-77 0 -131 23t-99 60l81 117q38 -31 73 -45.5t80 -14.5q65 0 99.5 44t42.5 115q-26 -22 -61 -35t-81 -13q-57 0 -103 15.5t-79 44.5
t-50.5 71t-17.5 95v2q0 53 19.5 98t54.5 77.5t84.5 51t108.5 18.5q35 0 63.5 -4.5t52.5 -13.5t45 -23.5t41 -34.5q19 -19 34 -43t26 -56t17 -72.5t6 -92.5v-2q0 -85 -20 -155.5t-58.5 -120.5t-95.5 -78t-132 -28z" />
    <glyph glyph-name="colon" unicode=":" horiz-adv-x="296" 
d="M67 160h162v-160h-162v160zM67 536h162v-160h-162v160z" />
    <glyph glyph-name="semicolon" unicode=";" horiz-adv-x="296" 
d="M31 -99q106 11 98 99h-62v160h162v-135q0 -99 -48 -142.5t-137 -44.5zM67 536h162v-160h-162v160z" />
    <glyph glyph-name="semicolon" unicode="&#x37e;" horiz-adv-x="296" 
d="M31 -99q106 11 98 99h-62v160h162v-135q0 -99 -48 -142.5t-137 -44.5zM67 536h162v-160h-162v160z" />
    <glyph glyph-name="less" unicode="&#x3c;" horiz-adv-x="640" 
d="M68 283v138l484 212v-141l-338 -139l338 -139v-143z" />
    <glyph glyph-name="equal" unicode="=" horiz-adv-x="640" 
d="M83 291h474v-138h-474v138zM83 551h474v-138h-474v138z" />
    <glyph glyph-name="greater" unicode="&#x3e;" horiz-adv-x="640" 
d="M88 212l338 139l-338 139v143l484 -212v-138l-484 -212v141z" />
    <glyph glyph-name="question" unicode="?" horiz-adv-x="544" 
d="M164 160h162v-160h-162v160zM174 400l5 5q95 4 135 27.5t40 63.5v2q0 34 -24 52.5t-68 18.5q-42 0 -78.5 -17t-71.5 -52l-92 101q44 48 103.5 78t141.5 30q54 0 98.5 -13.5t76.5 -40t49.5 -65t17.5 -88.5v-2q0 -48 -15.5 -82t-42 -58t-62.5 -38.5t-77 -22.5l-11 -61h-102
z" />
    <glyph glyph-name="at" unicode="@" horiz-adv-x="980" 
d="M462 168q24 0 45.5 11t38 30.5t26 45.5t9.5 57q0 43 -26 68.5t-67 25.5q-24 0 -46 -11t-38.5 -29.5t-26 -44.5t-9.5 -56q0 -47 26 -72t68 -25zM499 -162q-96 0 -177.5 34.5t-141.5 94t-93.5 138.5t-33.5 169t34 169.5t93 139t139 94.5t172 35t171.5 -33t138.5 -88
t92.5 -126.5t33.5 -148.5q0 -63 -15.5 -110t-42.5 -78.5t-63.5 -47t-77.5 -15.5q-61 0 -97.5 19t-55.5 41q-26 -23 -62.5 -41.5t-85.5 -18.5q-38 0 -71.5 13.5t-58.5 38.5t-39 60.5t-14 80.5q0 53 18.5 99t49.5 79.5t71.5 53t84.5 19.5q52 0 84.5 -19.5t53.5 -48.5l11 53
l118 -19l-47 -269q-2 -8 -2.5 -16.5t-0.5 -14.5q0 -27 19 -45t54 -18q27 0 50 13t40 39t27 64t10 88q0 69 -30 133.5t-82.5 114t-125 79t-156.5 29.5q-85 0 -157.5 -31.5t-125.5 -85.5t-83 -126.5t-30 -154.5q0 -83 30 -155t83.5 -125.5t127.5 -84.5t163 -31q75 0 131.5 17
t113.5 50l20 -32q-58 -35 -122.5 -55t-142.5 -20z" />
    <glyph glyph-name="A" unicode="A" horiz-adv-x="790" 
d="M486 293l-93 227l-93 -227h186zM324 705h142l300 -705h-161l-64 157h-296l-64 -157h-157z" />
    <glyph glyph-name="B" unicode="B" horiz-adv-x="722" 
d="M417 135q51 0 80 18.5t29 57.5v2q0 35 -27 55.5t-87 20.5h-178v-154h183zM376 417q51 0 81 17.5t30 56.5v2q0 35 -26 53.5t-75 18.5h-152v-148h142zM84 700h325q121 0 183 -62q48 -48 48 -119v-2q0 -30 -7.5 -53t-20 -41.5t-29 -32.5t-35.5 -24q61 -23 96 -62.5
t35 -109.5v-2q0 -48 -18.5 -84t-53 -60t-83 -36t-107.5 -12h-333v700z" />
    <glyph glyph-name="C" unicode="C" horiz-adv-x="738" 
d="M412 -12q-77 0 -143 28t-114 76.5t-75 114.5t-27 141v2q0 75 27 140.5t75 115t115 78t148 28.5q49 0 89.5 -8t73.5 -22t61 -34t52 -44l-98 -113q-41 37 -83.5 58t-95.5 21q-44 0 -81.5 -17t-64.5 -47t-42 -69.5t-15 -84.5v-2q0 -45 15 -85t41.5 -70t64 -47.5t82.5 -17.5
q60 0 101.5 22t82.5 60l98 -99q-27 -29 -56 -52t-63.5 -39.5t-75.5 -25t-92 -8.5z" />
    <glyph glyph-name="D" unicode="D" horiz-adv-x="782" 
d="M357 139q47 0 86 15t66.5 43t43 66t15.5 85v2q0 46 -15.5 85t-43 67t-66.5 43.5t-86 15.5h-119v-422h119zM84 700h273q82 0 150.5 -26.5t118 -73.5t76.5 -110.5t27 -137.5v-2q0 -74 -27 -138t-76.5 -111t-118 -74t-150.5 -27h-273v700z" />
    <glyph glyph-name="E" unicode="E" horiz-adv-x="670" 
d="M84 700h528v-137h-375v-142h330v-137h-330v-147h380v-137h-533v700z" />
    <glyph glyph-name="F" unicode="F" horiz-adv-x="656" 
d="M84 700h533v-140h-379v-149h334v-140h-334v-271h-154v700z" />
    <glyph glyph-name="G" unicode="G" horiz-adv-x="784" 
d="M421 -12q-82 0 -149.5 27t-116 75t-75.5 114t-27 144v2q0 75 27.5 140.5t76.5 115t116 78t147 28.5q47 0 85.5 -6.5t71.5 -18.5t62 -30t56 -41l-97 -117q-20 17 -40 30t-41.5 22t-46.5 14t-55 5q-42 0 -78.5 -17.5t-64 -47t-43 -69t-15.5 -84.5v-2q0 -48 15.5 -88.5
t44 -70.5t67 -46.5t85.5 -16.5q86 0 145 42v100h-155v133h304v-304q-54 -46 -128.5 -78.5t-170.5 -32.5z" />
    <glyph glyph-name="H" unicode="H" horiz-adv-x="760" 
d="M84 700h154v-277h284v277h154v-700h-154v281h-284v-281h-154v700z" />
    <glyph glyph-name="I" unicode="I" horiz-adv-x="336" 
d="M91 700h154v-700h-154v700z" />
    <glyph glyph-name="J" unicode="J" horiz-adv-x="564" 
d="M243 -10q-82 0 -137.5 31t-91.5 74l97 108q30 -33 60.5 -51.5t67.5 -18.5q44 0 69 27.5t25 88.5v451h158v-458q0 -63 -17 -109t-49 -78t-78.5 -48.5t-103.5 -16.5z" />
    <glyph glyph-name="K" unicode="K" horiz-adv-x="730" 
d="M84 700h154v-306l284 306h186l-285 -297l298 -403h-185l-217 298l-81 -84v-214h-154v700z" />
    <glyph glyph-name="L" unicode="L" horiz-adv-x="619" 
d="M84 700h154v-560h349v-140h-503v700z" />
    <glyph glyph-name="M" unicode="M" horiz-adv-x="868" 
d="M84 700h166l184 -296l184 296h166v-700h-153v457l-197 -299h-4l-195 296v-454h-151v700z" />
    <glyph glyph-name="N" unicode="N" horiz-adv-x="790" 
d="M84 700h142l328 -431v431h152v-700h-131l-339 445v-445h-152v700z" />
    <glyph glyph-name="O" unicode="O" horiz-adv-x="850" 
d="M426 130q46 0 85 17t66.5 47t43 69.5t15.5 84.5v2q0 45 -15.5 85t-44 70t-67.5 47.5t-85 17.5q-47 0 -85.5 -17t-66 -47t-43 -69.5t-15.5 -84.5v-2q0 -45 15.5 -85t44 -70t67 -47.5t85.5 -17.5zM424 -12q-81 0 -149 28.5t-117.5 77t-77 114t-27.5 140.5v2q0 75 28 140.5
t77.5 115t118 78t149.5 28.5t149 -28.5t117.5 -77t77 -114t27.5 -140.5v-2q0 -75 -28 -140.5t-77.5 -115t-118 -78t-149.5 -28.5z" />
    <glyph glyph-name="P" unicode="P" horiz-adv-x="668" 
d="M360 347q58 0 90 30.5t32 75.5v2q0 52 -33.5 79t-91.5 27h-119v-214h122zM84 700h286q63 0 112.5 -17.5t84 -49.5t53 -76.5t18.5 -98.5v-2q0 -61 -22 -107t-60.5 -77t-90 -46.5t-110.5 -15.5h-117v-210h-154v700z" />
    <glyph glyph-name="Q" unicode="Q" horiz-adv-x="850" 
d="M426 130q49 0 92 19l-114 97l98 110l115 -104q19 42 19 96v2q0 45 -15.5 85t-44 70t-67.5 47.5t-85 17.5q-47 0 -85.5 -17t-66 -47t-43 -69.5t-15.5 -84.5v-2q0 -45 15.5 -85t44 -70t67 -47.5t85.5 -17.5zM632 48q-45 -29 -97 -44.5t-111 -15.5q-81 0 -149 28.5
t-117.5 77t-77 114t-27.5 140.5v2q0 75 28 140.5t77.5 115t118 78t149.5 28.5t149 -28.5t117.5 -77t77 -114t27.5 -140.5v-2q0 -55 -16 -106t-46 -95l72 -61l-98 -109z" />
    <glyph glyph-name="R" unicode="R" horiz-adv-x="723" 
d="M394 360q57 0 87.5 27t30.5 72v2q0 50 -32 75t-89 25h-153v-201h156zM84 700h320q133 0 204 -71q60 -60 60 -160v-2q0 -85 -41.5 -138.5t-108.5 -78.5l171 -250h-180l-150 224h-2h-119v-224h-154v700z" />
    <glyph glyph-name="S" unicode="S" horiz-adv-x="640" 
d="M333 -10q-80 0 -157 27.5t-140 84.5l91 109q48 -39 98.5 -62t110.5 -23q48 0 74.5 17.5t26.5 48.5v2q0 15 -5.5 26.5t-21 21.5t-43 20t-71.5 21q-53 13 -96 29t-73 39.5t-46.5 58.5t-16.5 87v2q0 48 18 86.5t50.5 66.5t77.5 43t99 15q77 0 141.5 -23t118.5 -66l-80 -116
q-47 32 -92 50.5t-90 18.5t-67.5 -17.5t-22.5 -43.5v-2q0 -17 6.5 -29.5t23.5 -22.5t46.5 -19t74.5 -21q53 -14 94.5 -31.5t70 -42t43 -57.5t14.5 -79v-2q0 -52 -19 -92.5t-53 -68t-81 -42t-104 -14.5z" />
    <glyph glyph-name="T" unicode="T" horiz-adv-x="648" 
d="M247 558h-213v142h580v-142h-213v-558h-154v558z" />
    <glyph glyph-name="U" unicode="U" horiz-adv-x="756" 
d="M376 -11q-141 0 -222 78t-81 233v400h154v-396q0 -86 40 -129.5t111 -43.5t111 42t40 126v401h154v-395q0 -80 -21.5 -139t-61.5 -98.5t-97 -59t-127 -19.5z" />
    <glyph glyph-name="V" unicode="V" horiz-adv-x="750" 
d="M24 700h170l183 -493l183 493h166l-283 -705h-136z" />
    <glyph glyph-name="W" unicode="W" horiz-adv-x="1122" 
d="M30 700h165l145 -474l157 476h132l157 -476l145 474h161l-239 -705h-134l-158 458l-158 -458h-134z" />
    <glyph glyph-name="X" unicode="X" horiz-adv-x="732" 
d="M275 356l-234 344h180l147 -227l148 227h175l-234 -342l244 -358h-180l-157 240l-158 -240h-175z" />
    <glyph glyph-name="Y" unicode="Y" horiz-adv-x="716" 
d="M281 276l-269 424h180l167 -281l170 281h175l-269 -421v-279h-154v276z" />
    <glyph glyph-name="Z" unicode="Z" horiz-adv-x="708" 
d="M63 117l385 448h-373v135h571v-117l-385 -448h385v-135h-583v117z" />
    <glyph glyph-name="bracketleft" unicode="[" horiz-adv-x="465" 
d="M83 700h323v-119h-177v-592h177v-119h-323v830z" />
    <glyph glyph-name="backslash" unicode="\" horiz-adv-x="530" 
d="M-14 798h129l443 -926h-129z" />
    <glyph glyph-name="bracketright" unicode="]" horiz-adv-x="465" 
d="M59 -11h177v592h-177v119h323v-830h-323v119z" />
    <glyph glyph-name="asciicircum" unicode="^" 
d="M198 700h104l148 -207h-110l-91 117l-91 -117h-108z" />
    <glyph glyph-name="underscore" unicode="_" horiz-adv-x="600" 
d="M-2 -44h604v-116h-604v116z" />
    <glyph glyph-name="grave" unicode="`" 
d="M110 715l131 57l113 -177h-116z" />
    <glyph glyph-name="a" unicode="a" horiz-adv-x="592" 
d="M266 95q54 0 86.5 26t32.5 68v27q-20 9 -44.5 14.5t-52.5 5.5q-49 0 -77 -19t-28 -55v-2q0 -31 23 -48t60 -17zM220 -10q-38 0 -71.5 10.5t-58.5 31.5t-39.5 51.5t-14.5 70.5v2q0 44 16 76t44.5 53t68 31.5t87.5 10.5q41 0 71.5 -6t59.5 -16v9q0 48 -29 73t-86 25
q-44 0 -77.5 -7.5t-70.5 -21.5l-38 116q44 19 92 31t116 12q63 0 107.5 -15.5t73.5 -44.5q30 -30 44 -73.5t14 -97.5v-311h-147v58q-28 -31 -67 -49.5t-95 -18.5z" />
    <glyph glyph-name="b" unicode="b" horiz-adv-x="675" 
d="M348 119q27 0 50.5 10.5t41.5 30t28.5 46.5t10.5 61v2q0 33 -10.5 60.5t-28.5 47t-41.5 30t-50.5 10.5t-50.5 -10.5t-41 -30t-28 -47t-10.5 -60.5v-2q0 -33 10.5 -60.5t28 -47t41 -30t50.5 -10.5zM387 -10q-61 0 -100.5 24t-66.5 56v-70h-152v730h152v-271
q28 38 67.5 62.5t99.5 24.5q47 0 91 -18t78 -53.5t54.5 -87t20.5 -118.5v-2q0 -67 -20.5 -118.5t-54 -87t-77.5 -53.5t-92 -18z" />
    <glyph glyph-name="c" unicode="c" horiz-adv-x="571" 
d="M321 -12q-60 0 -111.5 22t-88.5 59.5t-58 88t-21 107.5v2q0 57 21 108t58 89t88.5 60t113.5 22q76 0 126 -24t88 -66l-93 -100q-26 27 -53.5 43t-68.5 16q-29 0 -52.5 -11.5t-41 -31.5t-27 -46.5t-9.5 -56.5v-2q0 -31 9.5 -58t27.5 -47t43 -31.5t56 -11.5q38 0 66.5 15.5
t56.5 41.5l89 -90q-39 -43 -89 -70.5t-130 -27.5z" />
    <glyph glyph-name="d" unicode="d" horiz-adv-x="675" 
d="M327 119q27 0 50.5 10.5t41 30t28 47t10.5 60.5v2q0 33 -10.5 60.5t-28 47t-41 30t-50.5 10.5t-50.5 -10.5t-41.5 -30t-28.5 -46.5t-10.5 -61v-2q0 -33 10.5 -60.5t28.5 -47t41.5 -30t50.5 -10.5zM288 -10q-47 0 -91 18t-78 53.5t-54.5 87t-20.5 118.5v2q0 67 20.5 118.5
t54 87t77.5 53.5t92 18q61 0 100.5 -24t66.5 -56v264h152v-730h-152v77q-28 -38 -67.5 -62.5t-99.5 -24.5z" />
    <glyph glyph-name="e" unicode="e" horiz-adv-x="613" 
d="M420 310q-7 51 -36 82.5t-77 31.5t-77.5 -31t-38.5 -83h229zM322 -12q-60 0 -111.5 20t-89 57t-58.5 87.5t-21 112.5v2q0 57 19.5 108t54.5 89t83.5 60t107.5 22q67 0 116 -24t81.5 -64.5t48 -93t15.5 -109.5q0 -9 -0.5 -19t-1.5 -21h-373q11 -52 45.5 -78.5t85.5 -26.5
q38 0 68 13t62 42l87 -77q-38 -47 -92 -73.5t-127 -26.5z" />
    <glyph glyph-name="f" unicode="f" horiz-adv-x="382" 
d="M94 406h-63v125h63v34q0 87 43 130q42 42 123 42q36 0 61.5 -4t46.5 -11v-126q-17 6 -33 9.5t-36 3.5q-55 0 -55 -58v-21h123v-124h-121v-406h-152v406z" />
    <glyph glyph-name="g" unicode="g" horiz-adv-x="675" 
d="M326 170q28 0 52 9t41.5 25.5t27.5 39.5t10 50v2q0 27 -10 50t-27.5 39.5t-41.5 25.5t-52 9t-51.5 -9t-41 -25.5t-27.5 -39.5t-10 -50v-2q0 -56 37 -90t93 -34zM308 -162q-66 0 -126 14.5t-111 41.5l52 114q42 -23 84.5 -36t96.5 -13q78 0 115.5 37t37.5 109v26
q-34 -41 -74 -64t-101 -23q-47 0 -90 16.5t-76 48.5t-52.5 78.5t-19.5 106.5v2q0 60 20 106.5t53 78.5t76 48.5t89 16.5q62 0 102 -23t71 -57v70h152v-415q0 -143 -68 -211q-38 -38 -95.5 -55t-135.5 -17z" />
    <glyph glyph-name="h" unicode="h" horiz-adv-x="623" 
d="M68 730h152v-270q13 17 28.5 32.5t34.5 27.5t42 19t52 7q87 0 134.5 -53t47.5 -146v-347h-152v299q0 54 -24 81.5t-68 27.5t-69.5 -27.5t-25.5 -81.5v-299h-152v730z" />
    <glyph glyph-name="i" unicode="i" horiz-adv-x="302" 
d="M75 536h152v-536h-152v536zM71 730h160v-135h-160v135z" />
    <glyph glyph-name="j" unicode="j" horiz-adv-x="302" 
d="M55 -163q-21 0 -35.5 1.5t-30.5 4.5v119q18 -3 32 -3q24 0 39 14t15 48v515h152v-527q0 -89 -43.5 -130.5t-128.5 -41.5zM71 730h160v-135h-160v135z" />
    <glyph glyph-name="k" unicode="k" horiz-adv-x="592" 
d="M68 730h152v-389l178 195h182l-204 -211l211 -325h-174l-140 219l-53 -56v-163h-152v730z" />
    <glyph glyph-name="l" unicode="l" horiz-adv-x="302" 
d="M75 730h152v-730h-152v730z" />
    <glyph glyph-name="m" unicode="m" horiz-adv-x="950" 
d="M68 536h152v-76q13 17 28.5 32.5t34.5 27.5t42.5 19t52.5 7q53 0 91.5 -22t59.5 -63q35 42 78 63.5t98 21.5q85 0 133 -50t48 -147v-349h-152v299q0 54 -23 81.5t-66 27.5t-67.5 -27.5t-24.5 -81.5v-299h-152v299q0 54 -23 81.5t-66 27.5t-67.5 -27.5t-24.5 -81.5v-299
h-152v536z" />
    <glyph glyph-name="n" unicode="n" horiz-adv-x="623" 
d="M68 536h152v-76q13 17 28.5 32.5t34.5 27.5t42 19t52 7q87 0 134.5 -53t47.5 -146v-347h-152v299q0 54 -24 81.5t-68 27.5t-69.5 -27.5t-25.5 -81.5v-299h-152v536z" />
    <glyph glyph-name="o" unicode="o" horiz-adv-x="664" 
d="M333 119q33 0 58.5 11.5t43.5 31.5t27.5 46.5t9.5 56.5v2q0 30 -10 56.5t-29 47t-45 32.5t-57 12q-33 0 -58.5 -11.5t-43.5 -31.5t-27.5 -46.5t-9.5 -56.5v-2q0 -30 10 -56.5t29 -47t44.5 -32.5t57.5 -12zM331 -12q-62 0 -115 21.5t-91.5 59t-60.5 88t-22 108.5v2
q0 58 22 108.5t61 88.5t92 60t116 22q62 0 115 -21.5t91.5 -59t60.5 -88t22 -108.5v-2q0 -58 -22 -108.5t-61 -88.5t-92 -60t-116 -22z" />
    <glyph glyph-name="p" unicode="p" horiz-adv-x="675" 
d="M348 119q27 0 50.5 10.5t41.5 30t28.5 46.5t10.5 61v2q0 33 -10.5 60.5t-28.5 47t-41.5 30t-50.5 10.5t-50.5 -10.5t-41 -30t-28 -47t-10.5 -60.5v-2q0 -33 10.5 -60.5t28 -47t41 -30t50.5 -10.5zM68 536h152v-77q28 38 67.5 62.5t99.5 24.5q47 0 91 -18t78 -53.5
t54.5 -87t20.5 -118.5v-2q0 -67 -20.5 -118.5t-54 -87t-77.5 -53.5t-92 -18q-61 0 -100.5 24t-66.5 56v-230h-152v696z" />
    <glyph glyph-name="q" unicode="q" horiz-adv-x="675" 
d="M327 119q27 0 50.5 10.5t41 30t28 47t10.5 60.5v2q0 33 -10.5 60.5t-28 47t-41 30t-50.5 10.5t-50.5 -10.5t-41.5 -30t-28.5 -46.5t-10.5 -61v-2q0 -33 10.5 -60.5t28.5 -47t41.5 -30t50.5 -10.5zM455 77q-28 -38 -67.5 -62.5t-99.5 -24.5q-47 0 -91 18t-78 53.5
t-54.5 87t-20.5 118.5v2q0 67 20.5 118.5t54 87t77.5 53.5t92 18q61 0 100.5 -24t66.5 -56v70h152v-696h-152v237z" />
    <glyph glyph-name="r" unicode="r" horiz-adv-x="418" 
d="M68 536h152v-108q23 55 63 88t108 30v-159h-8q-76 0 -119.5 -46t-43.5 -143v-198h-152v536z" />
    <glyph glyph-name="s" unicode="s" horiz-adv-x="502" 
d="M256 -10q-57 0 -116.5 19.5t-113.5 61.5l65 100q44 -32 87.5 -48t81.5 -16q33 0 48.5 11t15.5 29v2q0 12 -9 21t-24.5 15.5t-35.5 12.5l-42 13q-28 8 -56.5 19.5t-51.5 30t-37.5 45.5t-14.5 66v2q0 41 15.5 72.5t42 53.5t62 33t76.5 11q51 0 103.5 -16.5t96.5 -45.5
l-58 -105q-40 23 -78 36.5t-67 13.5q-28 0 -42 -10.5t-14 -26.5v-2q0 -11 9 -19.5t24 -16t34.5 -14.5t41.5 -14q28 -9 57 -21.5t52 -30.5t38 -44t15 -63v-2q0 -45 -15.5 -77.5t-43.5 -53.5t-65.5 -31.5t-80.5 -10.5z" />
    <glyph glyph-name="t" unicode="t" horiz-adv-x="415" 
d="M249 -9q-35 0 -63.5 7.5t-49 26.5t-32 49.5t-11.5 77.5v254h-64v130h64v137h152v-137h126v-130h-126v-229q0 -52 49 -52q40 0 75 19v-122q-24 -14 -53 -22.5t-67 -8.5z" />
    <glyph glyph-name="u" unicode="u" horiz-adv-x="623" 
d="M246 -10q-87 0 -134.5 53t-47.5 146v347h152v-299q0 -54 24 -81.5t68 -27.5t69.5 27.5t25.5 81.5v299h152v-536h-152v76q-13 -17 -28.5 -32.5t-34.5 -27.5t-42 -19t-52 -7z" />
    <glyph glyph-name="v" unicode="v" horiz-adv-x="600" 
d="M20 536h161l120 -359l121 359h158l-211 -540h-138z" />
    <glyph glyph-name="w" unicode="w" horiz-adv-x="861" 
d="M24 536h154l86 -325l101 327h131l102 -328l88 326h151l-167 -540h-137l-103 329l-105 -329h-136z" />
    <glyph glyph-name="x" unicode="x" horiz-adv-x="584" 
d="M211 272l-181 264h163l100 -156l101 156h159l-181 -261l189 -275h-163l-108 167l-108 -167h-159z" />
    <glyph glyph-name="y" unicode="y" horiz-adv-x="600" 
d="M196 -163q-42 0 -74 10t-61 27l51 110q15 -9 32.5 -15t32.5 -6q20 0 31.5 7.5t21.5 27.5l-210 538h161l122 -365l117 365h158l-206 -549q-15 -41 -32 -69.5t-37.5 -46.5t-46.5 -26t-60 -8z" />
    <glyph glyph-name="z" unicode="z" horiz-adv-x="563" 
d="M50 107l277 306h-268v123h457v-107l-278 -306h278v-123h-466v107z" />
    <glyph glyph-name="braceleft" unicode="{" horiz-adv-x="490" 
d="M416 -141q-69 12 -114 30t-71.5 42.5t-37.5 56t-11 69.5q0 6 0.5 15t1 19l1 19.5t0.5 15.5q0 59 -25.5 81t-84.5 22h-26v116h26q59 0 84.5 22t25.5 81q0 6 -0.5 15.5l-1 19.5t-1 19t-0.5 15q0 38 11 69.5t37.5 56t71.5 42.5t114 30l27 -101q-40 -11 -64 -22.5t-37 -25.5
t-17 -31t-4 -40q0 -15 1.5 -36.5t1.5 -37.5q0 -55 -26.5 -86t-77.5 -48q51 -17 77.5 -48t26.5 -86q0 -16 -1.5 -37.5t-1.5 -36.5q0 -23 4 -40t17 -31t37 -25.5t64 -22.5z" />
    <glyph glyph-name="bar" unicode="|" horiz-adv-x="350" 
d="M115 798h120v-926h-120v926z" />
    <glyph glyph-name="braceright" unicode="}" horiz-adv-x="490" 
d="M47 -40q40 11 64 22.5t37 25.5t17 31t4 40q0 15 -1.5 36.5t-1.5 37.5q0 55 26.5 86t77.5 48q-51 17 -77.5 48t-26.5 86q0 16 1.5 37.5t1.5 36.5q0 23 -4 40t-17 31t-37 25.5t-64 22.5l27 101q69 -12 114 -30t71.5 -42.5t37.5 -56t11 -69.5q0 -6 -0.5 -15t-1 -19l-1 -19.5
t-0.5 -15.5q0 -59 25.5 -81t84.5 -22h26v-116h-26q-59 0 -84.5 -22t-25.5 -81q0 -6 0.5 -15.5l1 -19.5t1 -19t0.5 -15q0 -38 -11 -69.5t-37.5 -56t-71.5 -42.5t-114 -30z" />
    <glyph glyph-name="asciitilde" unicode="~" horiz-adv-x="510" 
d="M49 249q9 31 19.5 56.5t25 43.5t34 28t45.5 10q23 0 44.5 -6t40.5 -13.5l35 -13.5t30 -6q23 0 34.5 12.5t22.5 36.5l81 -25q-17 -63 -44.5 -100.5t-79.5 -37.5q-23 0 -44.5 6t-40.5 13.5l-35.5 13.5t-29.5 6q-23 0 -34.5 -12.5t-22.5 -36.5z" />
    <glyph glyph-name="Adieresis" unicode="&#xc4;" horiz-adv-x="790" 
d="M215 890h146v-135h-146v135zM429 890h146v-135h-146v135zM486 293l-93 227l-93 -227h186zM324 705h142l300 -705h-161l-64 157h-296l-64 -157h-157z" />
    <glyph glyph-name="Aring" unicode="&#xc5;" horiz-adv-x="790" 
d="M486 293l-93 227l-93 -227h186zM395 713q26 0 44 18t18 43v2q0 25 -18 43t-44 18t-44 -18t-18 -43v-2q0 -25 18 -43t44 -18zM316 687q-19 17 -30.5 39t-11.5 48v2q0 24 10 45t26.5 36.5t38.5 25t46 9.5t46 -9.5t38.5 -25t26.5 -36.5t10 -45v-2q0 -26 -11.5 -48t-30.5 -39
l292 -687h-161l-64 157h-296l-64 -157h-157z" />
    <glyph glyph-name="Ccedilla" unicode="&#xc7;" horiz-adv-x="738" 
d="M246 -120l80 118q-60 14 -110.5 46t-86.5 78t-56 103.5t-20 122.5v2q0 75 27 140.5t75 115t115 78t148 28.5q49 0 89.5 -8t73.5 -22t61 -34t52 -44l-98 -113q-41 37 -83.5 58t-95.5 21q-44 0 -81.5 -17t-64.5 -47t-42 -69.5t-15 -84.5v-2q0 -45 15 -85t41.5 -70t64 -47.5
t82.5 -17.5q60 0 101.5 22t82.5 60l98 -99q-25 -27 -52 -49t-58.5 -38t-68.5 -25.5t-82 -11.5l-65 -162z" />
    <glyph glyph-name="Eacute" unicode="&#xc9;" horiz-adv-x="670" 
d="M377 932l131 -57l-128 -120h-116zM84 700h528v-137h-375v-142h330v-137h-330v-147h380v-137h-533v700z" />
    <glyph glyph-name="Ntilde" unicode="&#xd1;" horiz-adv-x="790" 
d="M189 770q9 31 19.5 56.5t25 43.5t34 28t45.5 10q23 0 44.5 -6t40.5 -13.5l35 -13.5t30 -6q23 0 34.5 12.5t22.5 36.5l81 -25q-17 -63 -44.5 -100.5t-79.5 -37.5q-23 0 -44.5 6t-40.5 13.5l-35.5 13.5t-29.5 6q-23 0 -34.5 -12.5t-22.5 -36.5zM84 700h142l328 -431v431
h152v-700h-131l-339 445v-445h-152v700z" />
    <glyph glyph-name="Odieresis" unicode="&#xd6;" horiz-adv-x="850" 
d="M245 890h146v-135h-146v135zM459 890h146v-135h-146v135zM426 130q46 0 85 17t66.5 47t43 69.5t15.5 84.5v2q0 45 -15.5 85t-44 70t-67.5 47.5t-85 17.5q-47 0 -85.5 -17t-66 -47t-43 -69.5t-15.5 -84.5v-2q0 -45 15.5 -85t44 -70t67 -47.5t85.5 -17.5zM424 -12
q-81 0 -149 28.5t-117.5 77t-77 114t-27.5 140.5v2q0 75 28 140.5t77.5 115t118 78t149.5 28.5t149 -28.5t117.5 -77t77 -114t27.5 -140.5v-2q0 -75 -28 -140.5t-77.5 -115t-118 -78t-149.5 -28.5z" />
    <glyph glyph-name="Udieresis" unicode="&#xdc;" horiz-adv-x="756" 
d="M198 890h146v-135h-146v135zM412 890h146v-135h-146v135zM376 -11q-141 0 -222 78t-81 233v400h154v-396q0 -86 40 -129.5t111 -43.5t111 42t40 126v401h154v-395q0 -80 -21.5 -139t-61.5 -98.5t-97 -59t-127 -19.5z" />
    <glyph glyph-name="aacute" unicode="&#xe1;" horiz-adv-x="592" 
d="M340 772l131 -57l-128 -120h-116zM266 95q54 0 86.5 26t32.5 68v27q-20 9 -44.5 14.5t-52.5 5.5q-49 0 -77 -19t-28 -55v-2q0 -31 23 -48t60 -17zM220 -10q-38 0 -71.5 10.5t-58.5 31.5t-39.5 51.5t-14.5 70.5v2q0 44 16 76t44.5 53t68 31.5t87.5 10.5q41 0 71.5 -6
t59.5 -16v9q0 48 -29 73t-86 25q-44 0 -77.5 -7.5t-70.5 -21.5l-38 116q44 19 92 31t116 12q63 0 107.5 -15.5t73.5 -44.5q30 -30 44 -73.5t14 -97.5v-311h-147v58q-28 -31 -67 -49.5t-95 -18.5z" />
    <glyph glyph-name="agrave" unicode="&#xe0;" horiz-adv-x="592" 
d="M126 715l131 57l113 -177h-116zM266 95q54 0 86.5 26t32.5 68v27q-20 9 -44.5 14.5t-52.5 5.5q-49 0 -77 -19t-28 -55v-2q0 -31 23 -48t60 -17zM220 -10q-38 0 -71.5 10.5t-58.5 31.5t-39.5 51.5t-14.5 70.5v2q0 44 16 76t44.5 53t68 31.5t87.5 10.5q41 0 71.5 -6
t59.5 -16v9q0 48 -29 73t-86 25q-44 0 -77.5 -7.5t-70.5 -21.5l-38 116q44 19 92 31t116 12q63 0 107.5 -15.5t73.5 -44.5q30 -30 44 -73.5t14 -97.5v-311h-147v58q-28 -31 -67 -49.5t-95 -18.5z" />
    <glyph glyph-name="acircumflex" unicode="&#xe2;" horiz-adv-x="592" 
d="M222 752h144l123 -157h-117l-79 66l-79 -66h-115zM266 95q54 0 86.5 26t32.5 68v27q-20 9 -44.5 14.5t-52.5 5.5q-49 0 -77 -19t-28 -55v-2q0 -31 23 -48t60 -17zM220 -10q-38 0 -71.5 10.5t-58.5 31.5t-39.5 51.5t-14.5 70.5v2q0 44 16 76t44.5 53t68 31.5t87.5 10.5
q41 0 71.5 -6t59.5 -16v9q0 48 -29 73t-86 25q-44 0 -77.5 -7.5t-70.5 -21.5l-38 116q44 19 92 31t116 12q63 0 107.5 -15.5t73.5 -44.5q30 -30 44 -73.5t14 -97.5v-311h-147v58q-28 -31 -67 -49.5t-95 -18.5z" />
    <glyph glyph-name="adieresis" unicode="&#xe4;" horiz-adv-x="592" 
d="M114 730h146v-135h-146v135zM328 730h146v-135h-146v135zM266 95q54 0 86.5 26t32.5 68v27q-20 9 -44.5 14.5t-52.5 5.5q-49 0 -77 -19t-28 -55v-2q0 -31 23 -48t60 -17zM220 -10q-38 0 -71.5 10.5t-58.5 31.5t-39.5 51.5t-14.5 70.5v2q0 44 16 76t44.5 53t68 31.5
t87.5 10.5q41 0 71.5 -6t59.5 -16v9q0 48 -29 73t-86 25q-44 0 -77.5 -7.5t-70.5 -21.5l-38 116q44 19 92 31t116 12q63 0 107.5 -15.5t73.5 -44.5q30 -30 44 -73.5t14 -97.5v-311h-147v58q-28 -31 -67 -49.5t-95 -18.5z" />
    <glyph glyph-name="atilde" unicode="&#xe3;" horiz-adv-x="592" 
d="M90 610q9 31 19.5 56.5t25 43.5t34 28t45.5 10q23 0 44.5 -6t40.5 -13.5l35 -13.5t30 -6q23 0 34.5 12.5t22.5 36.5l81 -25q-17 -63 -44.5 -100.5t-79.5 -37.5q-23 0 -44.5 6t-40.5 13.5l-35.5 13.5t-29.5 6q-23 0 -34.5 -12.5t-22.5 -36.5zM266 95q54 0 86.5 26t32.5 68
v27q-20 9 -44.5 14.5t-52.5 5.5q-49 0 -77 -19t-28 -55v-2q0 -31 23 -48t60 -17zM220 -10q-38 0 -71.5 10.5t-58.5 31.5t-39.5 51.5t-14.5 70.5v2q0 44 16 76t44.5 53t68 31.5t87.5 10.5q41 0 71.5 -6t59.5 -16v9q0 48 -29 73t-86 25q-44 0 -77.5 -7.5t-70.5 -21.5l-38 116
q44 19 92 31t116 12q63 0 107.5 -15.5t73.5 -44.5q30 -30 44 -73.5t14 -97.5v-311h-147v58q-28 -31 -67 -49.5t-95 -18.5z" />
    <glyph glyph-name="aring" unicode="&#xe5;" horiz-adv-x="592" 
d="M294 648q26 0 44 18t18 43v2q0 25 -18 43t-44 18t-44 -18t-18 -43v-2q0 -25 18 -43t44 -18zM294 593q-24 0 -46 9.5t-38.5 25t-26.5 36.5t-10 45v2q0 24 10 45t26.5 36.5t38.5 25t46 9.5t46 -9.5t38.5 -25t26.5 -36.5t10 -45v-2q0 -24 -10 -45t-26.5 -36.5t-38.5 -25
t-46 -9.5zM266 95q54 0 86.5 26t32.5 68v27q-20 9 -44.5 14.5t-52.5 5.5q-49 0 -77 -19t-28 -55v-2q0 -31 23 -48t60 -17zM220 -10q-38 0 -71.5 10.5t-58.5 31.5t-39.5 51.5t-14.5 70.5v2q0 44 16 76t44.5 53t68 31.5t87.5 10.5q41 0 71.5 -6t59.5 -16v9q0 48 -29 73t-86 25
q-44 0 -77.5 -7.5t-70.5 -21.5l-38 116q44 19 92 31t116 12q63 0 107.5 -15.5t73.5 -44.5q30 -30 44 -73.5t14 -97.5v-311h-147v58q-28 -31 -67 -49.5t-95 -18.5z" />
    <glyph glyph-name="ccedilla" unicode="&#xe7;" horiz-adv-x="571" 
d="M154 -120l82 120q-44 13 -79.5 38.5t-61 60t-39.5 77t-14 89.5v2q0 57 21 108t58 89t88.5 60t113.5 22q76 0 126 -24t88 -66l-93 -100q-26 27 -53.5 43t-68.5 16q-29 0 -52.5 -11.5t-41 -31.5t-27 -46.5t-9.5 -56.5v-2q0 -31 9.5 -58t27.5 -47t43 -31.5t56 -11.5
q38 0 66.5 15.5t56.5 41.5l89 -90q-36 -39 -80.5 -65.5t-113.5 -31.5l-65 -162z" />
    <glyph glyph-name="eacute" unicode="&#xe9;" horiz-adv-x="613" 
d="M359 772l131 -57l-128 -120h-116zM420 310q-7 51 -36 82.5t-77 31.5t-77.5 -31t-38.5 -83h229zM322 -12q-60 0 -111.5 20t-89 57t-58.5 87.5t-21 112.5v2q0 57 19.5 108t54.5 89t83.5 60t107.5 22q67 0 116 -24t81.5 -64.5t48 -93t15.5 -109.5q0 -9 -0.5 -19t-1.5 -21
h-373q11 -52 45.5 -78.5t85.5 -26.5q38 0 68 13t62 42l87 -77q-38 -47 -92 -73.5t-127 -26.5z" />
    <glyph glyph-name="egrave" unicode="&#xe8;" horiz-adv-x="613" 
d="M122 715l131 57l113 -177h-116zM420 310q-7 51 -36 82.5t-77 31.5t-77.5 -31t-38.5 -83h229zM322 -12q-60 0 -111.5 20t-89 57t-58.5 87.5t-21 112.5v2q0 57 19.5 108t54.5 89t83.5 60t107.5 22q67 0 116 -24t81.5 -64.5t48 -93t15.5 -109.5q0 -9 -0.5 -19t-1.5 -21h-373
q11 -52 45.5 -78.5t85.5 -26.5q38 0 68 13t62 42l87 -77q-38 -47 -92 -73.5t-127 -26.5z" />
    <glyph glyph-name="ecircumflex" unicode="&#xea;" horiz-adv-x="613" 
d="M234 752h144l123 -157h-117l-79 66l-79 -66h-115zM420 310q-7 51 -36 82.5t-77 31.5t-77.5 -31t-38.5 -83h229zM322 -12q-60 0 -111.5 20t-89 57t-58.5 87.5t-21 112.5v2q0 57 19.5 108t54.5 89t83.5 60t107.5 22q67 0 116 -24t81.5 -64.5t48 -93t15.5 -109.5
q0 -9 -0.5 -19t-1.5 -21h-373q11 -52 45.5 -78.5t85.5 -26.5q38 0 68 13t62 42l87 -77q-38 -47 -92 -73.5t-127 -26.5z" />
    <glyph glyph-name="edieresis" unicode="&#xeb;" horiz-adv-x="613" 
d="M126 730h146v-135h-146v135zM340 730h146v-135h-146v135zM420 310q-7 51 -36 82.5t-77 31.5t-77.5 -31t-38.5 -83h229zM322 -12q-60 0 -111.5 20t-89 57t-58.5 87.5t-21 112.5v2q0 57 19.5 108t54.5 89t83.5 60t107.5 22q67 0 116 -24t81.5 -64.5t48 -93t15.5 -109.5
q0 -9 -0.5 -19t-1.5 -21h-373q11 -52 45.5 -78.5t85.5 -26.5q38 0 68 13t62 42l87 -77q-38 -47 -92 -73.5t-127 -26.5z" />
    <glyph glyph-name="iacute" unicode="&#xed;" horiz-adv-x="302" 
d="M198 772l131 -57l-128 -120h-116zM75 536h152v-536h-152v536z" />
    <glyph glyph-name="igrave" unicode="&#xec;" horiz-adv-x="302" 
d="M-27 715l131 57l113 -177h-116zM75 536h152v-536h-152v536z" />
    <glyph glyph-name="icircumflex" unicode="&#xee;" horiz-adv-x="302" 
d="M79 752h144l123 -157h-117l-79 66l-79 -66h-115zM75 536h152v-536h-152v536z" />
    <glyph glyph-name="idieresis" unicode="&#xef;" horiz-adv-x="302" 
d="M-29 730h146v-135h-146v135zM185 730h146v-135h-146v135zM75 536h152v-536h-152v536z" />
    <glyph glyph-name="ntilde" unicode="&#xf1;" horiz-adv-x="623" 
d="M110 610q9 31 19.5 56.5t25 43.5t34 28t45.5 10q23 0 44.5 -6t40.5 -13.5l35 -13.5t30 -6q23 0 34.5 12.5t22.5 36.5l81 -25q-17 -63 -44.5 -100.5t-79.5 -37.5q-23 0 -44.5 6t-40.5 13.5l-35.5 13.5t-29.5 6q-23 0 -34.5 -12.5t-22.5 -36.5zM68 536h152v-76
q13 17 28.5 32.5t34.5 27.5t42 19t52 7q87 0 134.5 -53t47.5 -146v-347h-152v299q0 54 -24 81.5t-68 27.5t-69.5 -27.5t-25.5 -81.5v-299h-152v536z" />
    <glyph glyph-name="oacute" unicode="&#xf3;" horiz-adv-x="664" 
d="M387 772l131 -57l-128 -120h-116zM333 119q33 0 58.5 11.5t43.5 31.5t27.5 46.5t9.5 56.5v2q0 30 -10 56.5t-29 47t-45 32.5t-57 12q-33 0 -58.5 -11.5t-43.5 -31.5t-27.5 -46.5t-9.5 -56.5v-2q0 -30 10 -56.5t29 -47t44.5 -32.5t57.5 -12zM331 -12q-62 0 -115 21.5
t-91.5 59t-60.5 88t-22 108.5v2q0 58 22 108.5t61 88.5t92 60t116 22q62 0 115 -21.5t91.5 -59t60.5 -88t22 -108.5v-2q0 -58 -22 -108.5t-61 -88.5t-92 -60t-116 -22z" />
    <glyph glyph-name="ograve" unicode="&#xf2;" horiz-adv-x="664" 
d="M146 715l131 57l113 -177h-116zM333 119q33 0 58.5 11.5t43.5 31.5t27.5 46.5t9.5 56.5v2q0 30 -10 56.5t-29 47t-45 32.5t-57 12q-33 0 -58.5 -11.5t-43.5 -31.5t-27.5 -46.5t-9.5 -56.5v-2q0 -30 10 -56.5t29 -47t44.5 -32.5t57.5 -12zM331 -12q-62 0 -115 21.5
t-91.5 59t-60.5 88t-22 108.5v2q0 58 22 108.5t61 88.5t92 60t116 22q62 0 115 -21.5t91.5 -59t60.5 -88t22 -108.5v-2q0 -58 -22 -108.5t-61 -88.5t-92 -60t-116 -22z" />
    <glyph glyph-name="ocircumflex" unicode="&#xf4;" horiz-adv-x="664" 
d="M260 752h144l123 -157h-117l-79 66l-79 -66h-115zM333 119q33 0 58.5 11.5t43.5 31.5t27.5 46.5t9.5 56.5v2q0 30 -10 56.5t-29 47t-45 32.5t-57 12q-33 0 -58.5 -11.5t-43.5 -31.5t-27.5 -46.5t-9.5 -56.5v-2q0 -30 10 -56.5t29 -47t44.5 -32.5t57.5 -12zM331 -12
q-62 0 -115 21.5t-91.5 59t-60.5 88t-22 108.5v2q0 58 22 108.5t61 88.5t92 60t116 22q62 0 115 -21.5t91.5 -59t60.5 -88t22 -108.5v-2q0 -58 -22 -108.5t-61 -88.5t-92 -60t-116 -22z" />
    <glyph glyph-name="odieresis" unicode="&#xf6;" horiz-adv-x="664" 
d="M152 730h146v-135h-146v135zM366 730h146v-135h-146v135zM333 119q33 0 58.5 11.5t43.5 31.5t27.5 46.5t9.5 56.5v2q0 30 -10 56.5t-29 47t-45 32.5t-57 12q-33 0 -58.5 -11.5t-43.5 -31.5t-27.5 -46.5t-9.5 -56.5v-2q0 -30 10 -56.5t29 -47t44.5 -32.5t57.5 -12z
M331 -12q-62 0 -115 21.5t-91.5 59t-60.5 88t-22 108.5v2q0 58 22 108.5t61 88.5t92 60t116 22q62 0 115 -21.5t91.5 -59t60.5 -88t22 -108.5v-2q0 -58 -22 -108.5t-61 -88.5t-92 -60t-116 -22z" />
    <glyph glyph-name="otilde" unicode="&#xf5;" horiz-adv-x="664" 
d="M126 610q9 31 19.5 56.5t25 43.5t34 28t45.5 10q23 0 44.5 -6t40.5 -13.5l35 -13.5t30 -6q23 0 34.5 12.5t22.5 36.5l81 -25q-17 -63 -44.5 -100.5t-79.5 -37.5q-23 0 -44.5 6t-40.5 13.5l-35.5 13.5t-29.5 6q-23 0 -34.5 -12.5t-22.5 -36.5zM333 119q33 0 58.5 11.5
t43.5 31.5t27.5 46.5t9.5 56.5v2q0 30 -10 56.5t-29 47t-45 32.5t-57 12q-33 0 -58.5 -11.5t-43.5 -31.5t-27.5 -46.5t-9.5 -56.5v-2q0 -30 10 -56.5t29 -47t44.5 -32.5t57.5 -12zM331 -12q-62 0 -115 21.5t-91.5 59t-60.5 88t-22 108.5v2q0 58 22 108.5t61 88.5t92 60
t116 22q62 0 115 -21.5t91.5 -59t60.5 -88t22 -108.5v-2q0 -58 -22 -108.5t-61 -88.5t-92 -60t-116 -22z" />
    <glyph glyph-name="uacute" unicode="&#xfa;" horiz-adv-x="623" 
d="M350 772l131 -57l-128 -120h-116zM246 -10q-87 0 -134.5 53t-47.5 146v347h152v-299q0 -54 24 -81.5t68 -27.5t69.5 27.5t25.5 81.5v299h152v-536h-152v76q-13 -17 -28.5 -32.5t-34.5 -27.5t-42 -19t-52 -7z" />
    <glyph glyph-name="ugrave" unicode="&#xf9;" horiz-adv-x="623" 
d="M141 715l131 57l113 -177h-116zM246 -10q-87 0 -134.5 53t-47.5 146v347h152v-299q0 -54 24 -81.5t68 -27.5t69.5 27.5t25.5 81.5v299h152v-536h-152v76q-13 -17 -28.5 -32.5t-34.5 -27.5t-42 -19t-52 -7z" />
    <glyph glyph-name="ucircumflex" unicode="&#xfb;" horiz-adv-x="623" 
d="M239 752h144l123 -157h-117l-79 66l-79 -66h-115zM246 -10q-87 0 -134.5 53t-47.5 146v347h152v-299q0 -54 24 -81.5t68 -27.5t69.5 27.5t25.5 81.5v299h152v-536h-152v76q-13 -17 -28.5 -32.5t-34.5 -27.5t-42 -19t-52 -7z" />
    <glyph glyph-name="udieresis" unicode="&#xfc;" horiz-adv-x="623" 
d="M131 730h146v-135h-146v135zM345 730h146v-135h-146v135zM246 -10q-87 0 -134.5 53t-47.5 146v347h152v-299q0 -54 24 -81.5t68 -27.5t69.5 27.5t25.5 81.5v299h152v-536h-152v76q-13 -17 -28.5 -32.5t-34.5 -27.5t-42 -19t-52 -7z" />
    <glyph glyph-name="dagger" unicode="&#x2020;" horiz-adv-x="410" 
d="M173 508l-120 -10v83l119 -10l-13 129h92l-13 -129l119 10v-83l-120 10l10 -270h-84z" />
    <glyph glyph-name="degree" unicode="&#xb0;" horiz-adv-x="480" 
d="M240 443q40 0 66 27.5t26 65.5v2q0 38 -26 65.5t-66 27.5t-66 -27.5t-26 -65.5v-2q0 -38 26 -65.5t66 -27.5zM240 368q-34 0 -65.5 13.5t-55.5 36.5t-38 53.5t-14 64.5v2q0 34 14 64.5t38 53.5t55.5 36.5t65.5 13.5t65.5 -13.5t55.5 -36.5t38 -53.5t14 -64.5v-2
q0 -34 -14 -64.5t-38 -53.5t-55.5 -36.5t-65.5 -13.5z" />
    <glyph glyph-name="cent" unicode="&#xa2;" horiz-adv-x="581" 
d="M312 503q-26 -2 -47.5 -14.5t-37.5 -32t-24.5 -45t-8.5 -54.5v-2q0 -42 16.5 -76t47.5 -53zM227 92q-40 15 -73 40.5t-57 59.5t-37 75t-13 86v2q0 58 21 108.5t58.5 88.5t88.5 60t112 22h6l14 72h104l-17 -88q33 -11 59 -30t49 -44l-90 -97q-12 12 -23.5 21.5t-25.5 16.5
l-55 -277q32 4 58 18.5t50 37.5l86 -87q-39 -44 -90 -71.5t-124 -29.5l-16 -82h-104z" />
    <glyph glyph-name="sterling" unicode="&#xa3;" horiz-adv-x="644" 
d="M60 101l76 25v141h-76v127h76v81q0 54 15.5 98t44.5 73q31 31 75 47.5t102 16.5q42 0 76 -9t61 -24.5t48.5 -36.5t39.5 -45l-117 -94q-26 33 -50 49.5t-56 16.5q-35 0 -57 -22q-12 -12 -19 -31t-7 -43v-77h228v-127h-228v-134h304v-133h-536v101z" />
    <glyph glyph-name="section" unicode="&#xa7;" horiz-adv-x="632" 
d="M389 289q23 0 39 11.5t16 32.5v2q0 20 -24.5 32.5t-76.5 25.5q-39 10 -61.5 14t-38.5 4q-23 0 -39 -11.5t-16 -32.5v-2q0 -20 24.5 -32.5t76.5 -25.5q39 -10 61.5 -14t38.5 -4zM325 -10q-77 0 -134 24.5t-99 70.5l82 82q35 -32 70 -49t77 -17q34 0 50 10t16 26v2
q0 9 -5 16t-17 13t-33.5 12.5t-54.5 13.5q-59 13 -101 27.5t-69 32t-39.5 39.5t-12.5 50v2q0 25 7 44t19.5 33t28.5 23.5t34 16.5q-22 17 -32 41t-10 50v2q0 72 54 113.5t151 41.5q77 0 134 -24.5t99 -70.5l-82 -82q-35 32 -70 49t-77 17q-32 0 -49 -9.5t-17 -26.5v-2
q0 -8 4 -14.5t15.5 -13t33 -13t57.5 -14.5q59 -13 101 -27t69 -31.5t39.5 -39.5t12.5 -51v-2q0 -50 -26.5 -76.5t-62.5 -40.5q20 -16 31 -40.5t11 -50.5v-2q0 -71 -53.5 -113t-151.5 -42z" />
    <glyph glyph-name="bullet" unicode="&#x2022;" 
d="M250 203q-31 0 -58 11.5t-47.5 31.5t-32 47t-11.5 58v2q0 31 11.5 58t32 47t47.5 31.5t58 11.5t58 -11.5t47 -31.5t32 -47t12 -58v-2q0 -31 -12 -58t-32 -47t-47 -31.5t-58 -11.5z" />
    <glyph glyph-name="paragraph" unicode="&#xb6;" horiz-adv-x="590" 
d="M352 230h-24q-63 0 -116.5 14.5t-93 44t-61.5 73t-22 101.5v2q0 55 20 98.5t56.5 74t87 46.5t112.5 16h195v-700h-154v230z" />
    <glyph glyph-name="germandbls" unicode="&#xdf;" horiz-adv-x="620" 
d="M299 112q62 3 95 26t33 66v2q0 41 -36.5 65t-91.5 32v100q37 23 62.5 52.5t25.5 71.5v2q0 38 -21.5 59t-58.5 21q-39 0 -63.5 -27t-24.5 -73v-509h-151v503q0 55 17.5 98.5t49.5 73.5t77.5 46t101.5 16q54 0 95.5 -15t70 -41t43 -61.5t14.5 -76.5v-2q0 -32 -7 -57
t-19.5 -44t-29 -34t-35.5 -28q25 -11 48.5 -26.5t42 -37t29.5 -49.5t11 -64v-2q0 -50 -19.5 -88.5t-56 -64.5t-88 -38.5t-114.5 -9.5v114z" />
    <glyph glyph-name="registered" unicode="&#xae;" horiz-adv-x="830" 
d="M436 365q32 0 49 15.5t17 39.5v2q0 28 -18 42t-50 14h-83v-113h85zM266 553h171q77 0 119 -42q32 -32 32 -84v-2q0 -47 -23 -76t-60 -43l94 -138h-99l-82 124h-2h-65v-124h-85v385zM414 28q69 0 127.5 25.5t101.5 69t67.5 102.5t24.5 125v2q0 66 -24.5 124.5t-67 102
t-101 68.5t-126.5 25q-69 0 -127.5 -25.5t-101.5 -69t-67.5 -102.5t-24.5 -125v-2q0 -66 24 -124.5t67 -102t101.5 -68.5t126.5 -25zM414 -12q-76 0 -142 28.5t-114.5 77.5t-76.5 114.5t-28 139.5v2q0 74 28 139.5t77 115t115.5 78.5t142.5 29t142 -28.5t114.5 -77.5
t76.5 -114.5t28 -139.5v-2q0 -74 -28 -139.5t-77 -115t-115.5 -78.5t-142.5 -29z" />
    <glyph glyph-name="copyright" unicode="&#xa9;" horiz-adv-x="830" 
d="M419 156q-42 0 -78.5 15.5t-62.5 42t-41 62.5t-15 77v2q0 41 14.5 77t41 63t63.5 43t81 16q55 0 90 -16.5t62 -42.5l-55 -64q-22 20 -45.5 31.5t-51.5 11.5q-24 0 -44 -9.5t-35 -25.5t-23 -37.5t-8 -45.5v-2q0 -24 8 -45.5t22.5 -37.5t35 -25.5t44.5 -9.5q32 0 54 12.5
t45 32.5l56 -56q-30 -32 -66 -50.5t-92 -18.5zM414 28q69 0 127.5 25.5t101.5 69t67.5 102.5t24.5 125v2q0 66 -24.5 124.5t-67 102t-101 68.5t-126.5 25q-69 0 -127.5 -25.5t-101.5 -69t-67.5 -102.5t-24.5 -125v-2q0 -66 24 -124.5t67 -102t101.5 -68.5t126.5 -25z
M414 -12q-76 0 -142 28.5t-114.5 77.5t-76.5 114.5t-28 139.5v2q0 74 28 139.5t77 115t115.5 78.5t142.5 29t142 -28.5t114.5 -77.5t76.5 -114.5t28 -139.5v-2q0 -74 -28 -139.5t-77 -115t-115.5 -78.5t-142.5 -29z" />
    <glyph glyph-name="trademark" unicode="&#x2122;" horiz-adv-x="690" 
d="M118 638h-92v62h254v-62h-92v-246h-70v246zM345 700h74l81 -130l81 130h72v-308h-66v208l-85 -135h-6l-85 135v-208h-66v308z" />
    <glyph glyph-name="acute" unicode="&#xb4;" 
d="M259 772l131 -57l-128 -120h-116z" />
    <glyph glyph-name="dieresis" unicode="&#xa8;" 
d="M70 730h146v-135h-146v135zM284 730h146v-135h-146v135z" />
    <glyph glyph-name="AE" unicode="&#xc6;" horiz-adv-x="1045" 
d="M484 293v274h-18l-145 -274h163zM386 700h601v-137h-350v-142h305v-137h-305v-147h355v-137h-508v157h-235l-83 -157h-157z" />
    <glyph glyph-name="Oslash" unicode="&#xd8;" horiz-adv-x="850" 
d="M426 127q47 0 86 17.5t67.5 47.5t44 70.5t15.5 85.5v2q0 67 -34 123l-278 -322q22 -11 46.5 -17.5t52.5 -6.5zM523 549q-22 11 -46.5 17.5t-52.5 6.5q-47 0 -86 -17.5t-67.5 -47.5t-44 -70.5t-15.5 -85.5v-2q0 -67 34 -123zM424 -12q-54 0 -102.5 13t-90.5 37l-39 -43
h-147l98 113q-43 48 -66.5 109.5t-23.5 130.5v2q0 75 28 140.5t77.5 115t118 78t149.5 28.5q54 0 102.5 -13t90.5 -37l39 43h147l-98 -114q43 -48 66.5 -109t23.5 -130v-2q0 -75 -28 -140.5t-77.5 -115t-118 -78t-149.5 -28.5z" />
    <glyph glyph-name="plusminus" unicode="&#xb1;" horiz-adv-x="614" 
d="M314 -12q-87 0 -156.5 32t-120.5 87l103 100q35 -37 77 -59t99 -22q50 0 76.5 22t26.5 60v2q0 39 -34.5 59t-97.5 20h-77v128h81q54 0 81.5 23t27.5 58v2q0 32 -26.5 53t-74.5 21q-45 0 -78 -22.5t-65 -58.5l-106 90q24 30 49 53.5t55 40.5t66 26t81 9q57 0 103 -14
t79 -39t50.5 -59.5t17.5 -75.5v-2q0 -63 -25.5 -101t-66.5 -61q48 -21 79.5 -56t31.5 -96v-2q0 -47 -17 -86.5t-49.5 -69t-80.5 -46t-109 -16.5z" />
    <glyph glyph-name="yen" unicode="&#xa5;" horiz-adv-x="686" 
d="M269 92h-184v108h184v62h-184v108h143l-214 330h177l154 -259l155 259h172l-216 -330h145v-108h-184v-62h184v-108h-184v-92h-148v92z" />
    <glyph glyph-name="mu" unicode="&#xb5;" horiz-adv-x="850" 
d="M426 130q46 0 85 17t66.5 47t43 69.5t15.5 84.5v2q0 45 -15.5 85t-44 70t-67.5 47.5t-85 17.5q-47 0 -85.5 -17t-66 -47t-43 -69.5t-15.5 -84.5v-2q0 -45 15.5 -85t44 -70t67 -47.5t85.5 -17.5zM530 2q-51 -14 -106 -14q-81 0 -149 28.5t-117.5 77t-77 114t-27.5 140.5v2
q0 75 28 140.5t77.5 115t118 78t149.5 28.5t149 -28.5t117.5 -77t77 -114t27.5 -140.5v-2q0 -78 -29.5 -145.5t-83.5 -117.5l177 -178v-10h-226z" />
    <glyph glyph-name="mu" unicode="&#x3bc;" horiz-adv-x="850" 
d="M426 130q46 0 85 17t66.5 47t43 69.5t15.5 84.5v2q0 45 -15.5 85t-44 70t-67.5 47.5t-85 17.5q-47 0 -85.5 -17t-66 -47t-43 -69.5t-15.5 -84.5v-2q0 -45 15.5 -85t44 -70t67 -47.5t85.5 -17.5zM530 2q-51 -14 -106 -14q-81 0 -149 28.5t-117.5 77t-77 114t-27.5 140.5v2
q0 75 28 140.5t77.5 115t118 78t149.5 28.5t149 -28.5t117.5 -77t77 -114t27.5 -140.5v-2q0 -78 -29.5 -145.5t-83.5 -117.5l177 -178v-10h-226z" />
    <glyph glyph-name="pi" unicode="&#x3c0;" horiz-adv-x="830" 
d="M434 355q32 0 49.5 16.5t17.5 41.5v2q0 28 -18.5 43t-50.5 15h-64v-118h66zM282 549h158q69 0 108.5 -36.5t39.5 -96.5v-2q0 -33 -12.5 -58t-33.5 -42t-49.5 -25.5t-60.5 -8.5h-64v-116h-86v385zM414 28q69 0 127.5 25.5t101.5 69t67.5 102.5t24.5 125v2
q0 66 -24.5 124.5t-67 102t-101 68.5t-126.5 25q-69 0 -127.5 -25.5t-101.5 -69t-67.5 -102.5t-24.5 -125v-2q0 -66 24 -124.5t67 -102t101.5 -68.5t126.5 -25zM414 -12q-76 0 -142 28.5t-114.5 77.5t-76.5 114.5t-28 139.5v2q0 74 28 139.5t77 115t115.5 78.5t142.5 29
t142 -28.5t114.5 -77.5t76.5 -114.5t28 -139.5v-2q0 -74 -28 -139.5t-77 -115t-115.5 -78.5t-142.5 -29z" />
    <glyph glyph-name="ordfeminine" unicode="&#xaa;" horiz-adv-x="390" 
d="M178 457q29 0 47.5 14.5t18.5 37.5v15q-11 5 -24.5 8t-29.5 3q-26 0 -41.5 -10t-15.5 -30v-2q0 -17 12.5 -26.5t32.5 -9.5zM49 343h278v-66h-278v66zM153 399q-42 0 -71.5 23t-29.5 67v2q0 48 33 71t86 23q22 0 39 -3.5t33 -8.5v5q0 26 -16 40t-48 14q-23 0 -42 -4
t-39 -12l-21 63q25 11 50.5 17.5t63.5 6.5q67 0 100 -33q17 -17 24.5 -41t7.5 -53v-171h-81v32q-15 -17 -36.5 -27.5t-52.5 -10.5z" />
    <glyph glyph-name="ordmasculine" unicode="&#xba;" horiz-adv-x="390" 
d="M196 470q33 0 52 24t19 56v2q0 32 -20 56.5t-53 24.5t-52 -24t-19 -56v-2q0 -32 20 -56.5t53 -24.5zM51 343h288v-66h-288v66zM194 398q-33 0 -61 12t-48.5 32.5t-32 48t-11.5 59.5v2q0 32 12 60t32.5 48.5t49 32.5t61.5 12t61 -12t48.5 -32.5t32 -48t11.5 -59.5v-2
q0 -32 -12 -60t-32.5 -48.5t-49 -32.5t-61.5 -12z" />
    <glyph glyph-name="Omega" unicode="&#x3a9;" horiz-adv-x="764" 
d="M94 406h-63v125h63v34q0 87 43 130q42 42 123 42q36 0 61.5 -4t46.5 -11v-126q-17 6 -33 9.5t-36 3.5q-55 0 -55 -58v-21h123v-124h-121v-406h-152v406zM476 406h-63v125h63v34q0 87 43 130q42 42 123 42q36 0 61.5 -4t46.5 -11v-126q-17 6 -33 9.5t-36 3.5
q-55 0 -55 -58v-21h123v-124h-121v-406h-152v406z" />
    <glyph glyph-name="Omega" unicode="&#x2126;" horiz-adv-x="764" 
d="M94 406h-63v125h63v34q0 87 43 130q42 42 123 42q36 0 61.5 -4t46.5 -11v-126q-17 6 -33 9.5t-36 3.5q-55 0 -55 -58v-21h123v-124h-121v-406h-152v406zM476 406h-63v125h63v34q0 87 43 130q42 42 123 42q36 0 61.5 -4t46.5 -11v-126q-17 6 -33 9.5t-36 3.5
q-55 0 -55 -58v-21h123v-124h-121v-406h-152v406z" />
    <glyph glyph-name="ae" unicode="&#xe6;" horiz-adv-x="951" 
d="M266 97q34 0 68.5 12.5t68.5 38.5q-7 16 -12 33t-7 36q-20 8 -44.5 13.5t-51.5 5.5q-49 0 -77 -19t-28 -55v-2q0 -29 24 -46t59 -17zM758 310q-7 51 -36 82.5t-77 31.5t-77.5 -31t-38.5 -83h229zM238 -10q-44 0 -81 11t-64 32t-42 51.5t-15 69.5v2q0 44 16 76t44.5 53
t68 31.5t87.5 10.5q41 0 71.5 -6t59.5 -16v9q0 48 -29 73t-86 25q-44 0 -77.5 -7.5t-70.5 -21.5l-38 116q44 19 92 31t116 12q66 0 110.5 -17.5t71.5 -50.5q33 34 77.5 53t99.5 19q65 0 113.5 -24t80.5 -64.5t47.5 -93t15.5 -109.5q0 -9 -0.5 -19t-1.5 -21h-373
q11 -52 45.5 -78.5t85.5 -26.5q38 0 68 13t62 42l87 -77q-38 -47 -92 -73.5t-127 -26.5q-62 0 -114 21.5t-90 59.5q-46 -34 -100 -56.5t-118 -22.5z" />
    <glyph glyph-name="oslash" unicode="&#xf8;" horiz-adv-x="664" 
d="M333 115q34 0 60.5 12t45 32.5t28 48t9.5 57.5v2q0 36 -16 70l-184 -211q27 -11 57 -11zM388 407q-26 12 -57 12q-34 0 -60.5 -12t-45 -32.5t-28 -48t-9.5 -57.5v-2q0 -36 16 -70zM331 -12q-40 0 -76 9t-68 26l-27 -28h-133l80 92q-31 36 -48 81.5t-17 96.5v2
q0 58 22 108.5t61 88.5t92 60t116 22q40 0 76 -9t67 -26l28 30h133l-25 -29l-25.5 -29.5l-30.5 -34.5q32 -36 49 -81.5t17 -97.5v-2q0 -58 -22 -108.5t-61 -88.5t-92 -60t-116 -22z" />
    <glyph glyph-name="questiondown" unicode="&#xbf;" horiz-adv-x="544" 
d="M279 -9q-54 0 -98.5 13.5t-76.5 40t-49.5 65t-17.5 88.5v2q0 48 15.5 82t42 58t62.5 38.5t77 22.5l11 61h102l23 -162l-5 -5q-95 -4 -135 -27.5t-40 -63.5v-2q0 -34 24 -52.5t68 -18.5q42 0 78.5 17t71.5 52l92 -101q-44 -48 -103.5 -78t-141.5 -30zM218 700h162v-160
h-162v160z" />
    <glyph glyph-name="exclamdown" unicode="&#xa1;" horiz-adv-x="324" 
d="M73 20l47 442h84l47 -442v-20h-178v20zM81 700h162v-160h-162v160z" />
    <glyph glyph-name="radical" unicode="&#x221a;" horiz-adv-x="1066" 
d="M839 730h152v-730h-152v730zM94 406h-63v125h63v34q0 87 43 130q42 42 123 42q36 0 61.5 -4t46.5 -11v-126q-17 6 -33 9.5t-36 3.5q-55 0 -55 -58v-21h123v-124h-121v-406h-152v406zM476 406h-63v125h63v34q0 87 43 130q42 42 123 42q36 0 61.5 -4t46.5 -11v-126
q-17 6 -33 9.5t-36 3.5q-55 0 -55 -58v-21h123v-124h-121v-406h-152v406z" />
    <glyph glyph-name="florin" unicode="&#x192;" horiz-adv-x="536" 
d="M100 -5q-19 0 -32 1t-27 4v123q19 -3 37 -3q32 0 48 14t22 47l28 163h-67v125h89l14 74q14 76 56.5 119t132.5 43q61 0 99 -12v-126q-18 5 -35 7.5t-33 2.5q-33 0 -51 -16.5t-24 -51.5l-7 -40h115v-125h-137l-33 -187q-8 -44 -23 -75t-39 -50.5t-57 -28t-76 -8.5z" />
    <glyph glyph-name="approxequal" unicode="&#x2248;" horiz-adv-x="1066" 
d="M839 536h152v-536h-152v536zM94 406h-63v125h63v34q0 87 43 130q42 42 123 42q36 0 61.5 -4t46.5 -11v-126q-17 6 -33 9.5t-36 3.5q-55 0 -55 -58v-21h123v-124h-121v-406h-152v406zM476 406h-63v125h63v34q0 87 43 130q42 42 123 42q36 0 61.5 -4t46.5 -11v-126
q-17 6 -33 9.5t-36 3.5q-55 0 -55 -58v-21h123v-124h-121v-406h-152v406zM835 730h160v-135h-160v135z" />
    <glyph glyph-name="guillemotleft" unicode="&#xab;" horiz-adv-x="645" 
d="M41 264v8l168 224l116 -56l-130 -171l130 -171l-116 -58zM313 264v8l168 224l116 -56l-130 -171l130 -171l-116 -58z" />
    <glyph glyph-name="guillemotright" unicode="&#xbb;" horiz-adv-x="645" 
d="M48 96l130 171l-130 171l116 58l168 -224v-8l-168 -224zM320 96l130 171l-130 171l116 58l168 -224v-8l-168 -224z" />
    <glyph glyph-name="ellipsis" unicode="&#x2026;" horiz-adv-x="840" 
d="M62 156h158v-156h-158v156zM341 156h158v-156h-158v156zM620 156h158v-156h-158v156z" />
    <glyph glyph-name="nonbreakingspace" unicode="&#xa0;" horiz-adv-x="300" 
 />
    <glyph glyph-name="Agrave" unicode="&#xc0;" horiz-adv-x="790" 
d="M215 875l131 57l113 -177h-116zM486 293l-93 227l-93 -227h186zM324 705h142l300 -705h-161l-64 157h-296l-64 -157h-157z" />
    <glyph glyph-name="Atilde" unicode="&#xc3;" horiz-adv-x="790" 
d="M189 770q9 31 19.5 56.5t25 43.5t34 28t45.5 10q23 0 44.5 -6t40.5 -13.5l35 -13.5t30 -6q23 0 34.5 12.5t22.5 36.5l81 -25q-17 -63 -44.5 -100.5t-79.5 -37.5q-23 0 -44.5 6t-40.5 13.5l-35.5 13.5t-29.5 6q-23 0 -34.5 -12.5t-22.5 -36.5zM486 293l-93 227l-93 -227
h186zM324 705h142l300 -705h-161l-64 157h-296l-64 -157h-157z" />
    <glyph glyph-name="Otilde" unicode="&#xd5;" horiz-adv-x="850" 
d="M219 770q9 31 19.5 56.5t25 43.5t34 28t45.5 10q23 0 44.5 -6t40.5 -13.5l35 -13.5t30 -6q23 0 34.5 12.5t22.5 36.5l81 -25q-17 -63 -44.5 -100.5t-79.5 -37.5q-23 0 -44.5 6t-40.5 13.5l-35.5 13.5t-29.5 6q-23 0 -34.5 -12.5t-22.5 -36.5zM426 130q46 0 85 17t66.5 47
t43 69.5t15.5 84.5v2q0 45 -15.5 85t-44 70t-67.5 47.5t-85 17.5q-47 0 -85.5 -17t-66 -47t-43 -69.5t-15.5 -84.5v-2q0 -45 15.5 -85t44 -70t67 -47.5t85.5 -17.5zM424 -12q-81 0 -149 28.5t-117.5 77t-77 114t-27.5 140.5v2q0 75 28 140.5t77.5 115t118 78t149.5 28.5
t149 -28.5t117.5 -77t77 -114t27.5 -140.5v-2q0 -75 -28 -140.5t-77.5 -115t-118 -78t-149.5 -28.5z" />
    <glyph glyph-name="OE" unicode="&#x152;" horiz-adv-x="1075" 
d="M514 139v422h-89q-47 0 -86 -15t-67 -43t-43 -66.5t-15 -84.5v-2q0 -47 15 -85.5t43 -66.5t67 -43.5t86 -15.5h89zM425 0q-83 0 -151 26.5t-117.5 73.5t-76.5 110.5t-27 137.5v2q0 74 27 138t76.5 111t117.5 74t151 27h592v-137h-350v-142h305v-137h-305v-147h355v-137
h-597z" />
    <glyph glyph-name="oe" unicode="&#x153;" horiz-adv-x="1033" 
d="M328 119q31 0 56 11.5t42.5 31.5t26.5 46.5t9 56.5v2q0 30 -10 56.5t-28 47t-43 32.5t-55 12q-32 0 -56.5 -12t-42 -32t-26.5 -46.5t-9 -55.5v-2q0 -30 10 -56.5t28 -47t43 -32.5t55 -12zM840 310q-7 51 -36 82.5t-77 31.5t-77.5 -31t-38.5 -83h229zM322 -12
q-57 0 -108 21.5t-89.5 59t-60.5 88t-22 108.5v2q0 58 22.5 108.5t61 88.5t90.5 60t112 22q63 0 114.5 -23.5t87.5 -65.5q35 42 85.5 65.5t111.5 23.5q67 0 116 -24t81.5 -64.5t48 -93t15.5 -109.5q0 -9 -0.5 -19t-1.5 -21h-373q11 -52 45.5 -78.5t85.5 -26.5q38 0 68 13
t62 42l87 -77q-38 -47 -92 -73.5t-127 -26.5q-66 0 -121 24t-93 67q-37 -42 -90 -66.5t-116 -24.5z" />
    <glyph glyph-name="endash" unicode="&#x2013;" horiz-adv-x="528" 
d="M50 381h428v-142h-428v142z" />
    <glyph glyph-name="emdash" unicode="&#x2014;" horiz-adv-x="898" 
d="M50 381h798v-142h-798v142z" />
    <glyph glyph-name="quotedblleft" unicode="&#x201c;" horiz-adv-x="540" 
d="M57 518q0 99 48 142t137 45l13 -63q-106 -11 -98 -99h62v-160h-162v135zM311 518q0 99 48 142t137 45l13 -63q-106 -11 -98 -99h62v-160h-162v135z" />
    <glyph glyph-name="quotedblright" unicode="&#x201d;" horiz-adv-x="540" 
d="M31 441q106 11 98 99h-62v160h162v-135q0 -99 -48 -142.5t-137 -44.5zM285 441q106 11 98 99h-62v160h162v-135q0 -99 -48 -142.5t-137 -44.5z" />
    <glyph glyph-name="quoteleft" unicode="&#x2018;" horiz-adv-x="286" 
d="M57 518q0 99 48 142t137 45l13 -63q-106 -11 -98 -99h62v-160h-162v135z" />
    <glyph glyph-name="quoteright" unicode="&#x2019;" horiz-adv-x="286" 
d="M31 441q106 11 98 99h-62v160h162v-135q0 -99 -48 -142.5t-137 -44.5z" />
    <glyph glyph-name="ydieresis" unicode="&#xff;" horiz-adv-x="600" 
d="M120 730h146v-135h-146v135zM334 730h146v-135h-146v135zM196 -163q-42 0 -74 10t-61 27l51 110q15 -9 32.5 -15t32.5 -6q20 0 31.5 7.5t21.5 27.5l-210 538h161l122 -365l117 365h158l-206 -549q-15 -41 -32 -69.5t-37.5 -46.5t-46.5 -26t-60 -8z" />
    <glyph glyph-name="Ydieresis" unicode="&#x178;" horiz-adv-x="716" 
d="M178 890h146v-135h-146v135zM392 890h146v-135h-146v135zM281 276l-269 424h180l167 -281l170 281h175l-269 -421v-279h-154v276z" />
    <glyph glyph-name="fraction" unicode="&#x2044;" horiz-adv-x="480" 
d="M395 758h134l-466 -856h-134z" />
    <glyph glyph-name="fraction" unicode="&#x2215;" horiz-adv-x="480" 
d="M395 758h134l-466 -856h-134z" />
    <glyph glyph-name="currency" unicode="&#xa4;" horiz-adv-x="720" 
d="M437 -12q-57 0 -105 16.5t-85.5 46.5t-64 72.5t-41.5 93.5h-92v101h75q-1 8 -1 15v15v2v18t1 18h-75v101h94q15 49 42 90.5t64 71.5t83.5 46.5t101.5 16.5q46 0 83 -9.5t66.5 -26.5t53 -40.5t43.5 -51.5l-116 -88q-29 38 -59 58.5t-74 20.5q-45 0 -76.5 -23t-51.5 -65
h185v-101h-208q-1 -8 -1 -16.5v-17.5v-2v-16t1 -16h208v-101h-186q20 -45 53.5 -68.5t81.5 -23.5q43 0 72.5 20.5t62.5 61.5l110 -81q-44 -62 -101.5 -100t-143.5 -38z" />
    <glyph glyph-name="guilsinglleft" unicode="&#x2039;" horiz-adv-x="373" 
d="M41 264v8l168 224l116 -56l-130 -171l130 -171l-116 -58z" />
    <glyph glyph-name="guilsinglright" unicode="&#x203a;" horiz-adv-x="373" 
d="M48 96l130 171l-130 171l116 58l168 -224v-8l-168 -224z" />
    <glyph glyph-name="daggerdbl" unicode="&#x2021;" horiz-adv-x="430" 
d="M182 129l-119 -10v83l119 -10l-9 158l9 158l-119 -10v83l119 -10l-13 129h92l-13 -129l119 10v-83l-119 10l9 -158l-9 -158l119 10v-83l-119 10l13 -129h-92z" />
    <glyph glyph-name="periodcentered" unicode="&#xb7;" horiz-adv-x="286" 
d="M62 390h162v-160h-162v160z" />
    <glyph glyph-name="periodcentered" unicode="&#x2219;" horiz-adv-x="286" 
d="M62 390h162v-160h-162v160z" />
    <glyph glyph-name="quotesinglbase" unicode="&#x201a;" horiz-adv-x="286" 
d="M26 -99q106 11 98 99h-62v160h162v-135q0 -99 -48 -142.5t-137 -44.5z" />
    <glyph glyph-name="quotedblbase" unicode="&#x201e;" horiz-adv-x="540" 
d="M26 -99q106 11 98 99h-62v160h162v-135q0 -99 -48 -142.5t-137 -44.5zM280 -99q106 11 98 99h-62v160h162v-135q0 -99 -48 -142.5t-137 -44.5z" />
    <glyph glyph-name="perthousand" unicode="&#x2030;" horiz-adv-x="1240" 
d="M646 83q32 0 48 26t16 60v2q0 35 -18 61.5t-48 26.5q-32 0 -48 -25.5t-16 -60.5v-2q0 -35 18 -61.5t48 -26.5zM1026 83q32 0 48 26t16 60v2q0 35 -18 61.5t-48 26.5q-32 0 -48 -25.5t-16 -60.5v-2q0 -35 18 -61.5t48 -26.5zM216 441q32 0 48 26t16 60v2q0 35 -18 61.5
t-48 26.5q-32 0 -48 -25.5t-16 -60.5v-2q0 -35 18 -61.5t48 -26.5zM644 -8q-38 0 -69 14t-53.5 38t-34.5 56t-12 69v2q0 37 12.5 69.5t35 57t54 38.5t69.5 14t69 -14t53.5 -38t34.5 -56t12 -69v-2q0 -37 -12.5 -69.5t-35 -57t-54 -38.5t-69.5 -14zM1024 -8q-38 0 -69 14
t-53.5 38t-34.5 56t-12 69v2q0 37 12.5 69.5t35 57t54 38.5t69.5 14t69 -14t53.5 -38t34.5 -56t12 -69v-2q0 -37 -12.5 -69.5t-35 -57t-54 -38.5t-69.5 -14zM626 700h119l-511 -700h-119zM214 350q-38 0 -69 14t-53.5 38t-34.5 56t-12 69v2q0 37 12.5 69.5t35 57t54 38.5
t69.5 14t69 -14t53.5 -38t34.5 -56t12 -69v-2q0 -37 -12.5 -69.5t-35 -57t-54 -38.5t-69.5 -14z" />
    <glyph glyph-name="Acircumflex" unicode="&#xc2;" horiz-adv-x="790" 
d="M323 912h144l123 -157h-117l-79 66l-79 -66h-115zM486 293l-93 227l-93 -227h186zM324 705h142l300 -705h-161l-64 157h-296l-64 -157h-157z" />
    <glyph glyph-name="Ecircumflex" unicode="&#xca;" horiz-adv-x="670" 
d="M274 912h144l123 -157h-117l-79 66l-79 -66h-115zM84 700h528v-137h-375v-142h330v-137h-330v-147h380v-137h-533v700z" />
    <glyph glyph-name="Aacute" unicode="&#xc1;" horiz-adv-x="790" 
d="M444 932l131 -57l-128 -120h-116zM486 293l-93 227l-93 -227h186zM324 705h142l300 -705h-161l-64 157h-296l-64 -157h-157z" />
    <glyph glyph-name="Edieresis" unicode="&#xcb;" horiz-adv-x="670" 
d="M166 890h146v-135h-146v135zM380 890h146v-135h-146v135zM84 700h528v-137h-375v-142h330v-137h-330v-147h380v-137h-533v700z" />
    <glyph glyph-name="Egrave" unicode="&#xc8;" horiz-adv-x="670" 
d="M189 875l131 57l113 -177h-116zM84 700h528v-137h-375v-142h330v-137h-330v-147h380v-137h-533v700z" />
    <glyph glyph-name="Iacute" unicode="&#xcd;" horiz-adv-x="336" 
d="M217 932l131 -57l-128 -120h-116zM91 700h154v-700h-154v700z" />
    <glyph glyph-name="Icircumflex" unicode="&#xce;" horiz-adv-x="336" 
d="M96 912h144l123 -157h-117l-79 66l-79 -66h-115zM91 700h154v-700h-154v700z" />
    <glyph glyph-name="Idieresis" unicode="&#xcf;" horiz-adv-x="336" 
d="M-12 890h146v-135h-146v135zM202 890h146v-135h-146v135zM91 700h154v-700h-154v700z" />
    <glyph glyph-name="Igrave" unicode="&#xcc;" horiz-adv-x="336" 
d="M-12 875l131 57l113 -177h-116zM91 700h154v-700h-154v700z" />
    <glyph glyph-name="Oacute" unicode="&#xd3;" horiz-adv-x="850" 
d="M484 932l131 -57l-128 -120h-116zM426 130q46 0 85 17t66.5 47t43 69.5t15.5 84.5v2q0 45 -15.5 85t-44 70t-67.5 47.5t-85 17.5q-47 0 -85.5 -17t-66 -47t-43 -69.5t-15.5 -84.5v-2q0 -45 15.5 -85t44 -70t67 -47.5t85.5 -17.5zM424 -12q-81 0 -149 28.5t-117.5 77
t-77 114t-27.5 140.5v2q0 75 28 140.5t77.5 115t118 78t149.5 28.5t149 -28.5t117.5 -77t77 -114t27.5 -140.5v-2q0 -75 -28 -140.5t-77.5 -115t-118 -78t-149.5 -28.5z" />
    <glyph glyph-name="Ocircumflex" unicode="&#xd4;" horiz-adv-x="850" 
d="M353 912h144l123 -157h-117l-79 66l-79 -66h-115zM426 130q46 0 85 17t66.5 47t43 69.5t15.5 84.5v2q0 45 -15.5 85t-44 70t-67.5 47.5t-85 17.5q-47 0 -85.5 -17t-66 -47t-43 -69.5t-15.5 -84.5v-2q0 -45 15.5 -85t44 -70t67 -47.5t85.5 -17.5zM424 -12q-81 0 -149 28.5
t-117.5 77t-77 114t-27.5 140.5v2q0 75 28 140.5t77.5 115t118 78t149.5 28.5t149 -28.5t117.5 -77t77 -114t27.5 -140.5v-2q0 -75 -28 -140.5t-77.5 -115t-118 -78t-149.5 -28.5z" />
    <glyph glyph-name="Ograve" unicode="&#xd2;" horiz-adv-x="850" 
d="M235 875l131 57l113 -177h-116zM426 130q46 0 85 17t66.5 47t43 69.5t15.5 84.5v2q0 45 -15.5 85t-44 70t-67.5 47.5t-85 17.5q-47 0 -85.5 -17t-66 -47t-43 -69.5t-15.5 -84.5v-2q0 -45 15.5 -85t44 -70t67 -47.5t85.5 -17.5zM424 -12q-81 0 -149 28.5t-117.5 77
t-77 114t-27.5 140.5v2q0 75 28 140.5t77.5 115t118 78t149.5 28.5t149 -28.5t117.5 -77t77 -114t27.5 -140.5v-2q0 -75 -28 -140.5t-77.5 -115t-118 -78t-149.5 -28.5z" />
    <glyph glyph-name="Uacute" unicode="&#xda;" horiz-adv-x="756" 
d="M422 927l131 -57l-128 -120h-116zM376 -11q-141 0 -222 78t-81 233v400h154v-396q0 -86 40 -129.5t111 -43.5t111 42t40 126v401h154v-395q0 -80 -21.5 -139t-61.5 -98.5t-97 -59t-127 -19.5z" />
    <glyph glyph-name="Ucircumflex" unicode="&#xdb;" horiz-adv-x="756" 
d="M306 912h144l123 -157h-117l-79 66l-79 -66h-115zM376 -11q-141 0 -222 78t-81 233v400h154v-396q0 -86 40 -129.5t111 -43.5t111 42t40 126v401h154v-395q0 -80 -21.5 -139t-61.5 -98.5t-97 -59t-127 -19.5z" />
    <glyph glyph-name="Ugrave" unicode="&#xd9;" horiz-adv-x="756" 
d="M203 870l131 57l113 -177h-116zM376 -11q-141 0 -222 78t-81 233v400h154v-396q0 -86 40 -129.5t111 -43.5t111 42t40 126v401h154v-395q0 -80 -21.5 -139t-61.5 -98.5t-97 -59t-127 -19.5z" />
    <glyph glyph-name="dotlessi" unicode="&#x131;" horiz-adv-x="302" 
d="M75 536h152v-536h-152v536z" />
    <glyph glyph-name="circumflex" unicode="&#x2c6;" 
d="M178 752h144l123 -157h-117l-79 66l-79 -66h-115z" />
    <glyph glyph-name="tilde" unicode="&#x2dc;" 
d="M44 610q9 31 19.5 56.5t25 43.5t34 28t45.5 10q23 0 44.5 -6t40.5 -13.5l35 -13.5t30 -6q23 0 34.5 12.5t22.5 36.5l81 -25q-17 -63 -44.5 -100.5t-79.5 -37.5q-23 0 -44.5 6t-40.5 13.5l-35.5 13.5t-29.5 6q-23 0 -34.5 -12.5t-22.5 -36.5z" />
    <glyph glyph-name="macron" unicode="&#xaf;" 
d="M70 705h360v-105h-360v105z" />
    <glyph glyph-name="macron" unicode="&#x2c9;" 
d="M70 705h360v-105h-360v105z" />
    <glyph glyph-name="breve" unicode="&#x2d8;" 
d="M250 593q-80 0 -130.5 41.5t-57.5 117.5h102q9 -27 28.5 -43.5t57.5 -16.5t57.5 16.5t28.5 43.5h102q-7 -76 -57.5 -117.5t-130.5 -41.5z" />
    <glyph glyph-name="dotaccent" unicode="&#x2d9;" 
d="M175 730h150v-135h-150v135z" />
    <glyph glyph-name="ring" unicode="&#x2da;" 
d="M250 648q26 0 44 18t18 43v2q0 25 -18 43t-44 18t-44 -18t-18 -43v-2q0 -25 18 -43t44 -18zM250 593q-24 0 -46 9.5t-38.5 25t-26.5 36.5t-10 45v2q0 24 10 45t26.5 36.5t38.5 25t46 9.5t46 -9.5t38.5 -25t26.5 -36.5t10 -45v-2q0 -24 -10 -45t-26.5 -36.5t-38.5 -25
t-46 -9.5z" />
    <glyph glyph-name="cedilla" unicode="&#xb8;" 
d="M118 -120l89 130h112l-74 -183z" />
    <glyph glyph-name="hungarumlaut" unicode="&#x2dd;" 
d="M147 772l128 -57l-128 -120h-111zM344 772l128 -57l-130 -120h-111z" />
    <glyph glyph-name="ogonek" unicode="&#x2db;" 
d="M371 -164q-96 -8 -148 20.5t-52 88.5q0 17 4.5 34t11.5 31h104q-6 -21 -6 -39q0 -31 19 -48t67 -20v-67z" />
    <glyph glyph-name="caron" unicode="&#x2c7;" 
d="M55 752h117l79 -66l79 66h115l-123 -157h-144z" />
    <glyph glyph-name="Lslash" unicode="&#x141;" horiz-adv-x="649" 
d="M114 262l-75 -22v143l75 22v295h152v-249l192 57v-143l-192 -57v-168h351v-140h-503v262z" />
    <glyph glyph-name="lslash" unicode="&#x142;" horiz-adv-x="362" 
d="M106 280l-76 -23v143l76 23v307h150v-263l76 23v-143l-76 -23v-324h-150v280z" />
    <glyph glyph-name="Scaron" unicode="&#x160;" horiz-adv-x="640" 
d="M122 912h117l79 -66l79 66h115l-123 -157h-144zM333 -10q-80 0 -157 27.5t-140 84.5l91 109q48 -39 98.5 -62t110.5 -23q48 0 74.5 17.5t26.5 48.5v2q0 15 -5.5 26.5t-21 21.5t-43 20t-71.5 21q-53 13 -96 29t-73 39.5t-46.5 58.5t-16.5 87v2q0 48 18 86.5t50.5 66.5
t77.5 43t99 15q77 0 141.5 -23t118.5 -66l-80 -116q-47 32 -92 50.5t-90 18.5t-67.5 -17.5t-22.5 -43.5v-2q0 -17 6.5 -29.5t23.5 -22.5t46.5 -19t74.5 -21q53 -14 94.5 -31.5t70 -42t43 -57.5t14.5 -79v-2q0 -52 -19 -92.5t-53 -68t-81 -42t-104 -14.5z" />
    <glyph glyph-name="scaron" unicode="&#x161;" horiz-adv-x="502" 
d="M60 752h117l79 -66l79 66h115l-123 -157h-144zM256 -10q-57 0 -116.5 19.5t-113.5 61.5l65 100q44 -32 87.5 -48t81.5 -16q33 0 48.5 11t15.5 29v2q0 12 -9 21t-24.5 15.5t-35.5 12.5l-42 13q-28 8 -56.5 19.5t-51.5 30t-37.5 45.5t-14.5 66v2q0 41 15.5 72.5t42 53.5
t62 33t76.5 11q51 0 103.5 -16.5t96.5 -45.5l-58 -105q-40 23 -78 36.5t-67 13.5q-28 0 -42 -10.5t-14 -26.5v-2q0 -11 9 -19.5t24 -16t34.5 -14.5t41.5 -14q28 -9 57 -21.5t52 -30.5t38 -44t15 -63v-2q0 -45 -15.5 -77.5t-43.5 -53.5t-65.5 -31.5t-80.5 -10.5z" />
    <glyph glyph-name="Yacute" unicode="&#xdd;" horiz-adv-x="716" 
d="M412 927l131 -57l-128 -120h-116zM281 276l-269 424h180l167 -281l170 281h175l-269 -421v-279h-154v276z" />
    <glyph glyph-name="yacute" unicode="&#xfd;" horiz-adv-x="600" 
d="M342 772l131 -57l-128 -120h-116zM196 -163q-42 0 -74 10t-61 27l51 110q15 -9 32.5 -15t32.5 -6q20 0 31.5 7.5t21.5 27.5l-210 538h161l122 -365l117 365h158l-206 -549q-15 -41 -32 -69.5t-37.5 -46.5t-46.5 -26t-60 -8z" />
    <glyph glyph-name="Thorn" unicode="&#xde;" horiz-adv-x="673" 
d="M360 245q58 0 90 30.5t32 75.5v2q0 52 -33.5 79t-91.5 27h-119v-214h122zM84 700h154v-102h132q63 0 112.5 -17.5t84 -49.5t53 -76.5t18.5 -98.5v-2q0 -61 -22 -107t-60.5 -77t-90 -46.5t-110.5 -15.5h-117v-108h-154v700z" />
    <glyph glyph-name="thorn" unicode="&#xfe;" horiz-adv-x="675" 
d="M348 119q27 0 50.5 10.5t41.5 30t28.5 46.5t10.5 61v2q0 33 -10.5 60.5t-28.5 47t-41.5 30t-50.5 10.5t-50.5 -10.5t-41 -30t-28 -47t-10.5 -60.5v-2q0 -33 10.5 -60.5t28 -47t41 -30t50.5 -10.5zM68 730h152v-271q28 38 67.5 62.5t99.5 24.5q47 0 91 -18t78 -53.5
t54.5 -87t20.5 -118.5v-2q0 -67 -20.5 -118.5t-54 -87t-77.5 -53.5t-92 -18q-61 0 -100.5 24t-66.5 56v-230h-152v890z" />
    <glyph glyph-name="Zcaron" unicode="&#x17d;" horiz-adv-x="708" 
d="M162 912h117l79 -66l79 66h115l-123 -157h-144zM63 117l385 448h-373v135h571v-117l-385 -448h385v-135h-583v117z" />
    <glyph glyph-name="zcaron" unicode="&#x17e;" horiz-adv-x="563" 
d="M94 752h117l79 -66l79 66h115l-123 -157h-144zM50 107l277 306h-268v123h457v-107l-278 -306h278v-123h-466v107z" />
    <glyph glyph-name="eth" unicode="&#xf0;" horiz-adv-x="648" 
d="M324 116q31 0 55.5 10t41.5 28t26 42t9 51v2q0 27 -9.5 50.5t-26.5 41t-42 27.5t-55 10q-61 0 -97 -36.5t-36 -92.5v-2q0 -27 9.5 -51t27.5 -42t42.5 -28t54.5 -10zM319 -12q-60 0 -111 20.5t-87.5 55.5t-57.5 83t-21 103v2q0 52 17 95t47.5 74t72.5 48t92 17
q35 0 63 -7.5t60 -24.5l-87 116l-114 -47l-56 75l115 46l-64 86h171l23 -33l100 41l55 -75l-102 -41l81 -115q47 -67 67.5 -123t20.5 -120v-2q0 -56 -19 -105.5t-56 -87t-90 -59.5t-120 -22z" />
    <glyph glyph-name="apple" horiz-adv-x="967" 
d="M417 64q0 -7 -2.5 -12t-9.5 -5q-6 0 -9 5t-3 12q0 16 12 16t12 -16zM352 64h-3q-8 0 -8 8q0 6 7 6q4 0 4 -4v-10zM553 79q4 0 0 -9q-5 9 0 9zM393 182q0 -7 -4 -7h-5q-11 0 -18.5 10t-7.5 22q0 17 14 17h6q3 -1 3.5 -1.5t2.5 -5.5zM716 187q0 -13 -11 -13q-9 0 -17 11.5
t-8 26.5q0 14 11 14q9 0 17 -11.5t8 -27.5zM275 200q-8 0 -11.5 5t-3.5 10q0 9 8 9t9 -5l3 -19h-5zM381 384q-13 0 -13 11t13 11h11v-22h-11zM684 535q0 -13 -11 -13q-9 0 -17 11.5t-8 26.5q0 14 11 14q9 0 17 -11.5t8 -27.5zM272 553q-3 -4 -7 -4t-4 2q0 3 4 3q5 0 7 -1z
M566 553q-3 -4 -7 -4t-4 2q0 3 4 3q5 0 7 -1zM171 548q-8 0 -11.5 5t-3.5 10q0 9 8 9t9 -5l3 -19h-5zM441 -88q0 13 -11 13t-11 -12q0 -13 11 -13t11 12zM800 -88q0 13 -11 13t-11 -12q0 -13 11 -13t11 12zM559 -80l-5 -12h10zM394 -83q0 8 -11 7v-13q11 0 11 6zM525 -82
q0 8 -11 6v-12q11 -1 11 6zM606 -83q0 8 -11 7v-13q11 0 11 6zM309 48q-2 0 -3 1q-3 1 -3 5v20q0 2 3 4q1 1 3 1v2h-18v-2q1 0 3 -1q3 -3 3 -4v-9q-2 0 -4 2l-8 8q-3 1 -1 3q1 1 2 1v2h-14v-2q1 0 3 -1t2.5 -1.5t2.5 -1.5l10 -9l-13 -13q-1 -1 -2 -1.5t-2 -1.5q-2 -1 -3 -2
v-2h17v2q-2 0 -3 1t1 4l8 8q2 2 4 2v-9q0 -2 -3 -5q-2 -1 -3 -1v-2h18v2zM364 48q-2 0 -3 1q-2 2 -2 4v20q0 3 2 5q1 1 3 1v2h-18q-13 0 -13 -9q0 -5 9 -9l-7 -10q-2 -2 -3.5 -2.5t-2.5 -1.5l-2 -1v-2h11l7 12q3 4 7 4v-9q0 -2 -1 -2.5t-2 -1.5t-2 -1v-2h17v2zM425 64
q0 8 -5 13t-15 5t-15 -5t-5 -13t5 -13.5t15 -5.5t15 5.5t5 13.5zM480 81h-15v-2q1 0 2 -1t-1 -4l-6 -9l-6 9q-2 2 0 4q1 1 3 1v2h-15v-2q1 0 3 -1t5 -4l8 -12v-8q0 -2 -3 -5q-1 -1 -2 -1v-2h17v2q-2 0 -3 1q-2 2 -2 5v8l8 12q1 2 2.5 2.5t2.5 1.5t2 1v2zM568 81v-2q1 0 2 -1
t0 -4l-9 -19l-5 10l4 8q1 2 2 2.5t2 1.5l2 2v2h-26l1 -2q1 0 2 -1l2 -2l3 -3l3 -5l-7 -13l-8 18q-2 3 0 5q1 1 2 1v2h-13v-2q1 0 2 -1q3 -3 4 -5l13 -27h1q1 -1 1 0l8 16l9 -16h1l12 27q1 2 2.5 3t2.5 2t2 1v2h-15zM633 48q-2 -1 -3 0q-2 0 -2 5v21q0 3 2 5h3v2h-29l-2 -10
l2 -1q0 2 2 4q2 4 7 4h4q4 0 4 -3v-10h-4q-3 0 -5 2q-1 1 -1 3h-2v-13h2q0 1 1 3q3 3 5 3h4v-11q0 -3 -4 -3h-4q-4 0 -8 4q-2 2 -2 5l-2 -1l2 -11h30v2zM694 48q-2 0 -3 1q-3 1 -3 4v20q0 2 3 4q1 1 3 2v2h-10l-24 -26v18q0 3 3 5q1 1 3 1v2h-15v-2q1 0 3 -1q3 -3 3 -5v-28
h3l25 28v-20q0 -1 -3 -4q-1 -1 -2 -1v-2h14v2zM827 133h-685v-6h685v6zM306 174q-2 0 -4 1t-3.5 2t-2.5 5l-7 35q-1 5 3 7q2 1 4 1l-1 3h-27q-20 0 -20 -15q0 -6 5.5 -10t13.5 -5l-9 -16q-2 -4 -4.5 -5t-4.5 -2q-3 -1 -5 -1l1 -3h19l12 23q1 3 5 3l3 -15q1 -5 -3 -7
q-2 -1 -4 -1l1 -3h29zM413 175q-2 -1 -4 0q-5 2 -6 9l-8 31q-3 9 8 10l-1 3h-30q-9 0 -17 -5.5t-8 -16.5q0 -16 11 -25.5t24 -9.5h32zM522 174q-1 0 -3 1q-5 2 -6 9l-7 32q-1 6 3 8q2 1 5 1l-1 3h-14l-29 -42l-5 30q-1 6 3 8q2 1 4 1l-1 3h-21l1 -3q2 0 4 -1q3 -2 5 -8
l8 -45l3 -1l30 44l6 -30q1 -7 -2 -9q-2 -1 -4 -1l1 -3h21zM620 228h-29l1 -3q2 0 4 -1q5 -2 6 -8l5 -21q2 -10 1 -15t-12 -5q-8 0 -13 6.5t-7 15.5l-4 19q-1 7 3 9q2 1 4 0v3h-24l1 -3q2 0 5 -1q5 -2 6 -8l4 -19q2 -8 8 -17.5t20 -9.5q17 0 19 8t0 16l-5 22q-2 4 -0.5 6
t3.5 3t5 0zM822 174q-2 0 -4 1t-3.5 2t-2.5 5l-7 35q-1 5 3 7q2 1 4 1l-1 3h-45v-10v-7h4q-1 3 1 6q2 7 12 7h4q5 0 6 -6l3 -16h-4q-5 0 -9 4q-2 2 -3 5h-3l5 -23h3q0 2 1 5q2 6 7 6h4l3 -17q1 -5 -3 -7q-2 -1 -4 -1l1 -3h29zM203 217q-3 5 -6.5 9t-11.5 4q-15 0 -14 -23
q-3 10 -8 16.5t-13 6.5q-5 0 -8.5 -3t-3.5 -9l3 -1q0 6 8 6q10 0 15.5 -10.5t8.5 -22.5q2 -7 1 -9.5t-3 -4.5t-4 -1l1 -4h28l-1 4q-2 -1 -4 0q-5 2 -6 9q-5 17 -5 25q0 13 9 13q5 0 7.5 -2.5l4.5 -4.5zM728 192q0 15 -11.5 26.5t-25.5 11.5q-7 0 -15 -5t-8 -17
q0 -16 11.5 -27t25.5 -11q7 0 15 5t8 17zM827 277h-685v-6h685v6zM283 341h-14v65h14v34h-141v-62h41v28h33v-20h-24v-24h24v-21h-33v28h-41v-61h141v33zM458 341h-14v65h14v34h-96q-22 0 -34.5 -11.5t-12.5 -28.5t12.5 -28.5t34.5 -11.5h30v-19h-15v-33h81v33zM648 440h-81
v-34h11l-15 -23l-15 23h10v34h-62v-34h12l37 -46v-19h-14v-33h81v33h-15v20l37 45h14v34zM827 440h-147v-62h36v28h11v-65h-14v-33h81v33h-14v65h11v-28h36v62zM827 481h-685v-6h685v6zM400 521q0 2 -3 5t-10 4q-4 3 -4.5 10.5t-2 16t-6 15t-16.5 6.5q-5 0 -9 -3.5t-4 -6.5
q0 -5 5 -5q4 0 4 6t5 6t6.5 -5t2.5 -12t3.5 -14.5t8.5 -13.5q-11 0 -14.5 -6.5t-8.5 -6.5t-5 4q0 2 1 2.5t1 2.5q0 5 -5 5t-5 -7q0 -5 5 -8.5t10 -3.5q13 0 15 6.5t10 6.5q3 -7 12 -7q4 0 4 3zM202 522q-2 0 -4 1t-3.5 2t-2.5 5l-7 35q-1 5 3 7q2 1 4 1l-1 3h-27
q-20 0 -20 -15q0 -6 5.5 -10t13.5 -5l-9 -16q-2 -4 -4.5 -5t-4.5 -2q-3 -1 -5 -1l1 -3h19l12 23q1 3 5 3l3 -15q1 -5 -3 -7q-2 -1 -4 -1l1 -3h29zM497 522q-2 0 -4 1t-3.5 2t-2.5 5l-7 35q-1 5 3 7q2 1 4 1l-1 3h-45v-10v-7h4q-1 3 1 6q2 7 12 7h4q5 0 6 -6l3 -16h-4
q-5 0 -9 4q-2 2 -3 5h-3l5 -23h3q0 2 1 5q2 6 7 6h4l3 -17q1 -5 -3 -7q-2 -1 -4 -1l1 -3h29zM820 522q-2 0 -4 1t-3.5 2t-2.5 5l-7 35q-1 5 3 7q2 1 4 1l-1 3h-28l1 -3q2 0 4 -1q4 -2 5 -7l3 -15h-24l-3 15q-1 5 3 7q2 1 4 1l-1 3h-29l1 -3q2 0 4 -1q5 -2 6 -7l7 -35
q1 -5 -3 -7q-2 -1 -4 -1l1 -3h29l-1 3q-2 0 -4 1t-3.5 2t-2.5 5l-3 16h24l3 -16q1 -5 -3 -7q-2 -1 -4 -1l1 -3h29zM295 537q0 12 -14 17q5 3 5 9q0 5 -5 10t-16 5q-13 0 -13 -11q0 -6 5 -6q4 0 4 3t-1.5 3.5t-1.5 2.5q0 5 7 5q10 0 10 -12q0 -4 -2 -6q-16 2 -16 -6
q0 -6 8 -6q6 0 11 5q6 -5 6 -15q0 -14 -12 -14t-12 9q0 3 3 3q1 0 2 -1t3 -1q4 0 4 5t-7 5q-9 0 -9 -10q0 -13 16 -13q13 0 19 5.5t6 13.5zM589 537q0 12 -14 17q5 3 5 9q0 5 -5 10t-16 5q-13 0 -13 -11q0 -6 5 -6q4 0 4 3t-1.5 3.5t-1.5 2.5q0 5 7 5q10 0 10 -12
q0 -4 -2 -6q-16 2 -16 -6q0 -6 8 -6q6 0 11 5q6 -5 6 -15q0 -14 -12 -14t-12 9q0 3 3 3q1 0 2 -1t3 -1q4 0 4 5t-7 5q-9 0 -9 -10q0 -13 16 -13q13 0 19 5.5t6 13.5zM696 540q0 15 -11.5 26.5t-25.5 11.5q-7 0 -15 -5t-8 -17q0 -16 11.5 -27t25.5 -11q7 0 15 5t8 17z
M827 624h-685v-6h685v6zM439 664q-2 -1 -3 0q-2 0 -2 5v21q0 3 2 5h3v2h-29l-2 -10l2 -1q0 2 2 4q2 4 7 4h4q4 0 4 -3v-10h-4q-3 0 -5 2q-1 1 -1 3h-2v-13h2q0 1 1 3q3 3 5 3h4v-11q0 -3 -4 -3h-4q-4 0 -8 4q-2 2 -2 5l-2 -1l2 -11h30v2zM504 664q-2 -1 -3 0q-3 0 -3 5v21
q0 3 3 5h3v2h-18v-1v-1h2q3 -3 3 -5v-9h-17v9q0 3 2 5h3v1v1h-17v-2h2q3 -3 3 -5v-21q0 -2 -1 -2.5t-2 -1.5t-2 -1v-2h17v2q-2 0 -3 1q-2 2 -2 4v10h17v-10q0 -5 -3 -5q-1 -1 -2 0v-2h18v2zM559 686v4q0 2 -0.5 4t-0.5 4q-2 -1 -17 -1t-18 1q0 -2 -0.5 -4t-0.5 -4v-4h2
q1 2 3 4q5 5 7 5q3 0 3 -3v-23q0 -5 -3 -5q-1 -1 -2 0v-2h17v2q-2 -1 -3 0q-2 0 -2 5v23q0 3 3 3t8 -5q2 -2 2 -4h2zM284 -101q0 -4 -4 -4t-4 4t4 4t4 -4zM716 -101q0 -4 -4 -4t-4 4t4 4t4 -4zM143 -105h-1l-11 23l-10 -23h-1l-12 34l6 1l7 -23l10 23h1l10 -23l7 22h6z
M199 -105h-1l-11 23l-10 -23h-1l-12 34l6 1l7 -23l10 23h1l10 -23l7 22h6zM255 -105h-1l-11 23l-10 -23h-1l-12 34l6 1l7 -23l10 23h1l10 -23l7 22h6zM323 -76h-12v-28h-6v28h-12v5h30v-5zM351 -90v-14h-6v14l-14 19l6 1l11 -15l9 14h7zM400 -82q0 -12 -17 -12v-10h-6v33
q14 2 18.5 -2t4.5 -9zM447 -87q0 -8 -4.5 -13t-12.5 -5t-12.5 5t-4.5 12q0 8 5 13t13 5q7 0 11.5 -5t4.5 -12zM491 -101q-6 -4 -13 -4q-8 0 -13 4.5t-5 12.5t5.5 13t13.5 5q6 0 12 -4l-2 -5q-4 4 -11 4q-12 0 -12 -13q0 -12 13 -12q2 0 6 2v7h-9v5h15v-15zM527 -104l-8 11
h-5v-11h-6v33q14 2 18.5 -1.5t4.5 -8.5q0 -7 -7 -10l10 -13h-7zM570 -104l-4 8h-14l-3 -8h-6l15 34h2l16 -34h-6zM612 -82q0 -12 -17 -12v-10h-6v33q14 2 18.5 -2t4.5 -9zM650 -104v15h-16v-15h-6v33h6v-13h16v13h6v-33h-6zM689 -90v-14h-6v14l-14 19l6 1l11 -15l9 14h7z
M757 -102q-3 -3 -10 -3q-18 0 -18 17q0 8 5 13t13 5q6 0 11 -3l-2 -5q-3 3 -9 3q-5 0 -8.5 -3.5t-3.5 -8.5q0 -13 13 -13q4 0 10 4zM806 -87q0 -8 -4.5 -13t-12.5 -5t-12.5 5t-4.5 12q0 8 5 13t13 5q7 0 11.5 -5t4.5 -12zM853 -104l-3 20l-10 -21h-2l-10 21l-3 -20h-6l6 34
h1l13 -26l13 26h1l6 -34h-6zM101 0v750h767v-750h-767z" />
    <glyph glyph-name="Eth" unicode="&#xd0;" horiz-adv-x="812" 
d="M387 139q47 0 86 15t66.5 43t43 66t15.5 85v2q0 46 -15.5 85t-43 67t-66.5 43.5t-86 15.5h-121v-141h152v-136h-152v-145h121zM114 284h-75v136h75v280h273q82 0 150.5 -26.5t118 -73.5t76.5 -110.5t27 -137.5v-2q0 -74 -27 -138t-76.5 -111t-118 -74t-150.5 -27h-273
v284z" />
  </font>
</defs></svg>
