<?xml version="1.0" standalone="no"?>
<!DOCTYPE svg PUBLIC "-//W3C//DTD SVG 1.1//EN" "http://www.w3.org/Graphics/SVG/1.1/DTD/svg11.dtd" >
<svg>
<metadata>
Created by FontForge 20090622 at Tue Sep 27 14:50:51 2016
 By deploy user
HTF Gotham  Copr. 2003 The Hoefler Type Foundry, Inc. Info: www.typography.com
</metadata>
<defs>
<font id="GothamBlack" horiz-adv-x="500" >
  <font-face 
    font-family="Gotham Black"
    font-weight="900"
    font-stretch="normal"
    units-per-em="1000"
    panose-1="2 0 6 3 4 0 0 2 0 4"
    ascent="800"
    descent="-200"
    x-height="541"
    cap-height="700"
    bbox="-73 -173 1260 932"
    underline-thickness="20"
    underline-position="-113"
    unicode-range="U+0020-U+FB02"
  />
<missing-glyph 
 />
    <glyph glyph-name="fi" unicode="fi" horiz-adv-x="704" 
d="M459 541h190v-541h-190v541zM85 550q0 94 46 140q25 25 59 36t82 11q44 0 72.5 -4t51.5 -11v-134q-17 5 -34 8t-37 3q-54 0 -54 -51v-13h124v-146h-121v-389h-189v389h-63v149h63v12zM455 730h198v-140h-198v140z" />
    <glyph glyph-name="fl" unicode="fl" horiz-adv-x="704" 
d="M459 730h190v-730h-190v730zM85 389h-63v149h63v12q0 94 46 140q25 25 59 36t82 11q44 0 72.5 -4t51.5 -11v-134q-17 5 -34 8t-37 3q-54 0 -54 -51v-13h124v-146h-121v-389h-189v389z" />
    <glyph glyph-name=".notdef" 
 />
    <glyph glyph-name="NUL" horiz-adv-x="0" 
 />
    <glyph glyph-name="nonmarkingreturn" horiz-adv-x="277" 
 />
    <glyph glyph-name="space" unicode=" " horiz-adv-x="277" 
 />
    <glyph glyph-name="exclam" unicode="!" horiz-adv-x="324" 
d="M63 170h198v-170h-198v170zM54 615v85h216v-85l-58 -387h-100z" />
    <glyph glyph-name="quotedbl" unicode="&#x22;" horiz-adv-x="537" 
d="M56 700h204v-5l-127 -354h-99zM313 700h204v-5l-127 -354h-100z" />
    <glyph glyph-name="numbersign" unicode="#" horiz-adv-x="706" 
d="M409 292l20 120h-133l-21 -120h134zM107 135h-78v161h106l19 112h-92v161h120l22 131h145l-23 -131h127l22 131h145l-22 -131h78v-161h-106l-19 -112h92v-161h-119l-24 -135h-145l24 135h-127l-23 -135h-145z" />
    <glyph glyph-name="dollar" unicode="$" horiz-adv-x="666" 
d="M395 146q67 7 67 51v2q0 20 -14 33t-53 24v-110zM302 555q-37 -3 -52.5 -16.5t-15.5 -33.5v-2q0 -20 13.5 -32.5t54.5 -23.5v108zM295 2q-74 8 -143.5 33t-126.5 66l90 133q48 -34 93.5 -54t92.5 -28v120q-60 14 -105.5 32t-76 43.5t-46 59.5t-15.5 81v2q0 44 16 81
t46.5 64.5t75 44.5t101.5 21v57h104v-60q62 -7 114 -27t97 -51l-82 -134q-31 22 -65.5 37t-68.5 23v-116q60 -14 104.5 -32.5t74.5 -44t45 -60.5t15 -81v-2q0 -46 -17 -82.5t-48 -63.5t-74.5 -43t-96.5 -21v-98h-104v100z" />
    <glyph glyph-name="percent" unicode="%" horiz-adv-x="899" 
d="M684 100q26 0 42 22t16 55v2q0 34 -16.5 56t-42.5 22q-27 0 -42.5 -21.5t-15.5 -55.5v-2q0 -33 17 -55.5t42 -22.5zM216 443q26 0 42 22t16 55v2q0 33 -16.5 55.5t-42.5 22.5t-42 -22t-16 -55v-2q0 -34 17 -56t42 -22zM683 -10q-41 0 -74 15t-56.5 40.5t-36.5 59.5
t-13 72v2q0 39 13 73t36.5 59.5t57 40.5t74.5 15t74 -14.5t56.5 -40t36.5 -59.5t13 -73v-2q0 -38 -13 -72.5t-37 -60t-57.5 -40.5t-73.5 -15zM652 700h135l-540 -700h-135zM215 333q-41 0 -74 14.5t-56.5 40t-36.5 59.5t-13 73v2q0 39 13 73t36.5 59.5t57 40.5t74.5 15
t74 -15t56.5 -40.5t36.5 -59.5t13 -72v-2q0 -39 -13 -73t-37 -59.5t-57.5 -40.5t-73.5 -15z" />
    <glyph glyph-name="ampersand" unicode="&#x26;" horiz-adv-x="698" 
d="M297 131q21 0 42 8t41 22l-115 117q-26 -16 -38 -35.5t-12 -40.5v-2q0 -31 23 -50t59 -19zM317 437q74 33 74 86v2q0 26 -15 41t-39 15q-25 0 -40.5 -17t-15.5 -45v-2q0 -20 9 -38.5t27 -41.5zM479 59q-45 -34 -96 -52.5t-112 -18.5q-54 0 -99.5 13.5t-79 39.5
t-52.5 63.5t-19 85.5v2q0 132 142 196q-24 35 -35 67.5t-11 66.5v2q0 38 15 72.5t43.5 60.5t69.5 41.5t92 15.5q48 0 86.5 -14t65.5 -38t41.5 -57t14.5 -71v-2q0 -65 -37.5 -109t-99.5 -73l78 -76q17 25 33.5 53t32.5 58l128 -64q-22 -40 -44.5 -77t-47.5 -71l94 -93
l-131 -94z" />
    <glyph glyph-name="quotesingle" unicode="'" horiz-adv-x="284" 
d="M56 700h208v-5l-127 -354h-103z" />
    <glyph glyph-name="parenleft" unicode="(" horiz-adv-x="445" 
d="M336 -141q-70 37 -124.5 80t-91.5 95t-56.5 114.5t-19.5 138.5t19.5 138.5t56.5 114.5t91.5 95t124.5 80l79 -118q-48 -33 -83 -67.5t-57.5 -72t-33.5 -79.5t-11 -91t11 -91t33.5 -79.5t57.5 -72t83 -67.5z" />
    <glyph glyph-name="parenright" unicode=")" horiz-adv-x="445" 
d="M30 -23q48 33 83 67.5t57.5 72t33.5 79.5t11 91t-11 91t-33.5 79.5t-57.5 72t-83 67.5l79 118q70 -37 124.5 -80t91.5 -95t56.5 -114.5t19.5 -138.5t-19.5 -138.5t-56.5 -114.5t-91.5 -95t-124.5 -80z" />
    <glyph glyph-name="asterisk" unicode="*" horiz-adv-x="425" 
d="M185 471l-103 -88l-54 92l127 45l-127 45l54 93l103 -88l-25 132h105l-25 -132l103 88l54 -93l-127 -45l127 -45l-54 -92l-103 88l25 -132h-105z" />
    <glyph glyph-name="plus" unicode="+" horiz-adv-x="640" 
d="M233 268h-169v168h169v172h174v-172h169v-168h-169v-172h-174v172z" />
    <glyph glyph-name="comma" unicode="," horiz-adv-x="284" 
d="M20 -92q103 12 100 94h-77v195h198v-159q0 -56 -14.5 -94t-41.5 -61.5t-65 -35t-85 -12.5z" />
    <glyph glyph-name="hyphen" unicode="-" horiz-adv-x="408" 
d="M40 396h328v-167h-328v167z" />
    <glyph glyph-name="hyphen" unicode="&#xad;" horiz-adv-x="408" 
d="M40 396h328v-167h-328v167z" />
    <glyph glyph-name="period" unicode="." horiz-adv-x="284" 
d="M43 195h198v-195h-198v195z" />
    <glyph glyph-name="slash" unicode="/" horiz-adv-x="535" 
d="M405 798h154l-443 -926h-154z" />
    <glyph glyph-name="zero" unicode="0" horiz-adv-x="730" 
d="M366 158q29 0 53 14t40.5 39.5t25.5 60t9 76.5v2q0 42 -9.5 77t-26.5 60.5t-41 40t-53 14.5t-52.5 -14t-40.5 -39t-26 -60t-9 -77v-2q0 -42 9.5 -77.5t26.5 -61t41 -39.5t53 -14zM364 -14q-75 0 -135 28.5t-101.5 78t-64 115.5t-22.5 140v2q0 74 23 140.5t65 116
t102 78.5t135 29t134.5 -28.5t101.5 -78t64.5 -115.5t22.5 -140v-2q0 -74 -22.5 -140.5t-65 -116t-102.5 -78.5t-135 -29z" />
    <glyph glyph-name="one" unicode="1" horiz-adv-x="422" 
d="M163 524l-118 -27l-37 150l205 58h141v-705h-191v524z" />
    <glyph glyph-name="two" unicode="2" horiz-adv-x="624" 
d="M33 146l262 200q49 38 69.5 66t20.5 60q0 33 -21.5 52t-56.5 19t-66.5 -21.5t-72.5 -68.5l-131 109q28 36 57 64t62.5 47t74 29t91.5 10q57 0 104.5 -16.5t81.5 -45.5t53 -70.5t19 -90.5v-2q0 -42 -10.5 -75t-31.5 -61.5t-51 -54.5t-69 -54l-120 -84h289v-158h-554v146z
" />
    <glyph glyph-name="three" unicode="3" horiz-adv-x="621" 
d="M316 -14q-102 0 -174.5 33.5t-123.5 90.5l122 122q38 -38 78.5 -59t88.5 -21q42 0 66 19.5t24 51.5v2q0 34 -29.5 53t-84.5 19h-82l-28 101l161 145h-268v157h506v-139l-167 -143q37 -8 70 -23t58 -39t39 -57t14 -78v-2q0 -53 -20.5 -96t-56.5 -73.5t-85.5 -47
t-107.5 -16.5z" />
    <glyph glyph-name="four" unicode="4" horiz-adv-x="689" 
d="M384 280v201l-167 -201h167zM384 136h-339l-32 137l363 432h196v-424h89v-145h-89v-136h-188v136z" />
    <glyph glyph-name="five" unicode="5" horiz-adv-x="630" 
d="M303 -14q-93 0 -161 30t-123 81l111 130q43 -36 84 -56t86 -20q48 0 75.5 22t27.5 60v2q0 38 -28.5 59.5t-74.5 21.5q-32 0 -59.5 -10t-52.5 -25l-115 64l20 355h468v-160h-315l-6 -106q24 11 50.5 18t61.5 7q47 0 90.5 -13.5t76.5 -40.5t53 -69t20 -99v-2
q0 -59 -21.5 -105t-59.5 -78t-91 -49t-117 -17z" />
    <glyph glyph-name="six" unicode="6" horiz-adv-x="662" 
d="M333 137q46 0 71.5 26t25.5 64v2q0 38 -26.5 64t-72.5 26t-71.5 -25.5t-25.5 -63.5v-2q0 -38 26.5 -64.5t72.5 -26.5zM341 -14q-75 0 -125.5 21t-88.5 59q-39 39 -62.5 101.5t-23.5 160.5v2q0 82 20 152t60.5 121.5t101.5 81t143 29.5q74 0 128 -19.5t105 -57.5l-91 -137
q-32 24 -64.5 38.5t-74.5 14.5q-62 0 -93.5 -41.5t-38.5 -107.5q28 21 63.5 37.5t87.5 16.5q46 0 88 -14.5t73.5 -42t50.5 -68.5t19 -93v-2q0 -59 -22 -105.5t-59.5 -79t-88.5 -50t-108 -17.5z" />
    <glyph glyph-name="seven" unicode="7" horiz-adv-x="614" 
d="M370 537h-324v163h539v-146l-309 -554h-214z" />
    <glyph glyph-name="eight" unicode="8" horiz-adv-x="630" 
d="M315 133q49 0 75 23.5t26 55.5v2q0 34 -28 55t-73 21t-73 -21t-28 -55v-2q0 -32 26 -55.5t75 -23.5zM315 416q39 0 62.5 21.5t23.5 54.5v2q0 29 -23 51.5t-63 22.5t-63 -22t-23 -51v-2q0 -33 23.5 -55t62.5 -22zM315 -12q-63 0 -116 15t-91 42t-59.5 64.5t-21.5 83.5v2
q0 64 31.5 104t88.5 64q-41 23 -68.5 59t-27.5 93v2q0 42 19 77.5t54 62t83.5 41t107.5 14.5t107.5 -14.5t83.5 -41t54 -62t19 -77.5v-2q0 -57 -27.5 -93t-68.5 -59q27 -12 49 -27.5t37.5 -35.5t24.5 -45.5t9 -58.5v-2q0 -47 -21.5 -85t-59.5 -65t-91 -41.5t-116 -14.5z" />
    <glyph glyph-name="nine" unicode="9" horiz-adv-x="662" 
d="M331 375q46 0 72 26.5t26 64.5v2q0 41 -27 68t-73 27t-72 -26.5t-26 -67.5v-2q0 -40 27 -66t73 -26zM297 -14q-78 0 -137 22.5t-107 60.5l91 134q36 -29 72 -42.5t78 -13.5q60 0 92.5 39t39.5 107q-27 -26 -64 -41.5t-84 -15.5q-51 0 -94 15.5t-74.5 44t-49 69.5
t-17.5 92v2q0 58 21 105t58.5 80.5t88.5 51.5t111 18q76 0 125.5 -21t89.5 -61q38 -38 61 -100t23 -159v-2q0 -86 -21 -157t-62 -121.5t-101.5 -78.5t-139.5 -28z" />
    <glyph glyph-name="colon" unicode=":" horiz-adv-x="294" 
d="M48 195h198v-195h-198v195zM48 541h198v-195h-198v195z" />
    <glyph glyph-name="semicolon" unicode=";" horiz-adv-x="294" 
d="M25 -94q103 12 100 94h-77v195h198v-159q0 -56 -14.5 -94t-41.5 -61.5t-65 -35t-85 -12.5zM48 541h198v-195h-198v195z" />
    <glyph glyph-name="semicolon" unicode="&#x37e;" horiz-adv-x="294" 
d="M25 -94q103 12 100 94h-77v195h198v-159q0 -56 -14.5 -94t-41.5 -61.5t-65 -35t-85 -12.5zM48 541h198v-195h-198v195z" />
    <glyph glyph-name="less" unicode="&#x3c;" horiz-adv-x="644" 
d="M65 263v177l497 198v-177l-327 -109l327 -109v-178z" />
    <glyph glyph-name="equal" unicode="=" horiz-adv-x="639" 
d="M74 301h491v-167h-491v167zM74 570h491v-167h-491v167z" />
    <glyph glyph-name="greater" unicode="&#x3e;" horiz-adv-x="644" 
d="M82 242l327 109l-327 109v178l497 -198v-177l-497 -198v177z" />
    <glyph glyph-name="question" unicode="?" horiz-adv-x="540" 
d="M150 170h197v-170h-197v170zM166 395l8 9q87 7 122 27.5t35 52.5v1q0 26 -19.5 40.5t-55.5 14.5q-35 0 -73 -17t-73 -49l-100 132q46 46 109 75.5t150 29.5q55 0 101 -14.5t79 -41.5t51.5 -66t18.5 -88v-2q0 -47 -15 -81.5t-41 -59t-61.5 -40.5t-77.5 -26l-12 -64h-121z
" />
    <glyph glyph-name="at" unicode="@" horiz-adv-x="965" 
d="M455 194q20 0 37.5 9t30.5 24.5t20.5 36.5t7.5 45q0 35 -20.5 55.5t-52.5 20.5q-20 0 -37.5 -9t-30.5 -24t-20.5 -35.5t-7.5 -44.5q0 -38 20.5 -58t52.5 -20zM491 -162q-97 0 -178.5 34t-141 93.5t-93 139t-33.5 170.5q0 90 34 170t93 140t140 94.5t176 34.5
q93 0 172 -32t136.5 -85.5t90 -124t32.5 -147.5q0 -68 -18 -118.5t-47.5 -83.5t-68 -49.5t-79.5 -16.5q-63 0 -99.5 22.5t-54.5 53.5q-29 -33 -64.5 -53.5t-82.5 -20.5q-39 0 -72.5 14t-58 40.5t-38.5 63.5t-14 83q0 54 18 101t48 82.5t70 56t85 20.5q49 0 81.5 -21.5
t52.5 -52.5l12 61l155 -24l-46 -258q-2 -11 -3 -22t-1 -22q0 -25 17 -42t48 -17q49 0 83.5 51.5t34.5 151.5q0 69 -28.5 132.5t-80.5 111.5t-123.5 76.5t-156.5 28.5q-87 0 -161 -31.5t-127 -85.5t-83 -126.5t-30 -155.5q0 -84 29.5 -156.5t83 -126t128 -84t163.5 -30.5
q75 0 131.5 17t113.5 50l20 -32q-58 -35 -122.5 -55t-142.5 -20z" />
    <glyph glyph-name="A" unicode="A" horiz-adv-x="795" 
d="M474 276l-78 199l-79 -199h157zM304 705h187l298 -705h-208l-51 125h-270l-50 -125h-204z" />
    <glyph glyph-name="B" unicode="B" horiz-adv-x="715" 
d="M401 156q45 0 69 16.5t24 47.5v2q0 29 -23 46t-72 17h-148v-129h150zM373 421q45 0 68.5 15t23.5 46v2q0 29 -22 44.5t-66 15.5h-126v-123h122zM62 700h359q66 0 113 -16t78 -47q21 -21 33 -49t12 -64v-2q0 -61 -30.5 -98.5t-77.5 -57.5q64 -21 101.5 -60.5t37.5 -110.5
v-2q0 -91 -69.5 -142t-195.5 -51h-361v700z" />
    <glyph glyph-name="C" unicode="C" horiz-adv-x="730" 
d="M399 -14q-75 0 -141 27t-114.5 75.5t-77 115t-28.5 144.5v2q0 76 28 142.5t77 116t116.5 77.5t147.5 28q54 0 98 -10.5t80.5 -30t66 -46.5t52.5 -59l-146 -113q-30 38 -66 60t-87 22q-37 0 -67.5 -14.5t-52.5 -39.5t-34.5 -59t-12.5 -72v-2q0 -39 12.5 -73.5t34.5 -59.5
t52.5 -39.5t67.5 -14.5q27 0 49.5 6t41 17.5t35 27t32.5 34.5l146 -104q-25 -34 -54.5 -63t-67 -50t-84 -33t-104.5 -12z" />
    <glyph glyph-name="D" unicode="D" horiz-adv-x="765" 
d="M335 172q87 0 140 46t53 131v2q0 84 -53 130.5t-140 46.5h-79v-356h79zM62 700h270q94 0 167.5 -25.5t124 -71.5t77 -109.5t26.5 -139.5v-2q0 -76 -27 -140.5t-78 -111.5t-125.5 -73.5t-168.5 -26.5h-266v700z" />
    <glyph glyph-name="E" unicode="E" horiz-adv-x="667" 
d="M62 700h563v-165h-371v-106h336v-153h-336v-111h376v-165h-568v700z" />
    <glyph glyph-name="F" unicode="F" horiz-adv-x="648" 
d="M62 700h560v-170h-366v-119h331v-161h-331v-250h-194v700z" />
    <glyph glyph-name="G" unicode="G" horiz-adv-x="769" 
d="M419 -14q-82 0 -151.5 26.5t-120.5 74.5t-80 114.5t-29 146.5v2q0 76 28.5 142.5t78.5 116t119.5 77.5t150.5 28q93 0 160.5 -27t123.5 -75l-114 -137q-38 32 -77.5 49t-91.5 17q-38 0 -70.5 -15t-56.5 -41t-38 -61t-14 -75v-2q0 -42 14 -78t39.5 -61.5t60 -40
t76.5 -14.5q68 0 112 29v85h-138v142h322v-315q-56 -46 -132 -77t-172 -31z" />
    <glyph glyph-name="H" unicode="H" horiz-adv-x="761" 
d="M62 700h194v-262h249v262h194v-700h-194v266h-249v-266h-194v700z" />
    <glyph glyph-name="I" unicode="I" horiz-adv-x="327" 
d="M66 700h195v-700h-195v700z" />
    <glyph glyph-name="J" unicode="J" horiz-adv-x="564" 
d="M250 -12q-46 0 -83 9t-67 25t-54 37.5t-42 46.5l125 118q26 -31 51.5 -48t57.5 -17q37 0 58.5 24.5t21.5 73.5v443h193v-444q0 -66 -17 -114t-52 -83t-83.5 -53t-108.5 -18z" />
    <glyph glyph-name="K" unicode="K" horiz-adv-x="730" 
d="M62 700h194v-284l241 284h230l-265 -301l274 -399h-233l-176 260l-71 -79v-181h-194v700z" />
    <glyph glyph-name="L" unicode="L" horiz-adv-x="616" 
d="M62 700h194v-530h339v-170h-533v700z" />
    <glyph glyph-name="M" unicode="M" horiz-adv-x="868" 
d="M62 700h205l167 -271l167 271h205v-700h-193v402l-179 -274h-4l-178 272v-400h-190v700z" />
    <glyph glyph-name="N" unicode="N" horiz-adv-x="785" 
d="M62 700h181l288 -370v370h192v-700h-170l-299 384v-384h-192v700z" />
    <glyph glyph-name="O" unicode="O" horiz-adv-x="831" 
d="M416 161q40 0 73 15t56 40.5t36 59.5t13 72v2q0 38 -13 72t-37 60t-57 41.5t-73 15.5t-72.5 -15t-56 -40.5t-36 -59.5t-12.5 -72v-2q0 -38 13 -72t36.5 -60t56.5 -41.5t73 -15.5zM414 -14q-81 0 -150 28.5t-119 77.5t-78.5 115t-28.5 141v2q0 75 28.5 141.5t79.5 116
t120 78t150 28.5t150 -28.5t119 -77.5t78.5 -115t28.5 -141v-2q0 -75 -28.5 -141.5t-79.5 -116t-120 -78t-150 -28.5z" />
    <glyph glyph-name="P" unicode="P" horiz-adv-x="673" 
d="M348 352q52 0 81.5 24.5t29.5 66.5v2q0 45 -29.5 68.5t-82.5 23.5h-91v-185h92zM62 700h300q66 0 120 -16.5t92 -48t58.5 -77.5t20.5 -104v-2q0 -62 -22.5 -109t-62.5 -79t-95.5 -48t-120.5 -16h-96v-200h-194v700z" />
    <glyph glyph-name="Q" unicode="Q" horiz-adv-x="831" 
d="M416 158q37 0 71 13l-97 83l98 110l95 -86q12 31 12 68v2q0 38 -13 72.5t-37 61t-57.5 42t-73.5 15.5t-72.5 -15.5t-56 -41.5t-36 -60t-12.5 -72v-2q0 -38 13 -72.5t36.5 -60.5t56.5 -41.5t73 -15.5zM627 48q-45 -29 -99 -45.5t-114 -16.5q-81 0 -150 28.5t-119 77.5
t-78.5 115t-28.5 141v2q0 75 28.5 141.5t79.5 116t120 78t150 28.5t150 -28.5t119 -77.5t78.5 -115t28.5 -141v-2q0 -56 -16 -107t-46 -94l72 -61l-98 -109z" />
    <glyph glyph-name="R" unicode="R" horiz-adv-x="719" 
d="M384 364q50 0 77 22.5t27 60.5v2q0 42 -28 62.5t-77 20.5h-127v-168h128zM62 700h331q81 0 137 -20t91 -56q62 -60 62 -163v-2q0 -81 -39 -134t-105 -81l167 -244h-224l-141 212h-2h-83v-212h-194v700z" />
    <glyph glyph-name="S" unicode="S" horiz-adv-x="652" 
d="M337 -12q-94 0 -178.5 29t-149.5 87l108 129q105 -84 227 -84q39 0 59.5 12.5t20.5 35.5v2q0 11 -5 19.5t-18.5 16.5t-36 15.5t-58.5 15.5q-56 13 -104 28.5t-83.5 40t-56 61t-20.5 90.5v2q0 49 18.5 90t54 71t85.5 46.5t113 16.5q90 0 160.5 -23.5t127.5 -69.5l-97 -137
q-48 34 -98.5 51.5t-97.5 17.5q-35 0 -52.5 -13t-17.5 -32v-2q0 -12 5.5 -21t19 -16.5t37 -15t59.5 -15.5q60 -13 108.5 -30.5t82.5 -42.5t52 -60.5t18 -84.5v-2q0 -54 -20.5 -96t-57.5 -71.5t-89 -45t-116 -15.5z" />
    <glyph glyph-name="T" unicode="T" horiz-adv-x="660" 
d="M233 530h-210v170h614v-170h-210v-530h-194v530z" />
    <glyph glyph-name="U" unicode="U" horiz-adv-x="758" 
d="M377 -13q-75 0 -135 19t-102 58.5t-64.5 100t-22.5 142.5v393h197v-389q0 -76 35 -112.5t94 -36.5t94 35t35 109v394h197v-388q0 -85 -23.5 -146.5t-66 -101t-103 -58.5t-135.5 -19z" />
    <glyph glyph-name="V" unicode="V" horiz-adv-x="760" 
d="M6 700h217l159 -443l159 443h213l-284 -705h-180z" />
    <glyph glyph-name="W" unicode="W" horiz-adv-x="1117" 
d="M15 700h205l122 -405l135 407h167l135 -407l122 405h201l-234 -705h-169l-141 403l-140 -403h-169z" />
    <glyph glyph-name="X" unicode="X" horiz-adv-x="732" 
d="M251 356l-230 344h223l124 -197l125 197h218l-230 -342l240 -358h-223l-134 211l-135 -211h-218z" />
    <glyph glyph-name="Y" unicode="Y" horiz-adv-x="723" 
d="M264 262l-266 438h221l144 -255l145 255h217l-266 -435v-265h-195v262z" />
    <glyph glyph-name="Z" unicode="Z" horiz-adv-x="698" 
d="M40 141l351 395h-339v164h607v-141l-351 -395h351v-164h-619v141z" />
    <glyph glyph-name="bracketleft" unicode="[" horiz-adv-x="457" 
d="M66 700h346v-129h-176v-572h176v-129h-346v830z" />
    <glyph glyph-name="backslash" unicode="\" horiz-adv-x="535" 
d="M-24 798h154l443 -926h-154z" />
    <glyph glyph-name="bracketright" unicode="]" horiz-adv-x="457" 
d="M45 -1h176v572h-176v129h346v-830h-346v129z" />
    <glyph glyph-name="asciicircum" unicode="^" 
d="M186 699h128l144 -206h-133l-76 97l-76 -97h-131z" />
    <glyph glyph-name="underscore" unicode="_" horiz-adv-x="600" 
d="M-2 -44h604v-116h-604v116z" />
    <glyph glyph-name="grave" unicode="`" 
d="M88 715l177 57l104 -185h-134z" />
    <glyph glyph-name="a" unicode="a" horiz-adv-x="599" 
d="M274 107q42 0 68 24t26 65v25q-14 6 -33.5 10t-40.5 4q-42 0 -64.5 -18.5t-22.5 -48.5v-2q0 -28 19 -43.5t48 -15.5zM206 -12q-39 0 -72 11t-57.5 32t-38.5 52t-14 72v2q0 42 15.5 74t43 53t66.5 32t87 11q38 0 72.5 -6.5t57.5 -14.5v9q0 42 -26.5 65t-81.5 23
q-43 0 -78 -8t-71 -22l-39 134q46 19 97.5 30.5t121.5 11.5q73 0 123.5 -17t82.5 -49q31 -30 44.5 -72.5t13.5 -99.5v-311h-188v56q-28 -31 -66.5 -49.5t-92.5 -18.5z" />
    <glyph glyph-name="b" unicode="b" horiz-adv-x="676" 
d="M347 147q47 0 79 34t32 89v2q0 54 -32 88t-79 34q-23 0 -43 -9t-35 -25.5t-23.5 -38.5t-8.5 -49v-2q0 -27 8.5 -49.5t23.5 -39t35 -25.5t43 -9zM406 -12q-31 0 -55.5 6.5t-44.5 17t-36 25t-29 29.5v-66h-190v730h190v-261q14 17 30 32t35.5 26.5t44 18.5t54.5 7
q48 0 91.5 -19.5t76.5 -55.5t52.5 -88t19.5 -117v-2q0 -66 -19.5 -118.5t-52 -89t-76 -56t-91.5 -19.5z" />
    <glyph glyph-name="c" unicode="c" horiz-adv-x="569" 
d="M312 -13q-61 0 -113 22.5t-89.5 60.5t-59 89.5t-21.5 108.5v2q0 57 21.5 108.5t59.5 90t91.5 61t117.5 22.5q84 0 140 -33t91 -88l-129 -96q-20 27 -43 42t-58 15q-23 0 -42.5 -9.5t-33.5 -26t-22 -38t-8 -46.5v-2q0 -26 8 -48.5t22 -39t34 -26t44 -9.5q34 0 57.5 15
t46.5 41l127 -92q-38 -56 -95 -90t-146 -34z" />
    <glyph glyph-name="d" unicode="d" horiz-adv-x="676" 
d="M328 147q23 0 43 9t35 25.5t23.5 39t8.5 49.5v2q0 27 -8.5 49t-23.5 38.5t-35 25.5t-43 9t-43 -9t-35 -25t-24 -38.5t-9 -49.5v-2q0 -27 9 -49.5t24 -39t35 -25.5t43 -9zM270 -12q-48 0 -91.5 19.5t-76 55.5t-52 88t-19.5 117v2q0 66 19 118.5t52 89t76 56t91 19.5
q61 0 100 -23.5t66 -54.5v255h190v-730h-190v72q-28 -34 -66 -59t-99 -25z" />
    <glyph glyph-name="e" unicode="e" horiz-adv-x="605" 
d="M397 315q-5 45 -30 71.5t-64 26.5q-38 0 -62 -26.5t-32 -71.5h188zM319 -13q-64 0 -117 20.5t-91.5 57t-60 88.5t-21.5 115v2q0 59 20 110.5t56.5 90t86.5 60.5t110 22q70 0 121.5 -24t85 -64.5t50 -94t16.5 -113.5v-19t-1 -20h-362q11 -45 41.5 -67t75.5 -22
q34 0 62.5 13t57.5 42l105 -87q-39 -50 -96.5 -80t-138.5 -30z" />
    <glyph glyph-name="f" unicode="f" horiz-adv-x="404" 
d="M85 389h-63v149h63v12q0 94 46 140q25 25 59 36t82 11q44 0 72.5 -4t51.5 -11v-134q-17 5 -34 8t-37 3q-54 0 -54 -51v-13h124v-146h-121v-389h-189v389z" />
    <glyph glyph-name="g" unicode="g" horiz-adv-x="676" 
d="M328 194q48 0 79 30t31 75v2q0 45 -31 74.5t-79 29.5q-49 0 -80 -30t-31 -75v-2q0 -45 31 -74.5t80 -29.5zM317 -162q-79 0 -145.5 16t-125.5 46l61 126q44 -24 89 -37.5t100 -13.5q72 0 107 34t35 99v21q-29 -33 -68 -57t-99 -24q-50 0 -93.5 17.5t-76 50t-51.5 79
t-19 104.5v2q0 58 19 105t51 79.5t74.5 50t89.5 17.5q61 0 100 -22t70 -54v64h190v-411q0 -75 -17 -127.5t-53 -88.5q-37 -37 -95 -56.5t-143 -19.5z" />
    <glyph glyph-name="h" unicode="h" horiz-adv-x="634" 
d="M51 730h190v-263q26 34 65 60t97 26q87 0 135.5 -53t48.5 -146v-354h-190v293q0 45 -21 68t-55 23q-35 0 -57.5 -23t-22.5 -68v-293h-190v730z" />
    <glyph glyph-name="i" unicode="i" horiz-adv-x="300" 
d="M55 541h190v-541h-190v541zM51 730h198v-140h-198v140z" />
    <glyph glyph-name="j" unicode="j" horiz-adv-x="302" 
d="M52 -163q-23 0 -42 2.5t-36 4.5v126q6 -1 12.5 -1h12.5q28 0 42 14t14 49v509h190v-517q0 -51 -13 -87t-37.5 -58t-60.5 -32t-82 -10zM51 730h198v-140h-198v140z" />
    <glyph glyph-name="k" unicode="k" horiz-adv-x="603" 
d="M51 730h190v-370l147 181h215l-188 -217l193 -324h-209l-109 184l-49 -57v-127h-190v730z" />
    <glyph glyph-name="l" unicode="l" horiz-adv-x="300" 
d="M55 730h190v-730h-190v730z" />
    <glyph glyph-name="m" unicode="m" horiz-adv-x="971" 
d="M51 541h190v-74q26 34 65 60t96 26q54 0 94 -23t62 -65q35 41 78 64.5t103 23.5q87 0 136 -51.5t49 -146.5v-355h-190v294q0 45 -20 67.5t-54 22.5t-56 -22.5t-22 -67.5v-294h-190v294q0 45 -20 67.5t-54 22.5t-55.5 -22.5t-21.5 -67.5v-294h-190v541z" />
    <glyph glyph-name="n" unicode="n" horiz-adv-x="634" 
d="M51 541h190v-76q13 17 29 33t36 28t44 19.5t53 7.5q87 0 135.5 -53t48.5 -146v-354h-190v293q0 45 -21 68t-55 23q-35 0 -57.5 -23t-22.5 -68v-293h-190v541z" />
    <glyph glyph-name="o" unicode="o" horiz-adv-x="656" 
d="M329 148q26 0 47 9.5t35.5 26t22.5 38.5t8 46v2q0 25 -8.5 47t-24 38.5t-36.5 26.5t-46 10q-26 0 -47 -9.5t-35.5 -26t-22.5 -38.5t-8 -46v-2q0 -25 8.5 -47t24 -38.5t36.5 -26.5t46 -10zM327 -13q-65 0 -119.5 22t-94.5 60.5t-62 89.5t-22 109v2q0 58 22.5 109.5
t62.5 90t95 61t120 22.5t119.5 -22.5t94.5 -60.5t62 -89t22 -109v-2q0 -58 -22.5 -109.5t-62.5 -90t-95 -61t-120 -22.5z" />
    <glyph glyph-name="p" unicode="p" horiz-adv-x="676" 
d="M347 147q47 0 79 34t32 89v2q0 54 -32 88t-79 34q-23 0 -43 -9t-35 -25.5t-23.5 -38.5t-8.5 -49v-2q0 -27 8.5 -49.5t23.5 -39t35 -25.5t43 -9zM51 541h190v-72q14 17 30 32t35.5 26.5t44 18.5t54.5 7q48 0 91.5 -19.5t76.5 -55.5t52.5 -88t19.5 -117v-2
q0 -66 -19.5 -118.5t-52 -89t-76 -56t-91.5 -19.5q-31 0 -55.5 6.5t-44.5 17t-36 25t-29 29.5v-226h-190v701z" />
    <glyph glyph-name="q" unicode="q" horiz-adv-x="676" 
d="M328 147q23 0 43 9t35 25.5t23.5 39t8.5 49.5v2q0 27 -8.5 49t-23.5 38.5t-35 25.5t-43 9t-43 -9t-35 -25t-24 -38.5t-9 -49.5v-2q0 -27 9 -49.5t24 -39t35 -25.5t43 -9zM435 72q-28 -34 -66 -59t-99 -25q-48 0 -91.5 19.5t-76 55.5t-52 88t-19.5 117v2q0 66 19 118.5
t52 89t76 56t91 19.5q61 0 100 -23.5t66 -54.5v66h190v-701h-190v232z" />
    <glyph glyph-name="r" unicode="r" horiz-adv-x="428" 
d="M51 541h190v-109q23 55 63 88t108 30v-200h-16q-75 0 -115 -44t-40 -138v-168h-190v541z" />
    <glyph glyph-name="s" unicode="s" horiz-adv-x="514" 
d="M266 -12q-69 0 -134 19.5t-122 60.5l71 115q47 -31 95.5 -46.5t90.5 -15.5q48 0 48 29v2q0 16 -22 25t-65 21q-40 10 -75 23.5t-61 33t-41 47.5t-15 69v2q0 43 16.5 76.5t45.5 56t68.5 34.5t86.5 12q60 0 118 -16.5t105 -46.5l-65 -120q-42 23 -85 36.5t-75 13.5
q-22 0 -33 -7.5t-11 -18.5v-2q0 -16 22.5 -25.5t65.5 -22.5q40 -11 75 -24.5t61 -33t41 -47.5t15 -67v-2q0 -45 -16 -78.5t-45 -56.5t-70 -34.5t-90 -11.5z" />
    <glyph glyph-name="t" unicode="t" horiz-adv-x="431" 
d="M266 -11q-86 0 -134 41t-48 138v220h-64v153h64v137h190v-137h126v-153h-126v-183q0 -29 13 -41.5t39 -12.5q19 0 37 5t35 13v-149q-26 -14 -59 -22.5t-73 -8.5z" />
    <glyph glyph-name="u" unicode="u" horiz-adv-x="634" 
d="M231 -12q-87 0 -135.5 53t-48.5 146v354h190v-293q0 -45 21 -68t56 -23q34 0 56.5 23t22.5 68v293h190v-541h-190v74q-26 -34 -65 -60t-97 -26z" />
    <glyph glyph-name="v" unicode="v" horiz-adv-x="625" 
d="M10 541h200l104 -316l104 316h197l-216 -545h-173z" />
    <glyph glyph-name="w" unicode="w" horiz-adv-x="861" 
d="M12 541h186l71 -272l83 274h157l84 -276l73 274h183l-167 -545h-164l-88 281l-90 -281h-163z" />
    <glyph glyph-name="x" unicode="x" horiz-adv-x="589" 
d="M190 273l-179 268h205l80 -133l80 133h201l-178 -267l182 -274h-204l-84 139l-85 -139h-200z" />
    <glyph glyph-name="y" unicode="y" horiz-adv-x="626" 
d="M211 -163q-51 0 -93.5 13t-80.5 34l59 133q23 -14 45 -21.5t38 -7.5q14 0 24.5 4.5t19.5 17.5l-212 531h199l108 -326l102 326h195l-198 -528q-18 -47 -37 -80.5t-43 -54.5t-55 -31t-71 -10z" />
    <glyph glyph-name="z" unicode="z" horiz-adv-x="563" 
d="M32 125l250 265h-241v151h493v-125l-251 -265h251v-151h-502v125z" />
    <glyph glyph-name="braceleft" unicode="{" horiz-adv-x="490" 
d="M429 -141q-75 9 -125.5 25t-81.5 39.5t-44 55.5t-13 73q0 6 0.5 15.5t1 20.5l1 21.5t0.5 16.5q0 57 -29.5 77.5t-88.5 20.5h-16v126h16q59 0 88.5 20.5t29.5 77.5q0 6 -0.5 16.5l-1 21.5t-1 20.5t-0.5 15.5q0 41 13 73t44 55.5t81.5 39.5t125.5 25l29 -111
q-40 -9 -64.5 -19t-37.5 -23t-17.5 -30.5t-4.5 -40.5q0 -13 1.5 -33.5t1.5 -36.5q0 -55 -28.5 -87t-83.5 -47q55 -15 83.5 -47t28.5 -87q0 -16 -1.5 -36.5t-1.5 -33.5q0 -23 4.5 -40.5t17.5 -30.5t37.5 -23t64.5 -19z" />
    <glyph glyph-name="bar" unicode="|" horiz-adv-x="355" 
d="M105 798h145v-926h-145v926z" />
    <glyph glyph-name="braceright" unicode="}" horiz-adv-x="490" 
d="M32 -30q40 9 64.5 19t37.5 23t17.5 30.5t4.5 40.5q0 13 -1.5 33.5t-1.5 36.5q0 55 28.5 87t83.5 47q-55 15 -83.5 47t-28.5 87q0 16 1.5 36.5t1.5 33.5q0 23 -4.5 40.5t-17.5 30.5t-37.5 23t-64.5 19l29 111q75 -9 125.5 -25t81.5 -39.5t44 -55.5t13 -73q0 -6 -0.5 -15.5
t-1 -20.5l-1 -21.5t-0.5 -16.5q0 -57 29.5 -77.5t88.5 -20.5h16v-126h-16q-59 0 -88.5 -20.5t-29.5 -77.5q0 -6 0.5 -16.5l1 -21.5t1 -20.5t0.5 -15.5q0 -41 -13 -73t-44 -55.5t-81.5 -39.5t-125.5 -25z" />
    <glyph glyph-name="asciitilde" unicode="~" horiz-adv-x="505" 
d="M41 245q17 75 45 112t79 37q22 0 45 -6t43.5 -13.5l38 -13.5t29.5 -6q21 0 31 11.5t20 34.5l92 -25q-17 -75 -45 -112t-79 -37q-23 0 -45.5 6t-43 13.5l-38.5 13.5t-30 6q-21 0 -30.5 -11.5t-19.5 -34.5z" />
    <glyph glyph-name="Adieresis" unicode="&#xc4;" horiz-adv-x="795" 
d="M206 890h165v-143h-165v143zM425 890h165v-143h-165v143zM474 276l-78 199l-79 -199h157zM304 705h187l298 -705h-208l-51 125h-270l-50 -125h-204z" />
    <glyph glyph-name="Aring" unicode="&#xc5;" horiz-adv-x="795" 
d="M474 276l-78 199l-79 -199h157zM398 698q27 0 46.5 19.5t19.5 46.5v2q0 26 -19.5 45.5t-46.5 19.5q-28 0 -47.5 -19.5t-19.5 -45.5v-2q0 -27 19.5 -46.5t47.5 -19.5zM296 687q-14 16 -22.5 35.5t-8.5 41.5v2q0 26 11 49t29 40t42 27t51 10q26 0 50 -10t42 -27t29 -40
t11 -49v-2q0 -22 -8.5 -41.5t-22.5 -35.5l290 -687h-208l-51 125h-270l-50 -125h-204z" />
    <glyph glyph-name="Ccedilla" unicode="&#xc7;" horiz-adv-x="730" 
d="M230 -109l78 106q-59 15 -108.5 46.5t-85.5 77.5t-56 103.5t-20 123.5v2q0 76 28 142.5t77 116t116.5 77.5t147.5 28q54 0 98 -10.5t80.5 -30t66 -46.5t52.5 -59l-146 -113q-30 38 -66 60t-87 22q-37 0 -67.5 -14.5t-52.5 -39.5t-34.5 -59t-12.5 -72v-2q0 -39 12.5 -73.5
t34.5 -59.5t52.5 -39.5t67.5 -14.5q27 0 49.5 6t41 17.5t35 27t32.5 34.5l146 -104q-23 -31 -49.5 -58t-59.5 -47t-73.5 -33.5t-89.5 -17.5l-56 -161z" />
    <glyph glyph-name="Eacute" unicode="&#xc9;" horiz-adv-x="667" 
d="M356 932l177 -57l-147 -128h-134zM62 700h563v-165h-371v-106h336v-153h-336v-111h376v-165h-568v700z" />
    <glyph glyph-name="Ntilde" unicode="&#xd1;" horiz-adv-x="785" 
d="M182 765q16 75 44 112t80 37q22 0 45 -6t43.5 -13.5l38 -13.5t29.5 -6q21 0 31 11.5t20 34.5l91 -25q-16 -75 -44 -112t-80 -37q-23 0 -45.5 6t-43 13.5l-38 13.5t-29.5 6q-21 0 -31 -11.5t-20 -34.5zM62 700h181l288 -370v370h192v-700h-170l-299 384v-384h-192v700z
" />
    <glyph glyph-name="Odieresis" unicode="&#xd6;" horiz-adv-x="831" 
d="M224 890h165v-143h-165v143zM443 890h165v-143h-165v143zM416 161q40 0 73 15t56 40.5t36 59.5t13 72v2q0 38 -13 72t-37 60t-57 41.5t-73 15.5t-72.5 -15t-56 -40.5t-36 -59.5t-12.5 -72v-2q0 -38 13 -72t36.5 -60t56.5 -41.5t73 -15.5zM414 -14q-81 0 -150 28.5
t-119 77.5t-78.5 115t-28.5 141v2q0 75 28.5 141.5t79.5 116t120 78t150 28.5t150 -28.5t119 -77.5t78.5 -115t28.5 -141v-2q0 -75 -28.5 -141.5t-79.5 -116t-120 -78t-150 -28.5z" />
    <glyph glyph-name="Udieresis" unicode="&#xdc;" horiz-adv-x="758" 
d="M187 890h165v-143h-165v143zM406 890h165v-143h-165v143zM377 -13q-75 0 -135 19t-102 58.5t-64.5 100t-22.5 142.5v393h197v-389q0 -76 35 -112.5t94 -36.5t94 35t35 109v394h197v-388q0 -85 -23.5 -146.5t-66 -101t-103 -58.5t-135.5 -19z" />
    <glyph glyph-name="aacute" unicode="&#xe1;" horiz-adv-x="599" 
d="M320 774l177 -57l-147 -128h-134zM274 107q42 0 68 24t26 65v25q-14 6 -33.5 10t-40.5 4q-42 0 -64.5 -18.5t-22.5 -48.5v-2q0 -28 19 -43.5t48 -15.5zM206 -12q-39 0 -72 11t-57.5 32t-38.5 52t-14 72v2q0 42 15.5 74t43 53t66.5 32t87 11q38 0 72.5 -6.5t57.5 -14.5v9
q0 42 -26.5 65t-81.5 23q-43 0 -78 -8t-71 -22l-39 134q46 19 97.5 30.5t121.5 11.5q73 0 123.5 -17t82.5 -49q31 -30 44.5 -72.5t13.5 -99.5v-311h-188v56q-28 -31 -66.5 -49.5t-92.5 -18.5z" />
    <glyph glyph-name="agrave" unicode="&#xe0;" horiz-adv-x="599" 
d="M105 717l177 57l104 -185h-134zM274 107q42 0 68 24t26 65v25q-14 6 -33.5 10t-40.5 4q-42 0 -64.5 -18.5t-22.5 -48.5v-2q0 -28 19 -43.5t48 -15.5zM206 -12q-39 0 -72 11t-57.5 32t-38.5 52t-14 72v2q0 42 15.5 74t43 53t66.5 32t87 11q38 0 72.5 -6.5t57.5 -14.5v9
q0 42 -26.5 65t-81.5 23q-43 0 -78 -8t-71 -22l-39 134q46 19 97.5 30.5t121.5 11.5q73 0 123.5 -17t82.5 -49q31 -30 44.5 -72.5t13.5 -99.5v-311h-188v56q-28 -31 -66.5 -49.5t-92.5 -18.5z" />
    <glyph glyph-name="acircumflex" unicode="&#xe2;" horiz-adv-x="599" 
d="M220 752h154l128 -165h-122l-84 61l-84 -61h-120zM274 107q42 0 68 24t26 65v25q-14 6 -33.5 10t-40.5 4q-42 0 -64.5 -18.5t-22.5 -48.5v-2q0 -28 19 -43.5t48 -15.5zM206 -12q-39 0 -72 11t-57.5 32t-38.5 52t-14 72v2q0 42 15.5 74t43 53t66.5 32t87 11
q38 0 72.5 -6.5t57.5 -14.5v9q0 42 -26.5 65t-81.5 23q-43 0 -78 -8t-71 -22l-39 134q46 19 97.5 30.5t121.5 11.5q73 0 123.5 -17t82.5 -49q31 -30 44.5 -72.5t13.5 -99.5v-311h-188v56q-28 -31 -66.5 -49.5t-92.5 -18.5z" />
    <glyph glyph-name="adieresis" unicode="&#xe4;" horiz-adv-x="599" 
d="M105 732h165v-143h-165v143zM324 732h165v-143h-165v143zM274 107q42 0 68 24t26 65v25q-14 6 -33.5 10t-40.5 4q-42 0 -64.5 -18.5t-22.5 -48.5v-2q0 -28 19 -43.5t48 -15.5zM206 -12q-39 0 -72 11t-57.5 32t-38.5 52t-14 72v2q0 42 15.5 74t43 53t66.5 32t87 11
q38 0 72.5 -6.5t57.5 -14.5v9q0 42 -26.5 65t-81.5 23q-43 0 -78 -8t-71 -22l-39 134q46 19 97.5 30.5t121.5 11.5q73 0 123.5 -17t82.5 -49q31 -30 44.5 -72.5t13.5 -99.5v-311h-188v56q-28 -31 -66.5 -49.5t-92.5 -18.5z" />
    <glyph glyph-name="atilde" unicode="&#xe3;" horiz-adv-x="599" 
d="M88 605q16 75 44 112t80 37q22 0 45 -6t43.5 -13.5l38 -13.5t29.5 -6q21 0 31 11.5t20 34.5l91 -25q-16 -75 -44 -112t-80 -37q-23 0 -45.5 6t-43 13.5l-38 13.5t-29.5 6q-21 0 -31 -11.5t-20 -34.5zM274 107q42 0 68 24t26 65v25q-14 6 -33.5 10t-40.5 4
q-42 0 -64.5 -18.5t-22.5 -48.5v-2q0 -28 19 -43.5t48 -15.5zM206 -12q-39 0 -72 11t-57.5 32t-38.5 52t-14 72v2q0 42 15.5 74t43 53t66.5 32t87 11q38 0 72.5 -6.5t57.5 -14.5v9q0 42 -26.5 65t-81.5 23q-43 0 -78 -8t-71 -22l-39 134q46 19 97.5 30.5t121.5 11.5
q73 0 123.5 -17t82.5 -49q31 -30 44.5 -72.5t13.5 -99.5v-311h-188v56q-28 -31 -66.5 -49.5t-92.5 -18.5z" />
    <glyph glyph-name="aring" unicode="&#xe5;" horiz-adv-x="599" 
d="M297 652q28 0 47.5 19.5t19.5 46.5v2q0 26 -19.5 45.5t-47.5 19.5t-47.5 -19.5t-19.5 -45.5v-2q0 -27 19.5 -46.5t47.5 -19.5zM297 591q-26 0 -50 10.5t-42.5 27.5t-29.5 40t-11 49v2q0 26 11 49t29.5 40t42.5 27t50 10t50 -10t42.5 -27t29.5 -40t11 -49v-2
q0 -26 -11 -49t-29.5 -40t-42.5 -27.5t-50 -10.5zM274 107q42 0 68 24t26 65v25q-14 6 -33.5 10t-40.5 4q-42 0 -64.5 -18.5t-22.5 -48.5v-2q0 -28 19 -43.5t48 -15.5zM206 -12q-39 0 -72 11t-57.5 32t-38.5 52t-14 72v2q0 42 15.5 74t43 53t66.5 32t87 11q38 0 72.5 -6.5
t57.5 -14.5v9q0 42 -26.5 65t-81.5 23q-43 0 -78 -8t-71 -22l-39 134q46 19 97.5 30.5t121.5 11.5q73 0 123.5 -17t82.5 -49q31 -30 44.5 -72.5t13.5 -99.5v-311h-188v56q-28 -31 -66.5 -49.5t-92.5 -18.5z" />
    <glyph glyph-name="ccedilla" unicode="&#xe7;" horiz-adv-x="569" 
d="M141 -109l81 110q-43 14 -78.5 40t-61 61t-39.5 77t-14 89v2q0 57 21.5 108.5t59.5 90t91.5 61t117.5 22.5q84 0 140 -33t91 -88l-129 -96q-20 27 -43 42t-58 15q-23 0 -42.5 -9.5t-33.5 -26t-22 -38t-8 -46.5v-2q0 -26 8 -48.5t22 -39t34 -26t44 -9.5q34 0 57.5 15
t46.5 41l127 -92q-34 -50 -82 -82.5t-122 -39.5l-57 -162z" />
    <glyph glyph-name="eacute" unicode="&#xe9;" horiz-adv-x="605" 
d="M332 774l177 -57l-147 -128h-134zM397 315q-5 45 -30 71.5t-64 26.5q-38 0 -62 -26.5t-32 -71.5h188zM319 -13q-64 0 -117 20.5t-91.5 57t-60 88.5t-21.5 115v2q0 59 20 110.5t56.5 90t86.5 60.5t110 22q70 0 121.5 -24t85 -64.5t50 -94t16.5 -113.5v-19t-1 -20h-362
q11 -45 41.5 -67t75.5 -22q34 0 62.5 13t57.5 42l105 -87q-39 -50 -96.5 -80t-138.5 -30z" />
    <glyph glyph-name="egrave" unicode="&#xe8;" horiz-adv-x="605" 
d="M97 717l177 57l104 -185h-134zM397 315q-5 45 -30 71.5t-64 26.5q-38 0 -62 -26.5t-32 -71.5h188zM319 -13q-64 0 -117 20.5t-91.5 57t-60 88.5t-21.5 115v2q0 59 20 110.5t56.5 90t86.5 60.5t110 22q70 0 121.5 -24t85 -64.5t50 -94t16.5 -113.5v-19t-1 -20h-362
q11 -45 41.5 -67t75.5 -22q34 0 62.5 13t57.5 42l105 -87q-39 -50 -96.5 -80t-138.5 -30z" />
    <glyph glyph-name="ecircumflex" unicode="&#xea;" horiz-adv-x="605" 
d="M226 750h154l128 -165h-122l-84 61l-84 -61h-120zM397 315q-5 45 -30 71.5t-64 26.5q-38 0 -62 -26.5t-32 -71.5h188zM319 -13q-64 0 -117 20.5t-91.5 57t-60 88.5t-21.5 115v2q0 59 20 110.5t56.5 90t86.5 60.5t110 22q70 0 121.5 -24t85 -64.5t50 -94t16.5 -113.5v-19
t-1 -20h-362q11 -45 41.5 -67t75.5 -22q34 0 62.5 13t57.5 42l105 -87q-39 -50 -96.5 -80t-138.5 -30z" />
    <glyph glyph-name="edieresis" unicode="&#xeb;" horiz-adv-x="605" 
d="M111 730h165v-143h-165v143zM330 730h165v-143h-165v143zM397 315q-5 45 -30 71.5t-64 26.5q-38 0 -62 -26.5t-32 -71.5h188zM319 -13q-64 0 -117 20.5t-91.5 57t-60 88.5t-21.5 115v2q0 59 20 110.5t56.5 90t86.5 60.5t110 22q70 0 121.5 -24t85 -64.5t50 -94
t16.5 -113.5v-19t-1 -20h-362q11 -45 41.5 -67t75.5 -22q34 0 62.5 13t57.5 42l105 -87q-39 -50 -96.5 -80t-138.5 -30z" />
    <glyph glyph-name="iacute" unicode="&#xed;" horiz-adv-x="300" 
d="M177 772l177 -57l-147 -128h-134zM55 541h190v-541h-190v541z" />
    <glyph glyph-name="igrave" unicode="&#xec;" horiz-adv-x="300" 
d="M-52 715l178 57l104 -185h-134zM55 541h190v-541h-190v541z" />
    <glyph glyph-name="icircumflex" unicode="&#xee;" horiz-adv-x="300" 
d="M74 752h154l128 -165h-122l-84 61l-84 -61h-120zM55 541h190v-541h-190v541z" />
    <glyph glyph-name="idieresis" unicode="&#xef;" horiz-adv-x="300" 
d="M-41 730h165v-143h-165v143zM178 730h165v-143h-165v143zM55 541h190v-541h-190v541z" />
    <glyph glyph-name="ntilde" unicode="&#xf1;" horiz-adv-x="634" 
d="M111 605q16 75 44 112t80 37q22 0 45 -6t43.5 -13.5l38 -13.5t29.5 -6q21 0 31 11.5t20 34.5l91 -25q-16 -75 -44 -112t-80 -37q-23 0 -45.5 6t-43 13.5l-38 13.5t-29.5 6q-21 0 -31 -11.5t-20 -34.5zM51 541h190v-76q13 17 29 33t36 28t44 19.5t53 7.5q87 0 135.5 -53
t48.5 -146v-354h-190v293q0 45 -21 68t-55 23q-35 0 -57.5 -23t-22.5 -68v-293h-190v541z" />
    <glyph glyph-name="oacute" unicode="&#xf3;" horiz-adv-x="656" 
d="M359 774l177 -57l-147 -128h-134zM329 148q26 0 47 9.5t35.5 26t22.5 38.5t8 46v2q0 25 -8.5 47t-24 38.5t-36.5 26.5t-46 10q-26 0 -47 -9.5t-35.5 -26t-22.5 -38.5t-8 -46v-2q0 -25 8.5 -47t24 -38.5t36.5 -26.5t46 -10zM327 -13q-65 0 -119.5 22t-94.5 60.5t-62 89.5
t-22 109v2q0 58 22.5 109.5t62.5 90t95 61t120 22.5t119.5 -22.5t94.5 -60.5t62 -89t22 -109v-2q0 -58 -22.5 -109.5t-62.5 -90t-95 -61t-120 -22.5z" />
    <glyph glyph-name="ograve" unicode="&#xf2;" horiz-adv-x="656" 
d="M120 717l177 57l104 -185h-134zM329 148q26 0 47 9.5t35.5 26t22.5 38.5t8 46v2q0 25 -8.5 47t-24 38.5t-36.5 26.5t-46 10q-26 0 -47 -9.5t-35.5 -26t-22.5 -38.5t-8 -46v-2q0 -25 8.5 -47t24 -38.5t36.5 -26.5t46 -10zM327 -13q-65 0 -119.5 22t-94.5 60.5t-62 89.5
t-22 109v2q0 58 22.5 109.5t62.5 90t95 61t120 22.5t119.5 -22.5t94.5 -60.5t62 -89t22 -109v-2q0 -58 -22.5 -109.5t-62.5 -90t-95 -61t-120 -22.5z" />
    <glyph glyph-name="ocircumflex" unicode="&#xf4;" horiz-adv-x="656" 
d="M251 750h154l128 -165h-122l-84 61l-84 -61h-120zM329 148q26 0 47 9.5t35.5 26t22.5 38.5t8 46v2q0 25 -8.5 47t-24 38.5t-36.5 26.5t-46 10q-26 0 -47 -9.5t-35.5 -26t-22.5 -38.5t-8 -46v-2q0 -25 8.5 -47t24 -38.5t36.5 -26.5t46 -10zM327 -13q-65 0 -119.5 22
t-94.5 60.5t-62 89.5t-22 109v2q0 58 22.5 109.5t62.5 90t95 61t120 22.5t119.5 -22.5t94.5 -60.5t62 -89t22 -109v-2q0 -58 -22.5 -109.5t-62.5 -90t-95 -61t-120 -22.5z" />
    <glyph glyph-name="odieresis" unicode="&#xf6;" horiz-adv-x="656" 
d="M136 730h165v-143h-165v143zM355 730h165v-143h-165v143zM329 148q26 0 47 9.5t35.5 26t22.5 38.5t8 46v2q0 25 -8.5 47t-24 38.5t-36.5 26.5t-46 10q-26 0 -47 -9.5t-35.5 -26t-22.5 -38.5t-8 -46v-2q0 -25 8.5 -47t24 -38.5t36.5 -26.5t46 -10zM327 -13
q-65 0 -119.5 22t-94.5 60.5t-62 89.5t-22 109v2q0 58 22.5 109.5t62.5 90t95 61t120 22.5t119.5 -22.5t94.5 -60.5t62 -89t22 -109v-2q0 -58 -22.5 -109.5t-62.5 -90t-95 -61t-120 -22.5z" />
    <glyph glyph-name="otilde" unicode="&#xf5;" horiz-adv-x="656" 
d="M117 605q16 75 44 112t80 37q22 0 45 -6t43.5 -13.5l38 -13.5t29.5 -6q21 0 31 11.5t20 34.5l91 -25q-16 -75 -44 -112t-80 -37q-23 0 -45.5 6t-43 13.5l-38 13.5t-29.5 6q-21 0 -31 -11.5t-20 -34.5zM329 148q26 0 47 9.5t35.5 26t22.5 38.5t8 46v2q0 25 -8.5 47
t-24 38.5t-36.5 26.5t-46 10q-26 0 -47 -9.5t-35.5 -26t-22.5 -38.5t-8 -46v-2q0 -25 8.5 -47t24 -38.5t36.5 -26.5t46 -10zM327 -13q-65 0 -119.5 22t-94.5 60.5t-62 89.5t-22 109v2q0 58 22.5 109.5t62.5 90t95 61t120 22.5t119.5 -22.5t94.5 -60.5t62 -89t22 -109v-2
q0 -58 -22.5 -109.5t-62.5 -90t-95 -61t-120 -22.5z" />
    <glyph glyph-name="uacute" unicode="&#xfa;" horiz-adv-x="634" 
d="M332 772l177 -57l-147 -128h-134zM231 -12q-87 0 -135.5 53t-48.5 146v354h190v-293q0 -45 21 -68t56 -23q34 0 56.5 23t22.5 68v293h190v-541h-190v74q-26 -34 -65 -60t-97 -26z" />
    <glyph glyph-name="ugrave" unicode="&#xf9;" horiz-adv-x="634" 
d="M125 715l177 57l104 -185h-134zM231 -12q-87 0 -135.5 53t-48.5 146v354h190v-293q0 -45 21 -68t56 -23q34 0 56.5 23t22.5 68v293h190v-541h-190v74q-26 -34 -65 -60t-97 -26z" />
    <glyph glyph-name="ucircumflex" unicode="&#xfb;" horiz-adv-x="634" 
d="M240 752h154l128 -165h-122l-84 61l-84 -61h-120zM231 -12q-87 0 -135.5 53t-48.5 146v354h190v-293q0 -45 21 -68t56 -23q34 0 56.5 23t22.5 68v293h190v-541h-190v74q-26 -34 -65 -60t-97 -26z" />
    <glyph glyph-name="udieresis" unicode="&#xfc;" horiz-adv-x="634" 
d="M125 730h165v-143h-165v143zM344 730h165v-143h-165v143zM231 -12q-87 0 -135.5 53t-48.5 146v354h190v-293q0 -45 21 -68t56 -23q34 0 56.5 23t22.5 68v293h190v-541h-190v74q-26 -34 -65 -60t-97 -26z" />
    <glyph glyph-name="dagger" unicode="&#x2020;" horiz-adv-x="410" 
d="M165 493l-125 -13v104l124 -13l-15 129h112l-15 -129l124 13v-104l-125 13l10 -270h-100z" />
    <glyph glyph-name="degree" unicode="&#xb0;" horiz-adv-x="472" 
d="M236 444q36 0 60 24.5t24 59.5v2q0 18 -6.5 33.5t-18 27t-27 18t-32.5 6.5q-35 0 -59.5 -25t-24.5 -60v-2q0 -35 24 -59.5t60 -24.5zM236 352q-37 0 -70 14t-58 38t-39.5 56t-14.5 68v2q0 36 15 68.5t40 57t58 38.5t69 14t69 -14t58 -38.5t40 -57t15 -68.5v-2
q0 -36 -14.5 -68t-39.5 -56t-58 -38t-70 -14z" />
    <glyph glyph-name="cent" unicode="&#xa2;" horiz-adv-x="575" 
d="M298 491q-46 -7 -73.5 -45.5t-27.5 -88.5v-2q0 -40 14.5 -70t41.5 -47zM219 92q-42 14 -76 39.5t-59 59.5t-38.5 75.5t-13.5 86.5v2q0 58 20.5 109t58 88.5t89.5 59.5t116 24l12 70h115l-15 -87q43 -16 74.5 -41.5t51.5 -55.5l-116 -89q-10 12 -21.5 22t-25.5 18
l-46 -252q28 4 51.5 19t43.5 38l115 -84q-36 -53 -91 -85t-133 -34l-14 -81h-115z" />
    <glyph glyph-name="sterling" unicode="&#xa3;" horiz-adv-x="639" 
d="M44 115l75 29v119h-75v136h75v51q0 60 17.5 109.5t51.5 83.5q69 69 191 69q82 0 138 -28.5t95 -72.5l-118 -129q-23 27 -47 42t-55 15q-38 0 -59 -23.5t-21 -65.5v-51h216v-136h-216v-110h293v-153h-561v115z" />
    <glyph glyph-name="section" unicode="&#xa7;" horiz-adv-x="626" 
d="M387 297q23 0 37 9t14 26v2q0 17 -26.5 28.5t-74.5 22.5q-71 18 -99 18q-23 0 -37 -9t-14 -26v-2q0 -17 27 -28.5t74 -22.5q72 -18 99 -18zM309 -13q-75 0 -137 22.5t-100 56.5l77 109q38 -27 80.5 -43t83.5 -16q29 0 41.5 8t12.5 22v2q0 14 -23 24t-74 21
q-47 10 -88.5 22.5t-72.5 29t-49 39.5t-18 55v2q0 45 25.5 70.5t65.5 39.5q-47 36 -47 99v2q0 33 14.5 62.5t43.5 51.5t72 34.5t101 12.5q75 0 137 -22.5t100 -56.5l-77 -109q-38 27 -80.5 43t-83.5 16q-29 0 -41.5 -8t-12.5 -22v-2q0 -14 21.5 -24t75.5 -21
q47 -11 88.5 -23t72.5 -28.5t49 -39.5t18 -55v-2q0 -44 -25.5 -70t-65.5 -40q22 -17 34.5 -42t12.5 -56v-2q0 -33 -14.5 -62.5t-43 -51.5t-72 -35t-101.5 -13z" />
    <glyph glyph-name="bullet" unicode="&#x2022;" 
d="M250 183q-35 0 -65.5 13t-53.5 36t-36.5 53.5t-13.5 65.5v2q0 35 13.5 65.5t36.5 53.5t53.5 36t65.5 13t65.5 -13t53.5 -36t36.5 -53.5t13.5 -65.5v-2q0 -35 -13.5 -65.5t-36.5 -53.5t-53.5 -36t-65.5 -13z" />
    <glyph glyph-name="paragraph" unicode="&#xb6;" horiz-adv-x="596" 
d="M339 220h-21q-65 0 -119 15.5t-93.5 45.5t-61.5 74t-22 102v2q0 58 21 103t59 75.5t92.5 46.5t120.5 16h219v-700h-195v220z" />
    <glyph glyph-name="germandbls" unicode="&#xdf;" horiz-adv-x="635" 
d="M307 133q54 3 83.5 24t29.5 57v2q0 36 -31 56t-82 25v101q33 17 57.5 43t24.5 64v2q0 34 -19.5 53.5t-49.5 19.5q-35 0 -57.5 -24.5t-22.5 -72.5v-483h-189v479q0 58 17.5 106t52 82.5t85.5 53t117 18.5q58 0 104.5 -16.5t79 -44.5t49.5 -66.5t17 -81.5v-2
q0 -62 -30.5 -102t-73.5 -62q25 -8 50 -22t44.5 -35t32 -49t12.5 -64v-2q0 -50 -22.5 -88t-62.5 -63t-95 -36.5t-121 -7.5v136z" />
    <glyph glyph-name="registered" unicode="&#xae;" horiz-adv-x="830" 
d="M433 368q28 0 43 12t15 33v2q0 23 -16 34.5t-43 11.5h-69v-93h70zM256 553h179q46 0 78 -11.5t52 -31.5q33 -33 33 -88v-2q0 -45 -21.5 -74t-57.5 -44l92 -134h-123l-78 117h-2h-45v-117h-107v385zM414 26q69 0 127.5 25.5t101.5 70t67.5 103.5t24.5 125v2
q0 66 -24.5 125t-67 102.5t-101 69t-126.5 25.5q-69 0 -127.5 -25.5t-101.5 -70t-67.5 -103.5t-24.5 -125v-2q0 -66 24 -125t67 -102.5t101.5 -69t126.5 -25.5zM414 -14q-76 0 -142 29t-114.5 78.5t-76.5 115t-28 139.5v2q0 74 28 140t77 116t115.5 79t142.5 29t142 -29
t114.5 -78.5t76.5 -115t28 -139.5v-2q0 -74 -28 -140t-77 -116t-115.5 -79t-142.5 -29z" />
    <glyph glyph-name="copyright" unicode="&#xa9;" horiz-adv-x="830" 
d="M420 156q-44 0 -81 15t-63.5 41.5t-41.5 62.5t-15 78v2q0 41 15 77t42 63t64.5 43t82.5 16q60 0 98 -22t64 -57l-81 -64q-17 20 -36.5 32.5t-47.5 12.5q-40 0 -65 -29t-25 -71v-2q0 -42 25 -71t65 -29q30 0 49.5 13t36.5 33l82 -58q-28 -38 -67 -62t-101 -24zM414 26
q69 0 127.5 25.5t101.5 70t67.5 103.5t24.5 125v2q0 66 -24.5 125t-67 102.5t-101 69t-126.5 25.5q-69 0 -127.5 -25.5t-101.5 -70t-67.5 -103.5t-24.5 -125v-2q0 -66 24 -125t67 -102.5t101.5 -69t126.5 -25.5zM414 -14q-76 0 -142 29t-114.5 78.5t-76.5 115t-28 139.5v2
q0 74 28 140t77 116t115.5 79t142.5 29t142 -29t114.5 -78.5t76.5 -115t28 -139.5v-2q0 -74 -28 -140t-77 -116t-115.5 -79t-142.5 -29z" />
    <glyph glyph-name="trademark" unicode="&#x2122;" horiz-adv-x="695" 
d="M108 625h-92v75h270v-75h-92v-233h-86v233zM334 700h91l73 -119l74 119h90v-308h-85v180l-78 -122h-3l-78 122v-180h-84v308z" />
    <glyph glyph-name="acute" unicode="&#xb4;" 
d="M235 772l177 -57l-147 -128h-134z" />
    <glyph glyph-name="dieresis" unicode="&#xa8;" 
d="M58 730h165v-143h-165v143zM277 730h165v-143h-165v143z" />
    <glyph glyph-name="AE" unicode="&#xc6;" horiz-adv-x="1063" 
d="M482 276v265h-12l-136 -265h148zM365 700h655v-165h-349v-106h314v-153h-314v-111h354v-165h-543v125h-226l-65 -125h-196z" />
    <glyph glyph-name="Oslash" unicode="&#xd8;" horiz-adv-x="831" 
d="M416 157q41 0 74.5 15.5t57 41.5t36.5 60.5t13 73.5v2q0 53 -24 97l-238 -271q38 -19 81 -19zM495 524q-36 19 -81 19q-41 0 -74 -15.5t-56.5 -41.5t-36.5 -60.5t-13 -73.5v-2q0 -54 24 -97zM414 -14q-55 0 -105 13.5t-93 39.5l-39 -44h-147l100 112q-44 48 -68 109.5
t-24 131.5v2q0 75 28.5 141.5t79.5 116t120 78t150 28.5q56 0 106 -13.5t92 -39.5l39 44h147l-99 -113q43 -48 67 -109t24 -131v-2q0 -75 -28.5 -141.5t-79.5 -116t-120 -78t-150 -28.5z" />
    <glyph glyph-name="plusminus" unicode="&#xb1;" horiz-adv-x="618" 
d="M317 -14q-98 0 -172.5 33t-128.5 91l121 119q38 -38 78.5 -58.5t91.5 -20.5q45 0 69.5 19t24.5 48v2q0 29 -27 45t-85 16h-73v146h71q53 0 76 17.5t23 43.5v2q0 27 -23.5 44t-64.5 17q-42 0 -76 -21.5t-64 -54.5l-120 112q23 27 50.5 50.5t61 41t74 27t91.5 9.5
q58 0 106 -14t81.5 -39t52 -59.5t18.5 -74.5v-2q0 -63 -29 -101.5t-76 -60.5q53 -18 88 -55.5t35 -101.5v-2q0 -47 -18.5 -87t-54 -69t-86.5 -45.5t-115 -16.5z" />
    <glyph glyph-name="yen" unicode="&#xa5;" horiz-adv-x="708" 
d="M258 93h-184v120h184v50h-184v120h138l-208 317h220l132 -230l132 230h216l-209 -317h139v-120h-184v-50h184v-120h-184v-93h-192v93z" />
    <glyph glyph-name="mu" unicode="&#xb5;" horiz-adv-x="831" 
d="M416 161q40 0 73 15t56 40.5t36 59.5t13 72v2q0 38 -13 72t-37 60t-57 41.5t-73 15.5t-72.5 -15t-56 -40.5t-36 -59.5t-12.5 -72v-2q0 -38 13 -72t36.5 -60t56.5 -41.5t73 -15.5zM518 0q-25 -6 -51 -9.5t-53 -3.5q-81 0 -150 28t-119 77t-78.5 115t-28.5 141v2
q0 75 28.5 141.5t79.5 116t120 78t150 28.5t150 -28.5t119 -77.5t78.5 -115t28.5 -141v-2q0 -72 -26 -136t-74 -112l175 -180v-10h-259z" />
    <glyph glyph-name="mu" unicode="&#x3bc;" horiz-adv-x="831" 
d="M416 161q40 0 73 15t56 40.5t36 59.5t13 72v2q0 38 -13 72t-37 60t-57 41.5t-73 15.5t-72.5 -15t-56 -40.5t-36 -59.5t-12.5 -72v-2q0 -38 13 -72t36.5 -60t56.5 -41.5t73 -15.5zM518 0q-25 -6 -51 -9.5t-53 -3.5q-81 0 -150 28t-119 77t-78.5 115t-28.5 141v2
q0 75 28.5 141.5t79.5 116t120 78t150 28.5t150 -28.5t119 -77.5t78.5 -115t28.5 -141v-2q0 -72 -26 -136t-74 -112l175 -180v-10h-259z" />
    <glyph glyph-name="pi" unicode="&#x3c0;" horiz-adv-x="830" 
d="M430 358q29 0 45 13t16 36v2q0 25 -16 37.5t-45 12.5h-49v-101h49zM273 549h165q74 0 117.5 -35.5t43.5 -100.5v-2q0 -33 -12.5 -59t-34.5 -43t-52.5 -26t-65.5 -9h-53v-110h-108v385zM414 26q69 0 127.5 25.5t101.5 70t67.5 103.5t24.5 125v2q0 66 -24.5 125t-67 102.5
t-101 69t-126.5 25.5q-69 0 -127.5 -25.5t-101.5 -70t-67.5 -103.5t-24.5 -125v-2q0 -66 24 -125t67 -102.5t101.5 -69t126.5 -25.5zM414 -14q-76 0 -142 29t-114.5 78.5t-76.5 115t-28 139.5v2q0 74 28 140t77 116t115.5 79t142.5 29t142 -29t114.5 -78.5t76.5 -115
t28 -139.5v-2q0 -74 -28 -140t-77 -116t-115.5 -79t-142.5 -29z" />
    <glyph glyph-name="ordfeminine" unicode="&#xaa;" horiz-adv-x="390" 
d="M181 463q23 0 37.5 13t14.5 36v13q-8 3 -18.5 5.5t-22.5 2.5q-22 0 -34.5 -10t-12.5 -26v-2q0 -15 10 -23.5t26 -8.5zM41 347h299v-77h-299v77zM144 397q-43 0 -71.5 23t-28.5 68v2q0 47 32 70t85 23q20 0 39 -3t32 -8v4q0 49 -60 49q-23 0 -42.5 -4.5t-39.5 -12.5
l-21 74q26 11 54 17t66 6q41 0 68.5 -9.5t45.5 -27.5q17 -17 24.5 -40t7.5 -55v-170h-104v32q-15 -17 -36.5 -27.5t-50.5 -10.5z" />
    <glyph glyph-name="ordmasculine" unicode="&#xba;" horiz-adv-x="390" 
d="M196 484q27 0 43 18.5t16 45.5v2q0 28 -17 47.5t-44 19.5t-43 -19t-16 -46v-2q0 -28 17 -47t44 -19zM51 347h288v-77h-288v77zM194 395q-35 0 -64.5 12t-51 32.5t-33.5 48.5t-12 60v2q0 32 12 60.5t34 49.5t52 33t65 12t64.5 -12t51 -32.5t33.5 -48.5t12 -60v-2
q0 -32 -12.5 -60.5t-34 -49.5t-51.5 -33t-65 -12z" />
    <glyph glyph-name="Omega" unicode="&#x3a9;" horiz-adv-x="808" 
d="M85 389h-63v149h63v12q0 94 46 140q25 25 59 36t82 11q44 0 72.5 -4t51.5 -11v-134q-17 5 -34 8t-37 3q-54 0 -54 -51v-13h124v-146h-121v-389h-189v389zM489 389h-64v146h64v15q0 94 46 140q24 25 58.5 36t82.5 11q44 0 72.5 -4t51.5 -11v-134q-17 5 -34 8t-37 3
q-54 0 -54 -51v-13h124v-146h-121v-389h-189v389z" />
    <glyph glyph-name="Omega" unicode="&#x2126;" horiz-adv-x="808" 
d="M85 389h-63v149h63v12q0 94 46 140q25 25 59 36t82 11q44 0 72.5 -4t51.5 -11v-134q-17 5 -34 8t-37 3q-54 0 -54 -51v-13h124v-146h-121v-389h-189v389zM489 389h-64v146h64v15q0 94 46 140q24 25 58.5 36t82.5 11q44 0 72.5 -4t51.5 -11v-134q-17 5 -34 8t-37 3
q-54 0 -54 -51v-13h124v-146h-121v-389h-189v389z" />
    <glyph glyph-name="ae" unicode="&#xe6;" horiz-adv-x="940" 
d="M277 109q54 0 109 44q-7 16 -12 33t-7 35q-14 6 -33.5 10t-39.5 4q-42 0 -64.5 -18.5t-22.5 -48.5v-2q0 -27 20 -42t50 -15zM732 315q-5 45 -30.5 71.5t-64.5 26.5q-38 0 -62 -26.5t-31 -71.5h188zM225 -12q-42 0 -78.5 10.5t-63.5 31.5t-43 52t-16 73v2q0 42 15.5 74
t43 53t66.5 32t87 11q38 0 72.5 -6.5t57.5 -14.5v9q0 42 -26.5 65t-81.5 23q-43 0 -78 -8t-71 -22l-39 134q46 19 97.5 30.5t121.5 11.5q66 0 110 -16t73 -45q32 31 74.5 48t94.5 17q68 0 118.5 -24t84 -64.5t50 -94t16.5 -113.5q0 -9 -0.5 -19t-1.5 -20h-362
q12 -45 42.5 -67t74.5 -22q35 0 63 13t57 42l105 -87q-39 -50 -96 -80t-138 -30q-66 0 -120 21.5t-92 59.5q-48 -36 -102.5 -58t-114.5 -22z" />
    <glyph glyph-name="oslash" unicode="&#xf8;" horiz-adv-x="656" 
d="M329 140q27 0 49.5 10.5t38.5 28t24.5 40.5t8.5 49v2q0 14 -2.5 27t-7.5 25l-155 -174q21 -8 44 -8zM372 391q-20 9 -45 9q-27 0 -49.5 -10.5t-38.5 -28t-24.5 -40.5t-8.5 -49v-2q0 -14 2.5 -27t7.5 -25zM327 -13q-43 0 -81 10t-71 28l-28 -30h-133l83 92q-32 37 -50 83
t-18 98v2q0 58 22.5 109.5t62.5 90t95 61t120 22.5q42 0 80.5 -10t70.5 -28l29 31h133l-34 -37q-14 -15 -27.5 -31t-21.5 -24q32 -37 50 -83t18 -99v-2q0 -58 -22.5 -109.5t-62.5 -90t-95 -61t-120 -22.5z" />
    <glyph glyph-name="questiondown" unicode="&#xbf;" horiz-adv-x="540" 
d="M271 -11q-55 0 -100.5 14.5t-78.5 41.5t-51.5 66t-18.5 88v2q0 47 14.5 81.5t41 59t62 40.5t77.5 26l11 64h121l26 -167l-9 -9q-87 -8 -122 -28t-35 -52v-1q0 -26 20 -40.5t56 -14.5q35 0 72.5 17t72.5 49l101 -132q-46 -46 -109.5 -75.5t-150.5 -29.5zM193 700h198v-170
h-198v170z" />
    <glyph glyph-name="exclamdown" unicode="&#xa1;" horiz-adv-x="324" 
d="M54 85l58 387h100l58 -387v-85h-216v85zM63 700h198v-170h-198v170z" />
    <glyph glyph-name="radical" unicode="&#x221a;" horiz-adv-x="1108" 
d="M863 730h190v-730h-190v730zM85 389h-63v149h63v12q0 94 46 140q25 25 59 36t82 11q44 0 72.5 -4t51.5 -11v-134q-17 5 -34 8t-37 3q-54 0 -54 -51v-13h124v-146h-121v-389h-189v389zM489 389h-64v146h64v15q0 94 46 140q24 25 58.5 36t82.5 11q44 0 72.5 -4t51.5 -11
v-134q-17 5 -34 8t-37 3q-54 0 -54 -51v-13h124v-146h-121v-389h-189v389z" />
    <glyph glyph-name="florin" unicode="&#x192;" horiz-adv-x="553" 
d="M111 -10q-23 0 -43 2.5t-43 7.5v138q28 -6 47 -6q32 0 47 14.5t22 50.5l23 132h-61v144h86l13 65q16 88 68.5 130t149.5 42q32 0 60.5 -3.5t49.5 -9.5v-140q-36 9 -67 9q-35 0 -53.5 -14.5t-24.5 -48.5l-5 -30h114v-144h-140l-28 -157q-9 -50 -25 -84.5t-42 -56.5
t-62.5 -31.5t-85.5 -9.5z" />
    <glyph glyph-name="approxequal" unicode="&#x2248;" horiz-adv-x="1108" 
d="M863 541h190v-541h-190v541zM85 389h-63v149h63v12q0 94 46 140q25 25 59 36t82 11q44 0 72.5 -4t51.5 -11v-134q-17 5 -34 8t-37 3q-54 0 -54 -51v-13h124v-146h-121v-389h-189v389zM489 389h-64v146h64v15q0 94 46 140q24 25 58.5 36t82.5 11q44 0 72.5 -4t51.5 -11
v-134q-17 5 -34 8t-37 3q-54 0 -54 -51v-13h124v-146h-121v-389h-189v389zM859 730h198v-140h-198v140z" />
    <glyph glyph-name="guillemotleft" unicode="&#xab;" horiz-adv-x="631" 
d="M30 244v48l160 214l137 -67l-130 -171l130 -170l-137 -68zM289 264v8l176 234l136 -67l-130 -171l130 -170l-136 -68z" />
    <glyph glyph-name="guillemotright" unicode="&#xbb;" horiz-adv-x="631" 
d="M30 97l130 171l-130 170l137 68l175 -234v-8l-175 -234zM305 97l130 171l-130 170l136 68l160 -214v-48l-160 -214z" />
    <glyph glyph-name="ellipsis" unicode="&#x2026;" horiz-adv-x="840" 
d="M43 192h194v-192h-194v192zM323 192h194v-192h-194v192zM603 192h194v-192h-194v192z" />
    <glyph glyph-name="nonbreakingspace" unicode="&#xa0;" horiz-adv-x="277" 
 />
    <glyph glyph-name="Agrave" unicode="&#xc0;" horiz-adv-x="795" 
d="M196 875l177 57l104 -185h-134zM474 276l-78 199l-79 -199h157zM304 705h187l298 -705h-208l-51 125h-270l-50 -125h-204z" />
    <glyph glyph-name="Atilde" unicode="&#xc3;" horiz-adv-x="795" 
d="M187 765q16 75 44 112t80 37q22 0 45 -6t43.5 -13.5l38 -13.5t29.5 -6q21 0 31 11.5t20 34.5l91 -25q-16 -75 -44 -112t-80 -37q-23 0 -45.5 6t-43 13.5l-38 13.5t-29.5 6q-21 0 -31 -11.5t-20 -34.5zM474 276l-78 199l-79 -199h157zM304 705h187l298 -705h-208l-51 125
h-270l-50 -125h-204z" />
    <glyph glyph-name="Otilde" unicode="&#xd5;" horiz-adv-x="831" 
d="M205 765q16 75 44 112t80 37q22 0 45 -6t43.5 -13.5l38 -13.5t29.5 -6q21 0 31 11.5t20 34.5l91 -25q-16 -75 -44 -112t-80 -37q-23 0 -45.5 6t-43 13.5l-38 13.5t-29.5 6q-21 0 -31 -11.5t-20 -34.5zM416 161q40 0 73 15t56 40.5t36 59.5t13 72v2q0 38 -13 72t-37 60
t-57 41.5t-73 15.5t-72.5 -15t-56 -40.5t-36 -59.5t-12.5 -72v-2q0 -38 13 -72t36.5 -60t56.5 -41.5t73 -15.5zM414 -14q-81 0 -150 28.5t-119 77.5t-78.5 115t-28.5 141v2q0 75 28.5 141.5t79.5 116t120 78t150 28.5t150 -28.5t119 -77.5t78.5 -115t28.5 -141v-2
q0 -75 -28.5 -141.5t-79.5 -116t-120 -78t-150 -28.5z" />
    <glyph glyph-name="OE" unicode="&#x152;" horiz-adv-x="1078" 
d="M494 169v362h-66q-43 0 -78 -12t-60 -35.5t-39 -57t-14 -75.5v-2q0 -84 52.5 -132t138.5 -48h66zM433 0q-93 0 -166.5 25.5t-124.5 71.5t-77.5 109.5t-26.5 139.5v2q0 76 27 140.5t78 111.5t125 73.5t169 26.5h598v-165h-349v-106h314v-153h-314v-111h354v-165h-607z" />
    <glyph glyph-name="oe" unicode="&#x153;" horiz-adv-x="1013" 
d="M326 148q25 0 46 9.5t35 26t22 38.5t8 46v2q0 25 -8.5 47t-23.5 38.5t-35.5 26.5t-45.5 10t-45.5 -10t-34.5 -26.5t-22 -38t-8 -45.5v-2q0 -25 8.5 -47t23.5 -38.5t35.5 -26.5t44.5 -10zM805 315q-5 45 -30 71.5t-64 26.5q-38 0 -62 -26.5t-32 -71.5h188zM320 -13
q-62 0 -115 22t-92 60.5t-61.5 89.5t-22.5 109v2q0 58 22.5 109.5t62.5 90t93.5 61t116.5 22.5q62 0 113 -21.5t87 -59.5q35 38 83 59.5t106 21.5q69 0 119.5 -24t84 -64.5t50 -94t16.5 -113.5q0 -9 -0.5 -19t-1.5 -20h-361q11 -45 41.5 -67t74.5 -22q35 0 63.5 13t57.5 42
l105 -87q-40 -50 -96.5 -80t-135.5 -30q-66 0 -118.5 21.5t-89.5 59.5q-37 -38 -88.5 -59.5t-113.5 -21.5z" />
    <glyph glyph-name="endash" unicode="&#x2013;" horiz-adv-x="528" 
d="M40 394h448v-163h-448v163z" />
    <glyph glyph-name="emdash" unicode="&#x2014;" horiz-adv-x="898" 
d="M40 394h818v-163h-818v163z" />
    <glyph glyph-name="quotedblleft" unicode="&#x201c;" horiz-adv-x="547" 
d="M40 502q0 54 14 92t40.5 62t64 35.5t84.5 13.5l15 -73q-102 -12 -97 -94h74v-195h-195v159zM305 502q0 54 14.5 92t40.5 62t63.5 35.5t84.5 13.5l16 -73q-101 -12 -98 -94h74v-195h-195v159z" />
    <glyph glyph-name="quotedblright" unicode="&#x201d;" horiz-adv-x="547" 
d="M23 411q101 11 98 94h-74v195h195v-159q0 -55 -14 -93t-40.5 -62t-64 -35.5t-84.5 -12.5zM289 411q101 11 98 94h-75v195h195v-159q0 -55 -14 -93t-40.5 -62t-64 -35.5t-83.5 -12.5z" />
    <glyph glyph-name="quoteleft" unicode="&#x2018;" horiz-adv-x="284" 
d="M40 502q0 55 14.5 93.5t41 62t64.5 34.5t85 13l16 -73q-51 -6 -76.5 -29.5t-23.5 -64.5h76v-195h-197v159z" />
    <glyph glyph-name="quoteright" unicode="&#x2019;" horiz-adv-x="284" 
d="M23 411q51 5 76.5 29t23.5 65h-76v195h197v-159q0 -56 -14.5 -94t-41 -61.5t-64.5 -35t-85 -12.5z" />
    <glyph glyph-name="ydieresis" unicode="&#xff;" horiz-adv-x="626" 
d="M120 730h165v-143h-165v143zM339 730h165v-143h-165v143zM211 -163q-51 0 -93.5 13t-80.5 34l59 133q23 -14 45 -21.5t38 -7.5q14 0 24.5 4.5t19.5 17.5l-212 531h199l108 -326l102 326h195l-198 -528q-18 -47 -37 -80.5t-43 -54.5t-55 -31t-71 -10z" />
    <glyph glyph-name="Ydieresis" unicode="&#x178;" horiz-adv-x="723" 
d="M170 890h165v-143h-165v143zM389 890h165v-143h-165v143zM264 262l-266 438h221l144 -255l145 255h217l-266 -435v-265h-195v262z" />
    <glyph glyph-name="fraction" unicode="&#x2044;" horiz-adv-x="501" 
d="M393 758h158l-465 -856h-159z" />
    <glyph glyph-name="fraction" unicode="&#x2215;" horiz-adv-x="501" 
d="M393 758h158l-465 -856h-159z" />
    <glyph glyph-name="currency" unicode="&#xa4;" horiz-adv-x="682" 
d="M421 -14q-61 0 -111 17.5t-88.5 48.5t-64.5 74.5t-39 96.5h-81v104h68q-1 5 -1 10.5v10.5v2v13.5t1 13.5h-68v104h84q13 49 39 91.5t64.5 74t88 49.5t109.5 18q82 0 141 -31t99 -82l-123 -115q-22 28 -49.5 45t-66.5 17q-38 0 -65.5 -18.5t-43.5 -51.5h156v-101h-178
q-1 -6 -1 -12.5v-12.5v-2v-11.5t1 -11.5h178v-101h-158q17 -35 45 -54.5t70 -19.5q38 0 65.5 18t52.5 48l120 -113q-43 -56 -102 -87.5t-142 -31.5z" />
    <glyph glyph-name="guilsinglleft" unicode="&#x2039;" horiz-adv-x="357" 
d="M30 244v48l160 214l137 -67l-130 -171l130 -170l-137 -68z" />
    <glyph glyph-name="guilsinglright" unicode="&#x203a;" horiz-adv-x="357" 
d="M30 97l130 171l-130 170l137 68l160 -214v-48l-160 -214z" />
    <glyph glyph-name="daggerdbl" unicode="&#x2021;" horiz-adv-x="430" 
d="M174 129l-124 -13v104l126 -13l-13 143l13 143l-126 -13v104l124 -13l-15 129h112l-15 -129l124 13v-104l-126 13l13 -143l-13 -143l126 13v-104l-124 13l15 -129h-112z" />
    <glyph glyph-name="periodcentered" unicode="&#xb7;" horiz-adv-x="284" 
d="M43 410h198v-195h-198v195z" />
    <glyph glyph-name="periodcentered" unicode="&#x2219;" horiz-adv-x="284" 
d="M43 410h198v-195h-198v195z" />
    <glyph glyph-name="quotesinglbase" unicode="&#x201a;" horiz-adv-x="284" 
d="M20 -94q103 12 100 94h-77v195h198v-159q0 -56 -14.5 -94t-41.5 -61.5t-65 -35t-85 -12.5z" />
    <glyph glyph-name="quotedblbase" unicode="&#x201e;" horiz-adv-x="546" 
d="M20 -94q102 12 97 94h-74v195h195v-159q0 -55 -14 -93t-40.5 -62t-64 -35.5t-84.5 -12.5zM286 -94q102 12 97 94h-74v195h195v-159q0 -55 -14 -93t-40.5 -62t-64 -35.5t-84.5 -12.5z" />
    <glyph glyph-name="perthousand" unicode="&#x2030;" horiz-adv-x="1295" 
d="M684 100q26 0 42 22t16 55v2q0 34 -16.5 56t-42.5 22q-27 0 -42.5 -21.5t-15.5 -55.5v-2q0 -33 17 -55.5t42 -22.5zM1080 100q26 0 42 22t16 55v2q0 34 -16.5 56t-42.5 22q-27 0 -42.5 -21.5t-15.5 -55.5v-2q0 -33 17 -55.5t42 -22.5zM216 443q26 0 42 22t16 55v2
q0 33 -16.5 55.5t-42.5 22.5t-42 -22t-16 -55v-2q0 -34 17 -56t42 -22zM683 -10q-41 0 -74 15t-56.5 40.5t-36.5 59.5t-13 72v2q0 39 13 73t36.5 59.5t57 40.5t74.5 15t74 -14.5t56.5 -40t36.5 -59.5t13 -73v-2q0 -38 -13 -72.5t-37 -60t-57.5 -40.5t-73.5 -15zM1079 -10
q-41 0 -74 15t-56.5 40.5t-36.5 59.5t-13 72v2q0 39 13 73t36.5 59.5t57 40.5t74.5 15t74 -14.5t56.5 -40t36.5 -59.5t13 -73v-2q0 -38 -13 -72.5t-37 -60t-57.5 -40.5t-73.5 -15zM652 700h135l-540 -700h-135zM215 333q-41 0 -74 14.5t-56.5 40t-36.5 59.5t-13 73v2
q0 39 13 73t36.5 59.5t57 40.5t74.5 15t74 -15t56.5 -40.5t36.5 -59.5t13 -72v-2q0 -39 -13 -73t-37 -59.5t-57.5 -40.5t-73.5 -15z" />
    <glyph glyph-name="Acircumflex" unicode="&#xc2;" horiz-adv-x="795" 
d="M321 912h154l128 -165h-122l-84 61l-84 -61h-120zM474 276l-78 199l-79 -199h157zM304 705h187l298 -705h-208l-51 125h-270l-50 -125h-204z" />
    <glyph glyph-name="Ecircumflex" unicode="&#xca;" horiz-adv-x="667" 
d="M268 912h154l128 -165h-122l-84 61l-84 -61h-120zM62 700h563v-165h-371v-106h336v-153h-336v-111h376v-165h-568v700z" />
    <glyph glyph-name="Aacute" unicode="&#xc1;" horiz-adv-x="795" 
d="M423 932l177 -57l-147 -128h-134zM474 276l-78 199l-79 -199h157zM304 705h187l298 -705h-208l-51 125h-270l-50 -125h-204z" />
    <glyph glyph-name="Edieresis" unicode="&#xcb;" horiz-adv-x="667" 
d="M153 890h165v-143h-165v143zM372 890h165v-143h-165v143zM62 700h563v-165h-371v-106h336v-153h-336v-111h376v-165h-568v700z" />
    <glyph glyph-name="Egrave" unicode="&#xc8;" horiz-adv-x="667" 
d="M166 875l177 57l104 -185h-134zM62 700h563v-165h-371v-106h336v-153h-336v-111h376v-165h-568v700z" />
    <glyph glyph-name="Iacute" unicode="&#xcd;" horiz-adv-x="327" 
d="M191 932l177 -57l-147 -128h-134zM66 700h195v-700h-195v700z" />
    <glyph glyph-name="Icircumflex" unicode="&#xce;" horiz-adv-x="327" 
d="M87 912h154l128 -165h-122l-84 61l-84 -61h-121zM66 700h195v-700h-195v700z" />
    <glyph glyph-name="Idieresis" unicode="&#xcf;" horiz-adv-x="327" 
d="M-29 890h166v-143h-166v143zM191 890h165v-143h-165v143zM66 700h195v-700h-195v700z" />
    <glyph glyph-name="Igrave" unicode="&#xcc;" horiz-adv-x="327" 
d="M-41 875l177 57l104 -185h-134zM66 700h195v-700h-195v700z" />
    <glyph glyph-name="Oacute" unicode="&#xd3;" horiz-adv-x="831" 
d="M451 932l177 -57l-147 -128h-134zM416 161q40 0 73 15t56 40.5t36 59.5t13 72v2q0 38 -13 72t-37 60t-57 41.5t-73 15.5t-72.5 -15t-56 -40.5t-36 -59.5t-12.5 -72v-2q0 -38 13 -72t36.5 -60t56.5 -41.5t73 -15.5zM414 -14q-81 0 -150 28.5t-119 77.5t-78.5 115
t-28.5 141v2q0 75 28.5 141.5t79.5 116t120 78t150 28.5t150 -28.5t119 -77.5t78.5 -115t28.5 -141v-2q0 -75 -28.5 -141.5t-79.5 -116t-120 -78t-150 -28.5z" />
    <glyph glyph-name="Ocircumflex" unicode="&#xd4;" horiz-adv-x="831" 
d="M339 910h154l128 -165h-122l-84 61l-84 -61h-120zM416 161q40 0 73 15t56 40.5t36 59.5t13 72v2q0 38 -13 72t-37 60t-57 41.5t-73 15.5t-72.5 -15t-56 -40.5t-36 -59.5t-12.5 -72v-2q0 -38 13 -72t36.5 -60t56.5 -41.5t73 -15.5zM414 -14q-81 0 -150 28.5t-119 77.5
t-78.5 115t-28.5 141v2q0 75 28.5 141.5t79.5 116t120 78t150 28.5t150 -28.5t119 -77.5t78.5 -115t28.5 -141v-2q0 -75 -28.5 -141.5t-79.5 -116t-120 -78t-150 -28.5z" />
    <glyph glyph-name="Ograve" unicode="&#xd2;" horiz-adv-x="831" 
d="M204 875l177 57l104 -185h-134zM416 161q40 0 73 15t56 40.5t36 59.5t13 72v2q0 38 -13 72t-37 60t-57 41.5t-73 15.5t-72.5 -15t-56 -40.5t-36 -59.5t-12.5 -72v-2q0 -38 13 -72t36.5 -60t56.5 -41.5t73 -15.5zM414 -14q-81 0 -150 28.5t-119 77.5t-78.5 115t-28.5 141
v2q0 75 28.5 141.5t79.5 116t120 78t150 28.5t150 -28.5t119 -77.5t78.5 -115t28.5 -141v-2q0 -75 -28.5 -141.5t-79.5 -116t-120 -78t-150 -28.5z" />
    <glyph glyph-name="Uacute" unicode="&#xda;" horiz-adv-x="758" 
d="M405 927l177 -57l-147 -128h-134zM377 -13q-75 0 -135 19t-102 58.5t-64.5 100t-22.5 142.5v393h197v-389q0 -76 35 -112.5t94 -36.5t94 35t35 109v394h197v-388q0 -85 -23.5 -146.5t-66 -101t-103 -58.5t-135.5 -19z" />
    <glyph glyph-name="Ucircumflex" unicode="&#xdb;" horiz-adv-x="758" 
d="M302 912h154l128 -165h-122l-84 61l-84 -61h-120zM377 -13q-75 0 -135 19t-102 58.5t-64.5 100t-22.5 142.5v393h197v-389q0 -76 35 -112.5t94 -36.5t94 35t35 109v394h197v-388q0 -85 -23.5 -146.5t-66 -101t-103 -58.5t-135.5 -19z" />
    <glyph glyph-name="Ugrave" unicode="&#xd9;" horiz-adv-x="758" 
d="M176 870l177 57l104 -185h-134zM377 -13q-75 0 -135 19t-102 58.5t-64.5 100t-22.5 142.5v393h197v-389q0 -76 35 -112.5t94 -36.5t94 35t35 109v394h197v-388q0 -85 -23.5 -146.5t-66 -101t-103 -58.5t-135.5 -19z" />
    <glyph glyph-name="dotlessi" unicode="&#x131;" horiz-adv-x="300" 
d="M55 541h190v-541h-190v541z" />
    <glyph glyph-name="circumflex" unicode="&#x2c6;" 
d="M173 752h154l128 -165h-122l-84 61l-84 -61h-120z" />
    <glyph glyph-name="tilde" unicode="&#x2dc;" 
d="M39 605q16 75 44 112t80 37q22 0 45 -6t43.5 -13.5l38 -13.5t29.5 -6q21 0 31 11.5t20 34.5l91 -25q-16 -75 -44 -112t-80 -37q-23 0 -45.5 6t-43 13.5l-38 13.5t-29.5 6q-21 0 -31 -11.5t-20 -34.5z" />
    <glyph glyph-name="macron" unicode="&#xaf;" 
d="M62 708h376v-116h-376v116z" />
    <glyph glyph-name="macron" unicode="&#x2c9;" 
d="M62 708h376v-116h-376v116z" />
    <glyph glyph-name="breve" unicode="&#x2d8;" 
d="M250 585q-84 0 -137 43.5t-60 123.5h111q9 -26 28.5 -42t57.5 -16t57.5 16t28.5 42h111q-7 -80 -60 -123.5t-137 -43.5z" />
    <glyph glyph-name="dotaccent" unicode="&#x2d9;" 
d="M165 730h170v-143h-170v143z" />
    <glyph glyph-name="ring" unicode="&#x2da;" 
d="M250 652q28 0 47.5 19.5t19.5 46.5v2q0 26 -19.5 45.5t-47.5 19.5t-47.5 -19.5t-19.5 -45.5v-2q0 -27 19.5 -46.5t47.5 -19.5zM250 591q-26 0 -50 10.5t-42.5 27.5t-29.5 40t-11 49v2q0 26 11 49t29.5 40t42.5 27t50 10t50 -10t42.5 -27t29.5 -40t11 -49v-2
q0 -26 -11 -49t-29.5 -40t-42.5 -27.5t-50 -10.5z" />
    <glyph glyph-name="cedilla" unicode="&#xb8;" 
d="M109 -109l92 124h125l-66 -188z" />
    <glyph glyph-name="hungarumlaut" unicode="&#x2dd;" 
d="M129 772l156 -54l30 54l166 -57l-143 -127h-123l59 108l-120 -108h-124z" />
    <glyph glyph-name="ogonek" unicode="&#x2db;" 
d="M381 -164q-109 -11 -166 17.5t-57 88.5q0 34 19 68h122q-5 -18 -5 -34q0 -26 20.5 -41.5t66.5 -16.5v-82z" />
    <glyph glyph-name="caron" unicode="&#x2c7;" 
d="M45 752h122l84 -61l84 61h120l-128 -165h-154z" />
    <glyph glyph-name="Lslash" unicode="&#x141;" horiz-adv-x="659" 
d="M107 245l-76 -22v173l76 22v282h193v-224l177 52v-174l-177 -52v-132h338v-170h-531v245z" />
    <glyph glyph-name="lslash" unicode="&#x142;" horiz-adv-x="401" 
d="M106 264l-82 -24v170l82 24v296h189v-242l82 24v-171l-82 -24v-317h-189v264z" />
    <glyph glyph-name="Scaron" unicode="&#x160;" horiz-adv-x="652" 
d="M115 912h122l84 -61l84 61h120l-128 -165h-154zM337 -12q-94 0 -178.5 29t-149.5 87l108 129q105 -84 227 -84q39 0 59.5 12.5t20.5 35.5v2q0 11 -5 19.5t-18.5 16.5t-36 15.5t-58.5 15.5q-56 13 -104 28.5t-83.5 40t-56 61t-20.5 90.5v2q0 49 18.5 90t54 71t85.5 46.5
t113 16.5q90 0 160.5 -23.5t127.5 -69.5l-97 -137q-48 34 -98.5 51.5t-97.5 17.5q-35 0 -52.5 -13t-17.5 -32v-2q0 -12 5.5 -21t19 -16.5t37 -15t59.5 -15.5q60 -13 108.5 -30.5t82.5 -42.5t52 -60.5t18 -84.5v-2q0 -54 -20.5 -96t-57.5 -71.5t-89 -45t-116 -15.5z" />
    <glyph glyph-name="scaron" unicode="&#x161;" horiz-adv-x="514" 
d="M54 752h122l84 -61l84 61h120l-128 -165h-154zM266 -12q-69 0 -134 19.5t-122 60.5l71 115q47 -31 95.5 -46.5t90.5 -15.5q48 0 48 29v2q0 16 -22 25t-65 21q-40 10 -75 23.5t-61 33t-41 47.5t-15 69v2q0 43 16.5 76.5t45.5 56t68.5 34.5t86.5 12q60 0 118 -16.5
t105 -46.5l-65 -120q-42 23 -85 36.5t-75 13.5q-22 0 -33 -7.5t-11 -18.5v-2q0 -16 22.5 -25.5t65.5 -22.5q40 -11 75 -24.5t61 -33t41 -47.5t15 -67v-2q0 -45 -16 -78.5t-45 -56.5t-70 -34.5t-90 -11.5z" />
    <glyph glyph-name="Yacute" unicode="&#xdd;" horiz-adv-x="723" 
d="M385 930l177 -57l-147 -128h-134zM264 262l-266 438h221l144 -255l145 255h217l-266 -435v-265h-195v262z" />
    <glyph glyph-name="yacute" unicode="&#xfd;" horiz-adv-x="626" 
d="M330 772l177 -57l-147 -128h-134zM211 -163q-51 0 -93.5 13t-80.5 34l59 133q23 -14 45 -21.5t38 -7.5q14 0 24.5 4.5t19.5 17.5l-212 531h199l108 -326l102 326h195l-198 -528q-18 -47 -37 -80.5t-43 -54.5t-55 -31t-71 -10z" />
    <glyph glyph-name="Thorn" unicode="&#xde;" horiz-adv-x="682" 
d="M348 260q52 0 81.5 24.5t29.5 66.5v2q0 45 -29.5 68t-82.5 23h-91v-184h92zM62 700h194v-100h106q66 0 120 -16t92 -47t58.5 -76.5t20.5 -103.5v-2q0 -62 -22.5 -109t-62.5 -78.5t-95.5 -47t-120.5 -15.5h-96v-105h-194v700z" />
    <glyph glyph-name="thorn" unicode="&#xfe;" horiz-adv-x="676" 
d="M347 147q47 0 79 34t32 89v2q0 54 -32 88t-79 34q-23 0 -43 -9t-35 -25.5t-23.5 -38.5t-8.5 -49v-2q0 -27 8.5 -49.5t23.5 -39t35 -25.5t43 -9zM51 730h190v-261q14 17 30 32t35.5 26.5t44 18.5t54.5 7q48 0 91.5 -19.5t76.5 -55.5t52.5 -88t19.5 -117v-2
q0 -66 -19.5 -118.5t-52 -89t-76 -56t-91.5 -19.5q-31 0 -55.5 6.5t-44.5 17t-36 25t-29 29.5v-226h-190v890z" />
    <glyph glyph-name="Zcaron" unicode="&#x17d;" horiz-adv-x="698" 
d="M149 912h122l84 -61l84 61h120l-128 -165h-154zM40 141l351 395h-339v164h607v-141l-351 -395h351v-164h-619v141z" />
    <glyph glyph-name="zcaron" unicode="&#x17e;" horiz-adv-x="563" 
d="M79 752h122l84 -61l84 61h120l-128 -165h-154zM32 125l250 265h-241v151h493v-125l-251 -265h251v-151h-502v125z" />
    <glyph glyph-name="eth" unicode="&#xf0;" horiz-adv-x="656" 
d="M325 146q51 0 79 30t28 72v2q0 21 -8 39.5t-22 32.5t-34.5 22t-44.5 8q-51 0 -79.5 -29.5t-28.5 -71.5v-2q0 -21 8 -39.5t22.5 -33t35 -22.5t44.5 -8zM321 -13q-64 0 -117 20.5t-91.5 55.5t-59.5 83t-21 103v2q0 47 17 88.5t48 72t75 48t98 17.5q64 0 108 -27l-80 107
l-115 -44l-65 89l117 40l-64 88h202l21 -30l99 37l64 -89l-103 -35l64 -90q26 -38 44.5 -70t30 -63t17 -62t5.5 -67v-2q0 -57 -20.5 -106.5t-59 -86t-93 -58t-121.5 -21.5z" />
    <glyph glyph-name="apple" horiz-adv-x="967" 
d="M417 64q0 -7 -2.5 -12t-9.5 -5q-6 0 -9 5t-3 12q0 16 12 16t12 -16zM352 64h-3q-8 0 -8 8q0 6 7 6q4 0 4 -4v-10zM553 79q4 0 0 -9q-5 9 0 9zM393 182q0 -7 -4 -7h-5q-11 0 -18.5 10t-7.5 22q0 17 14 17h6q3 -1 3.5 -1.5t2.5 -5.5zM716 187q0 -13 -11 -13q-9 0 -17 11.5
t-8 26.5q0 14 11 14q9 0 17 -11.5t8 -27.5zM275 200q-8 0 -11.5 5t-3.5 10q0 9 8 9t9 -5l3 -19h-5zM381 384q-13 0 -13 11t13 11h11v-22h-11zM684 535q0 -13 -11 -13q-9 0 -17 11.5t-8 26.5q0 14 11 14q9 0 17 -11.5t8 -27.5zM272 553q-3 -4 -7 -4t-4 2q0 3 4 3q5 0 7 -1z
M566 553q-3 -4 -7 -4t-4 2q0 3 4 3q5 0 7 -1zM171 548q-8 0 -11.5 5t-3.5 10q0 9 8 9t9 -5l3 -19h-5zM441 -88q0 13 -11 13t-11 -12q0 -13 11 -13t11 12zM800 -88q0 13 -11 13t-11 -12q0 -13 11 -13t11 12zM559 -80l-5 -12h10zM394 -83q0 8 -11 7v-13q11 0 11 6zM525 -82
q0 8 -11 6v-12q11 -1 11 6zM606 -83q0 8 -11 7v-13q11 0 11 6zM309 48q-2 0 -3 1q-3 1 -3 5v20q0 2 3 4q1 1 3 1v2h-18v-2q1 0 3 -1q3 -3 3 -4v-9q-2 0 -4 2l-8 8q-3 1 -1 3q1 1 2 1v2h-14v-2q1 0 3 -1t2.5 -1.5t2.5 -1.5l10 -9l-13 -13q-1 -1 -2 -1.5t-2 -1.5q-2 -1 -3 -2
v-2h17v2q-2 0 -3 1t1 4l8 8q2 2 4 2v-9q0 -2 -3 -5q-2 -1 -3 -1v-2h18v2zM364 48q-2 0 -3 1q-2 2 -2 4v20q0 3 2 5q1 1 3 1v2h-18q-13 0 -13 -9q0 -5 9 -9l-7 -10q-2 -2 -3.5 -2.5t-2.5 -1.5l-2 -1v-2h11l7 12q3 4 7 4v-9q0 -2 -1 -2.5t-2 -1.5t-2 -1v-2h17v2zM425 64
q0 8 -5 13t-15 5t-15 -5t-5 -13t5 -13.5t15 -5.5t15 5.5t5 13.5zM480 81h-15v-2q1 0 2 -1t-1 -4l-6 -9l-6 9q-2 2 0 4q1 1 3 1v2h-15v-2q1 0 3 -1t5 -4l8 -12v-8q0 -2 -3 -5q-1 -1 -2 -1v-2h17v2q-2 0 -3 1q-2 2 -2 5v8l8 12q1 2 2.5 2.5t2.5 1.5t2 1v2zM568 81v-2q1 0 2 -1
t0 -4l-9 -19l-5 10l4 8q1 2 2 2.5t2 1.5l2 2v2h-26l1 -2q1 0 2 -1l2 -2l3 -3l3 -5l-7 -13l-8 18q-2 3 0 5q1 1 2 1v2h-13v-2q1 0 2 -1q3 -3 4 -5l13 -27h1q1 -1 1 0l8 16l9 -16h1l12 27q1 2 2.5 3t2.5 2t2 1v2h-15zM633 48q-2 -1 -3 0q-2 0 -2 5v21q0 3 2 5h3v2h-29l-2 -10
l2 -1q0 2 2 4q2 4 7 4h4q4 0 4 -3v-10h-4q-3 0 -5 2q-1 1 -1 3h-2v-13h2q0 1 1 3q3 3 5 3h4v-11q0 -3 -4 -3h-4q-4 0 -8 4q-2 2 -2 5l-2 -1l2 -11h30v2zM694 48q-2 0 -3 1q-3 1 -3 4v20q0 2 3 4q1 1 3 2v2h-10l-24 -26v18q0 3 3 5q1 1 3 1v2h-15v-2q1 0 3 -1q3 -3 3 -5v-28
h3l25 28v-20q0 -1 -3 -4q-1 -1 -2 -1v-2h14v2zM827 133h-685v-6h685v6zM306 174q-2 0 -4 1t-3.5 2t-2.5 5l-7 35q-1 5 3 7q2 1 4 1l-1 3h-27q-20 0 -20 -15q0 -6 5.5 -10t13.5 -5l-9 -16q-2 -4 -4.5 -5t-4.5 -2q-3 -1 -5 -1l1 -3h19l12 23q1 3 5 3l3 -15q1 -5 -3 -7
q-2 -1 -4 -1l1 -3h29zM413 175q-2 -1 -4 0q-5 2 -6 9l-8 31q-3 9 8 10l-1 3h-30q-9 0 -17 -5.5t-8 -16.5q0 -16 11 -25.5t24 -9.5h32zM522 174q-1 0 -3 1q-5 2 -6 9l-7 32q-1 6 3 8q2 1 5 1l-1 3h-14l-29 -42l-5 30q-1 6 3 8q2 1 4 1l-1 3h-21l1 -3q2 0 4 -1q3 -2 5 -8
l8 -45l3 -1l30 44l6 -30q1 -7 -2 -9q-2 -1 -4 -1l1 -3h21zM620 228h-29l1 -3q2 0 4 -1q5 -2 6 -8l5 -21q2 -10 1 -15t-12 -5q-8 0 -13 6.5t-7 15.5l-4 19q-1 7 3 9q2 1 4 0v3h-24l1 -3q2 0 5 -1q5 -2 6 -8l4 -19q2 -8 8 -17.5t20 -9.5q17 0 19 8t0 16l-5 22q-2 4 -0.5 6
t3.5 3t5 0zM822 174q-2 0 -4 1t-3.5 2t-2.5 5l-7 35q-1 5 3 7q2 1 4 1l-1 3h-45v-10v-7h4q-1 3 1 6q2 7 12 7h4q5 0 6 -6l3 -16h-4q-5 0 -9 4q-2 2 -3 5h-3l5 -23h3q0 2 1 5q2 6 7 6h4l3 -17q1 -5 -3 -7q-2 -1 -4 -1l1 -3h29zM203 217q-3 5 -6.5 9t-11.5 4q-15 0 -14 -23
q-3 10 -8 16.5t-13 6.5q-5 0 -8.5 -3t-3.5 -9l3 -1q0 6 8 6q10 0 15.5 -10.5t8.5 -22.5q2 -7 1 -9.5t-3 -4.5t-4 -1l1 -4h28l-1 4q-2 -1 -4 0q-5 2 -6 9q-5 17 -5 25q0 13 9 13q5 0 7.5 -2.5l4.5 -4.5zM728 192q0 15 -11.5 26.5t-25.5 11.5q-7 0 -15 -5t-8 -17
q0 -16 11.5 -27t25.5 -11q7 0 15 5t8 17zM827 277h-685v-6h685v6zM283 341h-14v65h14v34h-141v-62h41v28h33v-20h-24v-24h24v-21h-33v28h-41v-61h141v33zM458 341h-14v65h14v34h-96q-22 0 -34.5 -11.5t-12.5 -28.5t12.5 -28.5t34.5 -11.5h30v-19h-15v-33h81v33zM648 440h-81
v-34h11l-15 -23l-15 23h10v34h-62v-34h12l37 -46v-19h-14v-33h81v33h-15v20l37 45h14v34zM827 440h-147v-62h36v28h11v-65h-14v-33h81v33h-14v65h11v-28h36v62zM827 481h-685v-6h685v6zM400 521q0 2 -3 5t-10 4q-4 3 -4.5 10.5t-2 16t-6 15t-16.5 6.5q-5 0 -9 -3.5t-4 -6.5
q0 -5 5 -5q4 0 4 6t5 6t6.5 -5t2.5 -12t3.5 -14.5t8.5 -13.5q-11 0 -14.5 -6.5t-8.5 -6.5t-5 4q0 2 1 2.5t1 2.5q0 5 -5 5t-5 -7q0 -5 5 -8.5t10 -3.5q13 0 15 6.5t10 6.5q3 -7 12 -7q4 0 4 3zM202 522q-2 0 -4 1t-3.5 2t-2.5 5l-7 35q-1 5 3 7q2 1 4 1l-1 3h-27
q-20 0 -20 -15q0 -6 5.5 -10t13.5 -5l-9 -16q-2 -4 -4.5 -5t-4.5 -2q-3 -1 -5 -1l1 -3h19l12 23q1 3 5 3l3 -15q1 -5 -3 -7q-2 -1 -4 -1l1 -3h29zM497 522q-2 0 -4 1t-3.5 2t-2.5 5l-7 35q-1 5 3 7q2 1 4 1l-1 3h-45v-10v-7h4q-1 3 1 6q2 7 12 7h4q5 0 6 -6l3 -16h-4
q-5 0 -9 4q-2 2 -3 5h-3l5 -23h3q0 2 1 5q2 6 7 6h4l3 -17q1 -5 -3 -7q-2 -1 -4 -1l1 -3h29zM820 522q-2 0 -4 1t-3.5 2t-2.5 5l-7 35q-1 5 3 7q2 1 4 1l-1 3h-28l1 -3q2 0 4 -1q4 -2 5 -7l3 -15h-24l-3 15q-1 5 3 7q2 1 4 1l-1 3h-29l1 -3q2 0 4 -1q5 -2 6 -7l7 -35
q1 -5 -3 -7q-2 -1 -4 -1l1 -3h29l-1 3q-2 0 -4 1t-3.5 2t-2.5 5l-3 16h24l3 -16q1 -5 -3 -7q-2 -1 -4 -1l1 -3h29zM295 537q0 12 -14 17q5 3 5 9q0 5 -5 10t-16 5q-13 0 -13 -11q0 -6 5 -6q4 0 4 3t-1.5 3.5t-1.5 2.5q0 5 7 5q10 0 10 -12q0 -4 -2 -6q-16 2 -16 -6
q0 -6 8 -6q6 0 11 5q6 -5 6 -15q0 -14 -12 -14t-12 9q0 3 3 3q1 0 2 -1t3 -1q4 0 4 5t-7 5q-9 0 -9 -10q0 -13 16 -13q13 0 19 5.5t6 13.5zM589 537q0 12 -14 17q5 3 5 9q0 5 -5 10t-16 5q-13 0 -13 -11q0 -6 5 -6q4 0 4 3t-1.5 3.5t-1.5 2.5q0 5 7 5q10 0 10 -12
q0 -4 -2 -6q-16 2 -16 -6q0 -6 8 -6q6 0 11 5q6 -5 6 -15q0 -14 -12 -14t-12 9q0 3 3 3q1 0 2 -1t3 -1q4 0 4 5t-7 5q-9 0 -9 -10q0 -13 16 -13q13 0 19 5.5t6 13.5zM696 540q0 15 -11.5 26.5t-25.5 11.5q-7 0 -15 -5t-8 -17q0 -16 11.5 -27t25.5 -11q7 0 15 5t8 17z
M827 624h-685v-6h685v6zM439 664q-2 -1 -3 0q-2 0 -2 5v21q0 3 2 5h3v2h-29l-2 -10l2 -1q0 2 2 4q2 4 7 4h4q4 0 4 -3v-10h-4q-3 0 -5 2q-1 1 -1 3h-2v-13h2q0 1 1 3q3 3 5 3h4v-11q0 -3 -4 -3h-4q-4 0 -8 4q-2 2 -2 5l-2 -1l2 -11h30v2zM504 664q-2 -1 -3 0q-3 0 -3 5v21
q0 3 3 5h3v2h-18v-1v-1h2q3 -3 3 -5v-9h-17v9q0 3 2 5h3v1v1h-17v-2h2q3 -3 3 -5v-21q0 -2 -1 -2.5t-2 -1.5t-2 -1v-2h17v2q-2 0 -3 1q-2 2 -2 4v10h17v-10q0 -5 -3 -5q-1 -1 -2 0v-2h18v2zM559 686v4q0 2 -0.5 4t-0.5 4q-2 -1 -17 -1t-18 1q0 -2 -0.5 -4t-0.5 -4v-4h2
q1 2 3 4q5 5 7 5q3 0 3 -3v-23q0 -5 -3 -5q-1 -1 -2 0v-2h17v2q-2 -1 -3 0q-2 0 -2 5v23q0 3 3 3t8 -5q2 -2 2 -4h2zM284 -101q0 -4 -4 -4t-4 4t4 4t4 -4zM716 -101q0 -4 -4 -4t-4 4t4 4t4 -4zM143 -105h-1l-11 23l-10 -23h-1l-12 34l6 1l7 -23l10 23h1l10 -23l7 22h6z
M199 -105h-1l-11 23l-10 -23h-1l-12 34l6 1l7 -23l10 23h1l10 -23l7 22h6zM255 -105h-1l-11 23l-10 -23h-1l-12 34l6 1l7 -23l10 23h1l10 -23l7 22h6zM323 -76h-12v-28h-6v28h-12v5h30v-5zM351 -90v-14h-6v14l-14 19l6 1l11 -15l9 14h7zM400 -82q0 -12 -17 -12v-10h-6v33
q14 2 18.5 -2t4.5 -9zM447 -87q0 -8 -4.5 -13t-12.5 -5t-12.5 5t-4.5 12q0 8 5 13t13 5q7 0 11.5 -5t4.5 -12zM491 -101q-6 -4 -13 -4q-8 0 -13 4.5t-5 12.5t5.5 13t13.5 5q6 0 12 -4l-2 -5q-4 4 -11 4q-12 0 -12 -13q0 -12 13 -12q2 0 6 2v7h-9v5h15v-15zM527 -104l-8 11
h-5v-11h-6v33q14 2 18.5 -1.5t4.5 -8.5q0 -7 -7 -10l10 -13h-7zM570 -104l-4 8h-14l-3 -8h-6l15 34h2l16 -34h-6zM612 -82q0 -12 -17 -12v-10h-6v33q14 2 18.5 -2t4.5 -9zM650 -104v15h-16v-15h-6v33h6v-13h16v13h6v-33h-6zM689 -90v-14h-6v14l-14 19l6 1l11 -15l9 14h7z
M757 -102q-3 -3 -10 -3q-18 0 -18 17q0 8 5 13t13 5q6 0 11 -3l-2 -5q-3 3 -9 3q-5 0 -8.5 -3.5t-3.5 -8.5q0 -13 13 -13q4 0 10 4zM806 -87q0 -8 -4.5 -13t-12.5 -5t-12.5 5t-4.5 12q0 8 5 13t13 5q7 0 11.5 -5t4.5 -12zM853 -104l-3 20l-10 -21h-2l-10 21l-3 -20h-6l6 34
h1l13 -26l13 26h1l6 -34h-6zM101 0v750h767v-750h-767z" />
    <glyph glyph-name="Eth" unicode="&#xd0;" horiz-adv-x="815" 
d="M384 167q90 0 141.5 47.5t51.5 134.5v2q0 86 -51.5 134t-141.5 48h-85v-104h119v-153h-119v-109h85zM111 276h-80v153h80v271h270q94 0 167.5 -25.5t124 -71.5t77 -109.5t26.5 -139.5v-2q0 -76 -27 -140.5t-78 -111.5t-125.5 -73.5t-168.5 -26.5h-266v276z" />
  </font>
</defs></svg>
